<?xml version="1.0" encoding="UTF-8"?>
<mei xml:id="m-47c8471b-ca1f-4462-999e-39ff408e463e" xmlns="http://www.music-encoding.org/ns/mei" meiversion="3.0.0">
	<music xml:id="m-5d808f2c-1b24-4ee5-a2f7-bd79cc03e893">
		<body xml:id="m-a2bcb49a-ecfd-485b-9519-3cb2328bf206">
			<mdiv xml:id="m-f75f36ad-1acd-4b73-b12b-2805008f8c86">
				<score xml:id="m-a6e58d7a-c5d0-4c64-8b4d-d2298f3f090b">
					<scoreDef xml:id="m-f4bb1f65-0201-42e3-b0ac-32dbb5389aa4" meter.count="2" meter.unit="4" key.sig="3s">
						<staffGrp xml:id="m-91b2100f-1b2b-4a6a-a1d7-43c96f1bf749">
							<staffDef xml:id="m-0798fb0e-6dda-405b-9e25-aa707350f026" n="1" lines="5" clef.shape="G" clef.line="2" />
						</staffGrp>
					</scoreDef>
					<section xml:id="m-c523a124-df43-463d-a4b0-32d34bd06377">
						<measure xml:id="m-a6865662-a2cb-40db-b150-aeafcb31ba5b" n="1">
							<staff xml:id="m-b2ad000e-f41b-47d3-ab28-05bf0c95b00d" n="1">
								<layer xml:id="m-14f1b060-777b-4d06-bcce-d4a831842d66" n="1">
									<beam xml:id="m-76ff5f45-a553-453f-a28e-349284038cdd">
										<note xml:id="m-9a682a8f-5b5e-4a1c-a77e-191ed372f8d5" pname="a" oct="3" dur="8" artic="stacc" />
										<tuplet xml:id="m-984cb812-f1e3-4f56-87ab-87b025b47f9e" bracket.visible="false" dur.visible="true" num="3" numbase="1" num.format="count">
											<note xml:id="m-7451d7de-aef6-4302-a1fc-4bdb723dff35" pname="a" oct="3" dur="16" tie="i" />
											<note xml:id="m-c5b27f98-3013-479d-a91d-4ce3f0b9ea96" pname="a" oct="3" dur="64" tie="t" />
											<note xml:id="m-3210f36e-750e-4fd5-86fc-1f7662d0bf7a" pname="b" oct="3" dots="1" dur="32" />
											<note xml:id="m-943c966b-d567-4531-897f-fe70d675170d" pname="b" oct="3" dots="1" dur="32" />
											<note xml:id="m-a360c2cf-da9b-408d-a0be-481c30018fd4" pname="c" oct="4" accid="s" dur="64" tie="i" />
										</tuplet>
									</beam>
									<beam xml:id="m-9518656b-e767-48d4-908d-e392947648e0">
										<note xml:id="m-910f9ca0-3dec-49e9-b807-83146513aa15" pname="c" oct="4" accid="s" dur="8" tie="t" />
										<note xml:id="m-80013eb1-f38c-466c-87cc-a117f2423b35" pname="a" oct="3" dots="2" dur="16" />
										<note xml:id="m-4b87c45b-2738-4a14-9fd4-64bcc795be83" pname="f" oct="3" accid="s" dur="64" />
									</beam>
								</layer>
							</staff>
						</measure>
						<measure xml:id="m-1e24d6b5-e4a7-47a6-836e-86ba5a34e4f2" n="2">
							<staff xml:id="m-62a36104-a96a-441c-9ed7-7ef590971a56" n="1">
								<layer xml:id="m-cdf1717a-cc46-49c2-a6bd-66d3f029db23" n="1">
									<beam xml:id="m-e06140ad-0855-4131-a961-ef505faa007f">
										<note xml:id="m-b3d3c4ba-d5d0-4802-a634-ca8144e04961" pname="f" oct="3" accid="s" dots="2" dur="16" />
										<note xml:id="m-d7a71203-7e50-438d-b137-71f670cd7b9d" pname="b" oct="3" dur="64" />
									</beam>
									<note xml:id="m-93341164-f59d-4111-b5f8-e21ac0fe7979" pname="b" oct="3" dots="1" dur="4" />
								</layer>
							</staff>
						</measure>
						<measure xml:id="m-dacd16ab-3968-4722-a1e2-9de12c3d3364" n="3">
							<staff xml:id="m-ba2ea559-82ff-4132-915e-95f2750c3ba3" n="1">
								<layer xml:id="m-2cd51e5a-483c-431e-a55e-1ceb6ba3fb4f" n="1">
									<tuplet xml:id="m-e4e56603-ea30-4d23-955a-fa4ef6392516" bracket.visible="true" dur.visible="true" num="3" numbase="1" num.format="count">
										<tuplet xml:id="m-179a3de1-e667-4c6c-99db-afacf00e7b6c" bracket.visible="false" dur.visible="true" num="3" numbase="1" num.format="count">
											<beam xml:id="m-5267fb5c-3212-4117-bbf4-e3bb22587f72">
												<note xml:id="m-4df2b443-9ae4-4a52-a411-68371f764fce" pname="g" oct="3" accid="s" dur="16" />
												<rest xml:id="m-daa42e12-ff93-4200-86f0-7ebe2015d11f" dur="16" />
												<note xml:id="m-36c6454b-41b9-4fd7-b37a-63c0228f5eaa" pname="g" oct="3" accid="s" dur="16" />
											</beam>
										</tuplet>
										<rest xml:id="m-61a42eb5-2d2f-46e7-aae5-d0033fd5a780" dur="64" />
										<note xml:id="m-0d088c49-ce64-4834-bd8d-fc828f560ee3" pname="g" oct="3" accid="s" dots="1" dur="32" />
										<beam xml:id="m-8460821e-c9ac-4984-8dc6-c1fb82ec78fe">
											<note xml:id="m-f70bb9ad-a780-4aeb-891a-e0fe01be507b" pname="g" oct="3" accid="s" dots="1" dur="32" />
											<note xml:id="m-52d0b040-d541-4075-a8b0-a3c2d6cf4d2d" pname="a" oct="3" dur="64" tie="i" />
										</beam>
										<note xml:id="m-125a16ed-60d5-4798-b2a9-b8393bd27843" pname="a" oct="3" dur="8" tie="m" />
										<beam xml:id="m-281def7b-3f44-47a6-ab9c-8005df3fc554">
											<note xml:id="m-2eec8b52-e871-4ef2-a8b3-e7e9ec97f048" pname="a" oct="3" dur="32" tie="t" />
											<note xml:id="m-f9f216c3-4bc3-4d4b-8e87-9173af5adf9c" pname="b" oct="3" dots="1" dur="16" />
											<note xml:id="m-9b8523ae-65ee-4937-984b-2a9982f2f378" pname="b" oct="3" dots="1" dur="16" />
											<note xml:id="m-ff20ba8c-2ce9-43a6-998a-98b3794a21bc" pname="e" oct="3" dur="32" tie="i" />
										</beam>
									</tuplet>
								</layer>
							</staff>
						</measure>
						<measure xml:id="m-99dea3ea-3d15-4b95-9cf8-bf45f5ff859f" n="4">
							<staff xml:id="m-490c60f5-be01-4b1d-a856-8d58adad033e" n="1">
								<layer xml:id="m-55d777df-995e-41ae-86d5-57f82d7ed14c" n="1">
									<note xml:id="m-6699f471-9635-48be-b8b6-ae439d52d19c" pname="e" oct="3" dur="2" tie="t" />
								</layer>
							</staff>
						</measure>
						<measure xml:id="m-246cef82-162b-4dbb-951a-39e2eb78adc3" n="5">
							<staff xml:id="m-1d5bac52-c50b-4f77-afc5-e05168475ead" n="1">
								<layer xml:id="m-be8eee69-086c-474b-aeea-8734adddddc1" n="1">
									<beam xml:id="m-571a36bf-484e-4188-ac07-2ea13df4f9b3">
										<note xml:id="m-cb97f497-e764-457a-838e-056fc5d1e5b8" pname="a" oct="3" dur="8" artic="stacc" />
										<note xml:id="m-1ed0cd4f-0720-4ef9-a1ee-4f13191e9262" pname="a" oct="3" dur="16" />
										<note xml:id="m-6711eda8-7eb6-4754-8f7d-66e830738a58" pname="b" oct="3" dur="16" />
									</beam>
									<beam xml:id="m-05625f98-86ae-4787-8503-a727f689e297">
										<note xml:id="m-be0c9d79-3685-4dbe-8ff9-34fffd0a0875" pname="c" oct="4" accid="s" dur="8" />
										<note xml:id="m-b5716588-8335-4889-a6df-15443939da25" pname="a" oct="3" dur="8" />
									</beam>
								</layer>
							</staff>
						</measure>
						<measure xml:id="m-d342c545-756d-4515-b845-c2ba565c5755" n="6">
							<staff xml:id="m-3b1451e8-0e2a-4549-8c9f-04b592419fed" n="1">
								<layer xml:id="m-241e2c3a-ff1a-4299-b3e2-b955d3bd215c" n="1">
									<beam xml:id="m-c07d39d5-a0ab-4291-b1ce-bf7a24c946bc">
										<note xml:id="m-491fe75d-532c-42ea-91ec-99f6d9ce83c0" pname="f" oct="3" accid="s" dur="8" />
										<note xml:id="m-07e07fe4-c31f-4f0e-b103-d2d73ce2f65b" pname="b" oct="3" dur="8" tie="i" />
									</beam>
									<note xml:id="m-91f2fab2-0529-437b-affc-34771c96b96d" pname="b" oct="3" dur="8" tie="t" />
									<note xml:id="m-7da5994b-51a5-4491-a12d-7183556055e2" pname="a" oct="3" dur="16" />
									<rest xml:id="m-715533ad-6253-425d-b4d9-d8707336c30f" dur="32" />
									<rest xml:id="m-15af590c-5ff7-4e92-858b-1d1a57a790f0" dur="64" />
									<note xml:id="m-026a7ea1-a574-494d-bc43-c8e244cbb8a5" pname="a" oct="3" dur="64" />
								</layer>
							</staff>
						</measure>
						<measure xml:id="m-24a387a7-97c6-40c4-b8e6-21adbe85278e" n="7">
							<staff xml:id="m-c617d81b-8d5f-4d3e-b516-ff16535fb9b4" n="1">
								<layer xml:id="m-e1f7fd77-217d-4563-a239-217e3f6cfd91" n="1">
									<beam xml:id="m-ed16faa4-f566-485d-983f-55a3183c2805">
										<note xml:id="m-2e89b0b7-667a-4d24-8d93-c74a4205afc8" pname="g" oct="3" accid="s" dur="8" />
										<note xml:id="m-36ece6de-bd1c-406b-ac59-5b71732289c1" pname="f" oct="3" accid="s" dur="16" />
										<note xml:id="m-27f488c5-c2ff-4b1a-849a-485d6b6cabf0" pname="e" oct="3" dur="16" artic="stacc" />
									</beam>
									<beam xml:id="m-e3b61aab-201b-4e60-be17-84d068cbe98d">
										<note xml:id="m-2d88abf5-a5bc-4f0c-acf0-d0e154ea90c5" pname="e" oct="3" dur="8" />
										<note xml:id="m-54aa3fb7-f24e-4349-a141-3194601ce8ea" pname="f" oct="3" accid="s" dur="16" />
										<note xml:id="m-e4065d9f-012e-4935-b85a-38bbbfe19708" pname="g" oct="3" accid="s" dur="16" />
									</beam>
								</layer>
							</staff>
						</measure>
						<measure xml:id="m-5d6499e2-b260-4408-88fc-652ca838aa6b" n="8">
							<staff xml:id="m-5c19028f-8951-4dcf-9c86-4df2732fc44c" n="1">
								<layer xml:id="m-715e0b55-666e-4cd3-8185-10dcff92f4f8" n="1">
									<note xml:id="m-e57d49e9-c924-4767-a52c-b6e5cefd1ad0" pname="a" oct="3" dur="4" />
									<rest xml:id="m-2ba0f2e2-b8cd-4fb4-bd7d-2730f60ff6e4" dur="8" />
									<rest xml:id="m-267a8312-335c-4281-9316-e1abe8a6f541" dur="16" />
									<note xml:id="m-fb6e5c91-7caa-45f2-ab16-2faeb4b6832c" pname="e" oct="4" dur="16" />
								</layer>
							</staff>
						</measure>
						<measure xml:id="m-796e6482-8d0d-44eb-93a0-9c953929caa3" n="9">
							<staff xml:id="m-cda78e42-e98c-43b1-9f09-ec0b5b796b1c" n="1">
								<layer xml:id="m-cb708298-1ea3-46cf-aa10-8d37604bd8c4" n="1">
									<tuplet xml:id="m-8f646e3e-1169-4948-8c0e-076c41bc4235" bracket.visible="false" dur.visible="true" num="3" numbase="1" num.format="count">
										<beam xml:id="m-4e61ac98-a141-461e-92db-16ed2a82e2b1">
											<note xml:id="m-90f11945-170c-4964-88a6-bf3d7eabb5d8" pname="a" oct="4" dur="8" tie="i" />
											<note xml:id="m-db95e940-5f1d-437a-8b27-60876e4cbf4a" pname="a" oct="4" dur="8" tie="t" />
											<note xml:id="m-80992c28-0c3b-417f-8936-b5975fcab499" pname="b" oct="4" dots="1" dur="16" />
											<note xml:id="m-569d5e86-416e-4dc1-bf78-225b9d30e772" pname="c" oct="5" accid="s" dur="32" tie="i" />
										</beam>
									</tuplet>
									<beam xml:id="m-d79967db-59da-474f-8b2b-a68e8d557b49">
										<note xml:id="m-8b6ede61-43be-41e7-9682-ed3955dc2799" pname="c" oct="5" accid="s" dur="8" tie="t" />
										<note xml:id="m-939cf547-9579-4cdd-8f01-02bbe24a0ee8" pname="a" oct="4" dur="8" />
									</beam>
								</layer>
							</staff>
						</measure>
						<measure xml:id="m-cabf2160-47df-486c-acb3-5f00f3aad596" n="10">
							<staff xml:id="m-3e0aa7d2-ae52-4037-8273-ec753c1df920" n="1">
								<layer xml:id="m-015e0e3f-ac4a-4f56-9128-ef3d1926225c" n="1">
									<beam xml:id="m-3af9747a-d8a1-4eff-81fe-d784a246a7c5">
										<note xml:id="m-f37665ee-4d77-4982-9a26-ef7b3b907e06" pname="f" oct="4" accid="s" dur="8" />
										<note xml:id="m-c6fe3198-8cda-499f-9c09-bf048573ce98" pname="b" oct="4" dur="8" tie="i" />
									</beam>
									<beam xml:id="m-25dc3d4b-f1b3-4e35-af1b-e9d331a9d06c">
										<note xml:id="m-54e6aee0-3c08-440d-b3f3-e0d7d4efedae" pname="b" oct="4" dur="8" tie="t" />
										<note xml:id="m-48c018c5-c345-40fc-9996-a7032bb468a2" pname="a" oct="4" dur="8" />
									</beam>
								</layer>
							</staff>
						</measure>
						<measure xml:id="m-6a7cac7b-786a-4d41-a88c-b76c4add837d" n="11">
							<staff xml:id="m-c7b5fd9e-65b9-4d2e-b66b-d7530ebdada3" n="1">
								<layer xml:id="m-038e3315-503b-4a9f-bfc7-faf56838a662" n="1">
									<note xml:id="m-c3429197-9584-4f50-b583-446c172248cc" pname="g" oct="4" accid="s" dur="8" />
									<rest xml:id="m-b89718d2-ca30-4c96-bdff-ac8072b0eda4" dur="32" />
									<rest xml:id="m-de815209-5e18-4b8b-88a6-0bf7a7ca3346" dur="64" />
									<note xml:id="m-64be7c0d-04da-40d9-a3d6-e3a26e712f0a" pname="g" oct="4" accid="s" dur="64" />
									<beam xml:id="m-650d265a-7bc4-4fae-9d07-848b1da36d24">
										<note xml:id="m-f59e5284-e02b-4721-99f9-346103d7be4f" pname="g" oct="4" accid="s" dots="1" dur="32" />
										<note xml:id="m-09631ff1-a0bd-4205-bde3-98885cfa170a" pname="a" oct="4" dur="64" />
									</beam>
									<tuplet xml:id="m-66ce7517-06af-483a-9bfc-0f24a4ebc30e" bracket.visible="true" dur.visible="true" num="3" numbase="1" num.format="count">
										<note xml:id="m-ae8f20d8-1674-4474-923a-01dc3088e7f2" pname="a" oct="4" dur="8" />
										<beam xml:id="m-fe3bfa41-914a-4a99-bec1-03a98c1cd1f8">
											<note xml:id="m-1d3a41ff-1f44-4040-8c92-33ccef2113f0" pname="a" oct="4" dots="1" dur="32" />
											<note xml:id="m-325457f5-6091-4a67-96ba-99b0026efcba" pname="b" oct="4" dur="64" tie="i" />
											<note xml:id="m-7a274b97-5d66-43d9-80b7-0ccb8fe7082c" pname="b" oct="4" dur="16" tie="m" />
										</beam>
										<note xml:id="m-5bdab979-a243-4cff-acf1-7b20505f8260" pname="b" oct="4" dur="16" tie="t" />
										<rest xml:id="m-72a47558-486a-4eee-858c-1d4750dc0646" dur="32" />
										<beam xml:id="m-9d3b54e3-1bb7-41a2-883a-a9a0bbbc6118">
											<note xml:id="m-055d80e6-dc16-49e7-83cd-d67bc3b2415c" pname="b" oct="4" dur="64" />
											<note xml:id="m-9989faa2-07c6-4ed7-ad03-3fad374ac8cb" pname="e" oct="4" dur="64" tie="i" />
										</beam>
									</tuplet>
								</layer>
							</staff>
						</measure>
						<measure xml:id="m-1a40f74f-90de-4e61-b158-98c400f811fc" n="12">
							<staff xml:id="m-a02967ca-2717-4fc8-97c5-0868a4e29c0a" n="1">
								<layer xml:id="m-271e8ac4-614d-49f0-af7c-6e7286330ae3" n="1">
									<note xml:id="m-90dc458b-1ccc-496f-9339-e86da5e3c681" pname="e" oct="4" dur="4" tie="m" />
									<note xml:id="m-4acc4b7f-c697-4111-b9a5-01e15e492c7b" pname="e" oct="4" dur="16" tie="t" />
									<rest xml:id="m-2dee9d93-0d61-4458-bedf-b500e88487cc" dur="16" />
									<rest xml:id="m-6882e17f-3ffd-409b-b10b-167edda12f63" dur="16" />
									<note xml:id="m-2a4f6741-992e-4e70-a137-5a955a9eaadb" pname="e" oct="4" dur="16" />
								</layer>
							</staff>
						</measure>
						<measure xml:id="m-138038e6-9a32-45f1-8625-4641a0d06bde" n="13">
							<staff xml:id="m-633f26ae-f49e-451d-8547-f678c6b386f0" n="1">
								<layer xml:id="m-b2450025-a012-45eb-a44b-407089f87b93" n="1">
									<beam xml:id="m-8ebe0eec-fb15-4ce7-83ac-8318a0631b44">
										<note xml:id="m-ac088396-ab05-4f8e-a4fa-e1fd6e4a3289" pname="a" oct="4" dur="8" />
										<note xml:id="m-6f7e4dae-f33b-4f96-902b-85092eec483b" pname="a" oct="4" dots="1" dur="32" />
										<note xml:id="m-cf0f6421-a7da-4fa8-b6ce-486eda582ad8" pname="b" oct="4" dur="64" tie="i" />
										<note xml:id="m-28cdb46f-d780-4435-84fc-980df48df4fc" pname="b" oct="4" dur="16" tie="t" />
									</beam>
									<beam xml:id="m-e70a6e93-d624-4769-96d5-2fe34579aa28">
										<note xml:id="m-821edec2-9bf3-40c8-b5a9-156bcfc91eda" pname="c" oct="5" accid="s" dur="8" />
										<note xml:id="m-ed0516c7-ddbe-4390-a149-cc038882538c" pname="a" oct="4" dur="8" />
									</beam>
								</layer>
							</staff>
						</measure>
						<measure xml:id="m-9eb94274-fc70-4ede-814e-fd985cb3e8f8" n="14">
							<staff xml:id="m-118fd052-daa2-4a2b-a4df-2d6d627e5f76" n="1">
								<layer xml:id="m-8dee3d27-df11-43c4-aed7-8f6c086b708d" n="1">
									<beam xml:id="m-af7edaec-3752-49e0-9c08-195ba7981a85">
										<note xml:id="m-90210e0f-2cb9-4c67-8cb2-1b3f4e7d0dc4" pname="f" oct="4" accid="s" dur="8" />
										<note xml:id="m-b3232fa1-13c3-4200-852c-3c771abe1b7a" pname="b" oct="4" dur="8" tie="i" />
									</beam>
									<beam xml:id="m-372cf170-3790-4b32-9ec1-cdf381b1db6f">
										<note xml:id="m-31c8d52f-f5fa-4a89-b04d-bd1a02e14c22" pname="b" oct="4" dur="8" tie="t" />
										<note xml:id="m-f43b5dc6-3ca7-40ff-a3d2-abe3911eee6b" pname="a" oct="4" dur="8" artic="stacc" />
									</beam>
								</layer>
							</staff>
						</measure>
						<measure xml:id="m-f313aa44-ae30-4253-8957-8866983cd836" n="15">
							<staff xml:id="m-6fa8cd86-6d55-4808-a276-c5f82f17d13f" n="1">
								<layer xml:id="m-c7b113c3-1fce-425e-9616-64afb25bf0a0" n="1">
									<tuplet xml:id="m-5f9c9b11-6dd4-42dc-b9c7-d9f56589d9ed" bracket.visible="true" dur.visible="true" num="3" numbase="1" num.format="count">
										<tuplet xml:id="m-a711792b-2322-45a4-a9b1-4ed6a63c6a06" bracket.visible="false" dur.visible="true" num="3" numbase="1" num.format="count">
											<beam xml:id="m-9a25cf44-4da4-450a-9d25-a603f1070799">
												<note xml:id="m-bbb9d63e-dec6-45d0-962b-745487f3cc11" pname="a" oct="4" dur="16" />
												<note xml:id="m-3fefeef7-d678-4faa-8216-cbd23c3c621b" pname="g" oct="4" accid="s" dur="16" />
												<note xml:id="m-fc751d94-794e-4a0f-aa45-29af69f46e10" pname="f" oct="4" accid="s" dur="16" />
											</beam>
										</tuplet>
										<note xml:id="m-8ca45cb5-f357-4c7c-8d4f-220961c5c439" pname="e" oct="4" dur="16" />
										<rest xml:id="m-81f0a579-061a-4c81-b49c-7c9669115218" dur="32" />
										<note xml:id="m-1e264105-ad0f-46df-935c-9847f2523aea" pname="e" oct="4" dur="32" tie="i" />
										<note xml:id="m-4335117d-7aa6-474f-aeb5-e6c61148f9d5" pname="e" oct="4" dur="8" tie="m" />
										<beam xml:id="m-65bede96-8a8b-47ed-a36c-761a8bb3d9a3">
											<note xml:id="m-a5c16750-cbba-4b36-ad6a-f3f59262a060" pname="e" oct="4" dur="32" tie="t" />
											<note xml:id="m-332a330c-bc8e-4639-b16a-dd2eb3c5d856" pname="f" oct="4" accid="s" dur="32" />
											<note xml:id="m-773098e9-b4df-4cd7-9a37-9530b85a316e" pname="f" oct="4" accid="s" dots="1" dur="32" />
											<note xml:id="m-46684c1f-6056-47c4-95fb-559114e0967a" pname="g" oct="4" accid="s" dur="64" />
											<note xml:id="m-e6a7c2f9-6483-4250-a1bc-3513fe225701" pname="g" oct="4" accid="s" dots="1" dur="16" />
											<note xml:id="m-76444fa6-ea45-40df-b348-807bedb89e3f" pname="a" oct="4" dur="32" tie="i" />
										</beam>
									</tuplet>
								</layer>
							</staff>
						</measure>
						<measure xml:id="m-ddf232cf-4765-442d-bbd9-5720e68b1c66" n="16">
							<staff xml:id="m-181a35e3-a82d-4951-825d-be15940cf722" n="1">
								<layer xml:id="m-832c28e4-8d5e-4f89-a2b3-204871357ba6" n="1">
									<beam xml:id="m-39293b97-0801-4f2d-8ef8-56e8e7b7473a">
										<tuplet xml:id="m-18642777-8565-4d81-ad4b-2dfc8b360420" bracket.visible="false" dur.visible="true" num="3" numbase="1" num.format="count">
											<note xml:id="m-1bbdf412-cef9-4444-bc9d-6d705c7d694a" pname="a" oct="4" dur="16" tie="t" />
											<note xml:id="m-13e0b1d4-8758-4ddf-9bba-d4e98aee35dc" pname="c" oct="5" accid="s" dots="1" dur="16" />
											<note xml:id="m-a8f36e5f-6dc2-483c-bd8c-8678b6d3a0fc" pname="e" oct="5" dur="32" tie="i" />
										</tuplet>
										<note xml:id="m-656487f4-b6ee-4c7e-9359-7cb371efcb20" pname="e" oct="5" dur="8" tie="m" />
									</beam>
									<beam xml:id="m-d9e53e66-4807-4ff9-ad3f-eff8537f3ee3">
										<note xml:id="m-cd957699-76e3-4305-b2b5-779970be7ef4" pname="e" oct="5" dur="8" tie="t" />
										<note xml:id="m-e526c7bf-ce04-4ee1-941d-7081f8081a27" pname="b" oct="4" dur="8" />
									</beam>
								</layer>
							</staff>
						</measure>
						<measure xml:id="m-0d8da46d-009f-4d49-a01a-5520a2af865a" n="17">
							<staff xml:id="m-5cd1beec-d1b9-463f-9678-34950f095ff8" n="1">
								<layer xml:id="m-9f644519-dbf6-4cf8-8f4b-0891f0320b3b" n="1">
									<tuplet xml:id="m-0790e2ad-8bdc-4a57-9dfe-509008f19455" bracket.visible="true" dur.visible="true" num="3" numbase="1" num.format="count">
										<tuplet xml:id="m-68810171-5522-455b-a0f5-6b7cfea52ee4" bracket.visible="false" dur.visible="true" num="3" numbase="1" num.format="count">
											<beam xml:id="m-49f9ed5d-c3f0-449a-bd9d-12dacca0f488">
												<note xml:id="m-69bc9a38-4489-40af-9b47-842d88358658" pname="d" oct="5" dur="16" />
												<note xml:id="m-fd3e4356-94e3-4a6c-be0a-7cafd5ac72af" pname="c" oct="5" accid="s" dur="16" />
												<note xml:id="m-d49d2c4e-a18a-4311-8133-93b0242ca9e5" pname="b" oct="4" dur="16" />
											</beam>
										</tuplet>
										<beam xml:id="m-21a8a065-1264-4cfa-8902-260c2c7b0d8f">
											<note xml:id="m-b730ccf9-c09b-4c46-a3cf-5b07ad9dcab8" pname="a" oct="4" dur="8" />
											<note xml:id="m-ea10a3b5-ad60-4f21-b80c-94ef1f35dec7" pname="a" oct="4" dur="8" tie="i" />
										</beam>
										<tuplet xml:id="m-9e7f0f6a-a4ed-443a-82c1-68ecdf2471fd" bracket.visible="false" dur.visible="true" num="3" numbase="1" num.format="count">
											<beam xml:id="m-c7790b98-79ce-4661-8cf4-3c2980b522ef">
												<note xml:id="m-8bc04c1f-0c2f-4f0c-b752-ef6e00389562" pname="a" oct="4" dur="32" tie="t" />
												<note xml:id="m-cdceb640-bd82-4952-8f22-125ed1f2aa7a" pname="c" oct="5" accid="s" dur="32" />
												<note xml:id="m-71cc9e7d-1caf-4d85-9be2-146093fa70cc" pname="c" oct="5" accid="s" dots="1" dur="32" />
												<note xml:id="m-2c325490-350b-4527-b323-f7e0e28f8ffc" pname="b" oct="4" dur="64" tie="i" />
												<note xml:id="m-cba449a9-ced3-46e3-993a-d08cd351dab6" pname="b" oct="4" dur="16" tie="t" />
											</beam>
										</tuplet>
									</tuplet>
								</layer>
							</staff>
						</measure>
						<measure xml:id="m-ace09799-df48-427b-9f09-37cb44db20c0" n="18">
							<staff xml:id="m-97a6736f-9a4d-4111-9489-f9379e79bfa2" n="1">
								<layer xml:id="m-a0fa0d5d-2644-427c-bcf6-3887ef15c7a9" n="1">
									<note xml:id="m-e4bd1735-0782-46d0-9cf8-42600383c4f3" pname="a" oct="4" dur="2" />
								</layer>
							</staff>
						</measure>
					</section>
				</score>
			</mdiv>
		</body>
	</music>
</mei>
