<?xml version="1.0" encoding="UTF-8"?>
<mei xml:id="m-7255d329-287c-4653-bd16-394f8ba7becc" xmlns="http://www.music-encoding.org/ns/mei" meiversion="3.0.0">
	<music xml:id="m-47f3f81d-bc0d-40de-aa55-699419413d76">
		<body xml:id="m-8ae5f45c-874f-4f57-9c4e-36cd31707cc0">
			<mdiv xml:id="m-3676a7ff-8563-466a-9f22-5fbc54fcfbf0">
				<score xml:id="m-9f52b2c6-51aa-4a5c-b999-68dc9f7871d5">
					<scoreDef xml:id="m-535d731e-8be3-4267-8edc-55015b9eab23" meter.count="4" meter.unit="4" key.sig="1s">
						<staffGrp xml:id="m-a494e758-fe4f-4138-bc99-b4f1d1e69ed6">
							<staffDef xml:id="m-3aa15a9a-9119-4a75-9eb2-873465f97778" n="1" lines="5" clef.shape="G" clef.line="2" />
						</staffGrp>
					</scoreDef>
					<section xml:id="m-b3815f8b-97b7-4216-a1b3-4912c38e29b3">
						<measure xml:id="m-990559ab-69f8-402a-8024-e2dca45c228a" n="1">
							<staff xml:id="m-67750e63-9403-4966-93be-3a3a4dcc64e2" n="1">
								<layer xml:id="m-440014e8-162d-4f34-a6d1-f2b17af147f8" n="1">
									<beam xml:id="m-8eef2328-dfc5-48e5-a6e6-b06eee5197cd">
										<note xml:id="m-c64eb6f6-9ac9-48f7-b3ab-64482063d267" pname="e" oct="5" dur="16" />
										<note xml:id="m-457e3c44-7dfc-4e88-807f-3edfa2f59d55" pname="f" oct="5" dur="32" />
										<note xml:id="m-59d1bbf2-a985-48e8-8792-6f02a47a42a3" pname="e" oct="5" dur="32" />
										<note xml:id="m-bb1ab69d-f0b7-4abd-a206-1a17fc73ec72" pname="b" oct="4" dur="8" artic="stacc" />
									</beam>
									<beam xml:id="m-45b683a6-3677-4a8c-a6f9-116f0b62dd1c">
										<note xml:id="m-bd79e0be-7f4e-4ceb-9d04-4c69e28753eb" pname="d" oct="5" dur="8" artic="stacc" />
										<note xml:id="m-d8b9522e-650e-404a-9310-e49f5e4313fb" pname="g" oct="4" dur="8" artic="stacc" />
									</beam>
									<beam xml:id="m-b717cf28-39ca-470f-9a49-b7f1e5b479fb">
										<tuplet xml:id="m-2517faf6-979e-4834-8a11-7b098ddddefd" bracket.visible="false" dur.visible="true" num="3" numbase="1" num.format="count">
											<note xml:id="m-b20d84d1-f3f4-44aa-80b0-3bd210a82ab8" pname="b" oct="4" dur="16" />
											<note xml:id="m-9f9be514-fd22-48f7-8439-1af4ca3791cf" pname="c" oct="5" dur="16" />
											<note xml:id="m-1368f648-a9a1-4ee7-8b53-4ec96ba07eaa" pname="b" oct="4" dur="16" />
										</tuplet>
										<note xml:id="m-de70b898-d7d5-4468-afad-901111a28b8d" pname="d" oct="4" dur="8" artic="stacc" />
									</beam>
									<beam xml:id="m-1bf70637-bf16-4c72-8c3d-8de13a2999db">
										<note xml:id="m-d32f1d28-6fc8-4616-8d9f-b5fe6bf817bc" pname="a" oct="4" dur="8" artic="stacc" />
										<note xml:id="m-5b5a021a-a2f9-469c-b455-d0691c3e17c7" pname="e" oct="4" dur="8" artic="stacc" />
									</beam>
								</layer>
							</staff>
						</measure>
						<measure xml:id="m-2f786983-04ef-484d-9597-02891682a0ac" n="2">
							<staff xml:id="m-63c8e6c8-2a06-46fa-85a6-b7d570a72b4f" n="1">
								<layer xml:id="m-07769d46-6570-4bca-b459-bc4371c405d4" n="1">
									<beam xml:id="m-a57d15b4-4179-486c-8911-194d930fb357">
										<note xml:id="m-d5061da4-deb2-4fb2-a805-240d70cd53fb" pname="e" oct="5" dur="16" />
										<note xml:id="m-e2c122c7-b642-4fde-aa4f-4a1936738b60" pname="f" oct="5" dur="32" />
										<note xml:id="m-ebad5733-dabe-4655-b728-f7db497048d9" pname="e" oct="5" dur="32" />
										<note xml:id="m-c57e88cb-30b9-4b42-ba11-3d09cbbbdee5" pname="b" oct="4" dur="8" artic="stacc" />
									</beam>
									<beam xml:id="m-0f48283b-734d-493f-9d5e-78e8d6a9485c">
										<note xml:id="m-8694e318-0e6a-4685-9ce4-a19eeaaeab6b" pname="d" oct="5" dur="8" artic="stacc" />
										<note xml:id="m-6450dfac-3698-48bc-9174-e19a87d8fccb" pname="g" oct="4" dur="8" artic="stacc" />
									</beam>
									<beam xml:id="m-e4307d50-86f6-4b4e-89d4-d8a308996bd3">
										<tuplet xml:id="m-82e609cd-d437-4dcb-a64d-e4142c8fa405" bracket.visible="false" dur.visible="true" num="3" numbase="1" num.format="count">
											<note xml:id="m-66ad4c08-1de2-4f84-ad29-92c5f74bb055" pname="b" oct="4" dur="16" />
											<note xml:id="m-821cbef0-65bc-4005-a1cb-a0a9799fc00a" pname="c" oct="5" dur="16" />
											<note xml:id="m-ee2a94e2-417b-45f3-9432-0ce240aef3fb" pname="b" oct="4" dur="16" />
										</tuplet>
										<note xml:id="m-9ebba20f-f21a-4380-9045-67e5b4f76dbb" pname="d" oct="4" dur="8" artic="stacc" />
									</beam>
									<beam xml:id="m-f2543af6-3936-48c7-a747-1a4f66b79db5">
										<note xml:id="m-64ab043b-c9bf-4f85-9717-49b27861bf26" pname="a" oct="4" dur="8" artic="stacc" />
										<note xml:id="m-c0207663-4a3c-43e1-af8d-d32985c1e2bf" pname="e" oct="4" dur="8" artic="stacc" />
									</beam>
								</layer>
							</staff>
						</measure>
						<measure xml:id="m-9402e0ae-5323-49e2-8735-579ab7c09db1" n="3">
							<staff xml:id="m-d24172c8-9855-4823-a98d-22e0e9d9fbf1" n="1">
								<layer xml:id="m-47f8830d-d576-4b04-82d3-54e679e429dd" n="1">
									<beam xml:id="m-a6c4b254-d921-4923-82bb-7902a161f332">
										<note xml:id="m-61143bcc-f6eb-437b-8fd7-668c2f104e3f" pname="g" oct="4" dur="16" />
										<note xml:id="m-86adc630-16ae-4167-a654-70b695879ca6" pname="a" oct="4" dur="32" />
										<note xml:id="m-7cb5ac2d-d3ea-4764-8416-e9735c7ab320" pname="g" oct="4" dur="32" />
										<note xml:id="m-e8e810bb-0bbd-44a0-8f0a-daac89539fbd" pname="d" oct="4" dur="8" artic="stacc" />
									</beam>
									<tuplet xml:id="m-aa21f1d8-899a-45a1-9b1a-5e5f2520b846" bracket.visible="false" dur.visible="true" num="3" numbase="1" num.format="count">
										<beam xml:id="m-e6edcd33-d967-42b2-89d0-d1810876314f">
											<note xml:id="m-b52fe72c-ff9b-491c-9e5c-b30764bd8a6a" pname="e" oct="4" dur="8" artic="stacc" />
											<note xml:id="m-f4bcd923-f5c4-4137-96b6-d4b20ac5922b" pname="g" oct="4" dur="8" artic="stacc" />
											<note xml:id="m-341ec715-d6eb-4112-82c5-c1ed9334ec3f" pname="b" oct="4" dur="8" artic="stacc" />
										</beam>
									</tuplet>
									<beam xml:id="m-91fa2d54-7174-4300-ab33-ea1cfe2ca941">
										<tuplet xml:id="m-b281918e-0f76-482a-a1e3-cab34f46999b" bracket.visible="false" dur.visible="true" num="3" numbase="1" num.format="count">
											<note xml:id="m-186a59e8-3cf7-47d5-883a-1f0f303ccd76" pname="g" oct="4" dur="16" />
											<note xml:id="m-41ed55c6-0c3a-4c1f-bbad-8ff3c3a6c0b4" pname="a" oct="4" dur="16" />
											<note xml:id="m-f77f6a10-a056-42e9-bea8-f23274df9796" pname="g" oct="4" dur="16" />
										</tuplet>
										<note xml:id="m-2126bfcf-4e9e-40d7-a784-e4d18f8799e8" pname="d" oct="4" dur="8" artic="stacc" />
									</beam>
									<tuplet xml:id="m-85d2b00f-be3b-4573-8aba-2a4c965febf6" bracket.visible="false" dur.visible="true" num="3" numbase="1" num.format="count">
										<beam xml:id="m-823f4db4-d4f6-422d-8c37-96cb9bf86b1d">
											<note xml:id="m-6156a8d5-c5a7-448b-84f1-46ad9b65bda3" pname="e" oct="4" dur="8" artic="stacc" />
											<note xml:id="m-7a76d0c4-59ef-4888-9367-15b443538b02" pname="g" oct="4" dur="8" artic="stacc" />
											<note xml:id="m-85b9f557-16c7-4386-8017-34eb644edf42" pname="b" oct="4" dur="8" artic="stacc" />
										</beam>
									</tuplet>
								</layer>
							</staff>
						</measure>
						<measure xml:id="m-e2478bc5-5e1f-4eb4-b210-fcfb3c5ac69a" n="4">
							<staff xml:id="m-353da13c-d741-4b07-9e05-41a524b2c34d" n="1">
								<layer xml:id="m-91263353-763b-4d30-9996-9c8789707982" n="1">
									<beam xml:id="m-9a3e30cb-e1f3-446e-8cbe-3e648caa6122">
										<note xml:id="m-bd97925d-cfc3-4ea3-9809-2711319119a7" pname="a" oct="4" dur="16" />
										<note xml:id="m-32dc7fe1-7c4f-4a33-837d-4e819062235f" pname="b" oct="4" dur="32" />
										<note xml:id="m-ec6d8517-385d-4c91-840f-5e7991c2ccab" pname="a" oct="4" dur="32" />
										<note xml:id="m-7485981b-3aa0-4914-b4c8-b4843a5af6d7" pname="e" oct="4" dur="8" artic="stacc" />
									</beam>
									<beam xml:id="m-c245053c-4967-4f0f-9a16-1128f6816e3f">
										<note xml:id="m-c3638432-0706-46c2-9d85-3595879cf727" pname="e" oct="5" dur="8" artic="stacc" />
										<note xml:id="m-8ae1080b-2622-438f-85ac-2ab57659df3f" pname="d" oct="5" dur="8" artic="stacc" />
									</beam>
									<beam xml:id="m-fad6e548-6845-4d93-a7d5-5b5c6b75bf84">
										<note xml:id="m-58d82280-44d5-4f46-8c8b-f5b858b34c89" pname="b" oct="5" dur="8" />
										<note xml:id="m-825ce8a3-79a6-490f-ae5c-500ef5e4adc8" pname="a" oct="5" dur="8" />
									</beam>
									<beam xml:id="m-14ca6211-c50b-4938-bce9-6d39311f84fc">
										<note xml:id="m-c4c4093f-a917-427a-9cd3-7311b4479c3f" pname="f" oct="5" dur="8" artic="stacc" />
										<note xml:id="m-3899d3a3-d63c-4d3e-82e6-18791a971e13" pname="d" oct="5" dur="8" artic="stacc" />
									</beam>
								</layer>
							</staff>
						</measure>
						<measure xml:id="m-af934165-e4f5-4812-9f6e-e6ffcf978e5c" n="5">
							<staff xml:id="m-76c582c8-b47f-412b-902f-4518ffa3b6de" n="1">
								<layer xml:id="m-e7dcd2cc-895b-421d-96f8-cb6a0488d4ba" n="1">
									<beam xml:id="m-8d8bef5d-5f9a-4ced-ae78-0b4054db7e9a">
										<note xml:id="m-60df536a-a438-48e7-93ca-0c159c584932" pname="e" oct="5" dur="16" />
										<note xml:id="m-23597be6-aed8-41e9-a3da-f11b1c3567bd" pname="f" oct="5" dur="32" />
										<note xml:id="m-2c2b0b5c-3f69-43fe-84ee-8543cf00fb08" pname="e" oct="5" dur="32" />
										<note xml:id="m-d3ed40fc-cbca-4749-8cb2-82357f8c1cbd" pname="b" oct="4" dur="8" artic="stacc" />
									</beam>
									<beam xml:id="m-349dbea3-ddde-49cc-a250-2474a818be34">
										<note xml:id="m-7620aa80-be81-40ea-8fe9-6cef1c1a5273" pname="d" oct="5" dur="8" artic="stacc" />
										<note xml:id="m-ab6a19ca-ee65-4e96-b0e9-59f864c7f8db" pname="g" oct="4" dur="8" artic="stacc" />
									</beam>
									<beam xml:id="m-692ffb51-d5f9-4715-9e9b-c59bfbc601c8">
										<tuplet xml:id="m-8015052c-89a1-462d-a6d2-cf399a7d360f" bracket.visible="false" dur.visible="true" num="3" numbase="1" num.format="count">
											<note xml:id="m-ef4d8b71-b111-4101-b5f5-5328625fa9e3" pname="b" oct="4" dur="16" />
											<note xml:id="m-ad706848-c834-4294-89fa-3cfed8eb7ff8" pname="c" oct="5" dur="16" />
											<note xml:id="m-1c1e1049-1a4c-4e83-9f2d-cd584eb5df9b" pname="b" oct="4" dur="16" />
										</tuplet>
										<note xml:id="m-9f39ba0e-86da-4cfa-a2ba-d00710c350c2" pname="d" oct="4" dur="8" artic="stacc" />
									</beam>
									<beam xml:id="m-404ce71c-47f4-4804-8850-dc7025bc1a03">
										<note xml:id="m-588744e1-c081-4197-aec8-74c141026c22" pname="a" oct="4" dur="8" artic="stacc" />
										<note xml:id="m-454c37b1-c917-4a57-b406-9a874fe93b8a" pname="d" oct="4" dur="8" artic="stacc" />
									</beam>
								</layer>
							</staff>
						</measure>
						<measure xml:id="m-99126c05-8a33-4f4a-a18e-069519afe138" n="6">
							<staff xml:id="m-b7401752-7ebb-4515-a017-a9cc0b5f4a01" n="1">
								<layer xml:id="m-c48ffc3d-129a-4461-9132-28c9b9ca1435" n="1">
									<beam xml:id="m-2258fc4e-a02a-476e-af68-c96d0e127627">
										<note xml:id="m-4e6dfcec-57d3-4d95-905c-732825e7a63d" pname="e" oct="5" dur="16" />
										<note xml:id="m-50f9548a-ff96-4553-be70-53f468152524" pname="f" oct="5" dur="32" />
										<note xml:id="m-10c2af14-e5a5-4c00-802c-0ef2cdb15d00" pname="e" oct="5" dur="32" />
										<note xml:id="m-914189f7-fef0-48f2-baa2-69350c4bd1b0" pname="b" oct="4" dur="8" artic="stacc" />
									</beam>
									<beam xml:id="m-48e0802c-e2b3-4707-8707-7234b83e4707">
										<note xml:id="m-e676ea28-5487-46f2-ae51-462f3f7a32c0" pname="d" oct="5" dur="8" artic="stacc" />
										<note xml:id="m-2c9da492-8e1a-484a-b107-524b6f792b4c" pname="g" oct="4" dur="8" artic="stacc" />
									</beam>
									<beam xml:id="m-dddd282a-6d21-4c28-a3f3-3959e7650913">
										<tuplet xml:id="m-af7f9879-c062-49a4-a0ba-20df17067149" bracket.visible="false" dur.visible="true" num="3" numbase="1" num.format="count">
											<note xml:id="m-f574bc7e-0e3e-41d6-a826-71dc8668573a" pname="b" oct="4" dur="16" />
											<note xml:id="m-33d4c0cf-16d5-4d06-973e-a4553211e178" pname="c" oct="5" dur="16" />
											<note xml:id="m-f0f6a922-ca90-4e86-8b2c-36c166dcf625" pname="b" oct="4" dur="16" />
										</tuplet>
										<note xml:id="m-d130e01c-9454-4d71-98f6-98e5c9c39ea0" pname="d" oct="4" dur="8" artic="stacc" />
									</beam>
									<beam xml:id="m-1f12a3a7-417b-46c5-84d9-2934e26eefbe">
										<note xml:id="m-3f40f3a2-1a8c-47b8-aa59-1ff72c237a47" pname="a" oct="4" dur="8" artic="stacc" />
										<note xml:id="m-374459ab-e31f-4538-9259-b680539af36e" pname="e" oct="4" dur="8" artic="stacc" />
									</beam>
								</layer>
							</staff>
						</measure>
						<measure xml:id="m-e70cf0f9-9991-4119-9498-507ca4ecab5a" n="7">
							<staff xml:id="m-65a40fbd-01ae-41b4-b3bc-1bc5d61dc65f" n="1">
								<layer xml:id="m-3de718c7-2f4d-4522-8c9f-447288a9f6bd" n="1">
									<beam xml:id="m-f71354d7-4e13-49d1-92e2-1e7398e2129e">
										<note xml:id="m-0725a30e-d85a-48c5-84f3-1e82d264163e" pname="g" oct="4" dur="16" />
										<note xml:id="m-1a1e9c75-9c98-4707-a3b4-fb3a9612a642" pname="a" oct="4" dur="32" />
										<note xml:id="m-3bab9839-df1a-4156-9160-1dc3c05e0f46" pname="g" oct="4" dur="32" />
										<note xml:id="m-ec0ef060-6b3f-4fb3-aaae-01d899c6c996" pname="d" oct="4" dur="8" artic="stacc" />
									</beam>
									<tuplet xml:id="m-9ab0bccb-7095-445e-bdce-2289d05bd802" bracket.visible="false" dur.visible="true" num="3" numbase="1" num.format="count">
										<beam xml:id="m-70265f82-d324-4d77-b375-5e04c9c20254">
											<note xml:id="m-4b924e28-7446-4301-8bfb-17873e5f7e38" pname="e" oct="4" dur="8" artic="stacc" />
											<note xml:id="m-982ffb46-7ba4-4dd0-b0a7-d6db0a72b23f" pname="g" oct="4" dur="8" artic="stacc" />
											<note xml:id="m-696c2b04-1a97-42af-96bf-f9058d9f7da7" pname="b" oct="4" dur="8" artic="stacc" />
										</beam>
									</tuplet>
									<note xml:id="m-5671e395-4e39-433e-a79b-e2b6f87f4870" pname="a" oct="4" artic="stacc" dots="1" dur="4" />
									<note xml:id="m-2dd9029d-dcf0-48b7-94ad-1fc458322fcd" pname="a" oct="5" dur="8" />
								</layer>
							</staff>
						</measure>
						<measure xml:id="m-e785e851-8d1b-477c-af5b-6686abaa922a" n="8">
							<staff xml:id="m-a6ad2dbb-d097-4d00-9fb3-43f4c4f54e2b" n="1">
								<layer xml:id="m-c536f78d-7aae-47a1-82a9-6b9d5c64650e" n="1">
									<beam xml:id="m-e8d4add3-5360-433b-8a6b-1e199fb96f62">
										<note xml:id="m-db0d3465-2af1-4ce5-ae67-e441ce6ed069" pname="g" oct="4" dur="16" />
										<note xml:id="m-6f5148d8-2ba6-4593-a79a-ac82676cbb02" pname="a" oct="4" dur="32" />
										<note xml:id="m-9ea52d33-8e19-43cc-880f-9f383df2a482" pname="g" oct="4" dur="32" />
										<note xml:id="m-436f8b47-dc6a-4a92-93d1-ff29dabd3f13" pname="d" oct="4" dur="8" artic="stacc" />
									</beam>
									<tuplet xml:id="m-a5ccc57b-429a-4649-9ccf-01bc46404d1b" bracket.visible="false" dur.visible="true" num="3" numbase="1" num.format="count">
										<beam xml:id="m-149a9e72-c667-4f9d-b954-430aa7dfce36">
											<note xml:id="m-39cc5fb5-18ac-44c9-be34-b1bc9e5a63ef" pname="e" oct="4" dur="8" artic="stacc" />
											<note xml:id="m-3a0a2c59-ceb2-4a54-bd04-cb887d352818" pname="g" oct="4" dur="8" artic="stacc" />
											<note xml:id="m-30115bd5-09a1-4d0f-ab4b-4d7006fb326a" pname="b" oct="4" dur="8" artic="stacc" />
										</beam>
									</tuplet>
									<note xml:id="m-bff1789f-c2c2-4281-a7e0-3814873e4e93" pname="a" oct="4" artic="stacc" dots="1" dur="4" />
									<note xml:id="m-ce03cf8d-d146-429c-94bb-8b4459550d5c" pname="a" oct="5" dur="8" />
								</layer>
							</staff>
						</measure>
						<measure xml:id="m-981cd15e-c0fa-4d99-9909-5352529b98ef" n="9">
							<staff xml:id="m-815e5598-ddf6-4331-8088-847709382fcf" n="1">
								<layer xml:id="m-4aef36b2-9760-42bf-858e-b221e563e446" n="1">
									<beam xml:id="m-1a3921d2-c207-4858-bd91-cb12afd6e2a7">
										<note xml:id="m-d22a14ca-401d-413c-b093-1c2bf53a5378" pname="a" oct="5" dur="16" />
										<note xml:id="m-f7f7622b-e76f-4caa-b2a1-6d8f1f893755" pname="b" oct="5" dur="32" />
										<note xml:id="m-8be126cc-63fc-4574-92c4-85b08d3ba945" pname="a" oct="5" dur="32" />
										<note xml:id="m-96a4a362-37bf-4421-8b8f-9b1d23891a03" pname="f" oct="5" dur="8" />
									</beam>
									<beam xml:id="m-b57ba2db-9217-474d-908a-f1643f53196f">
										<note xml:id="m-ec2f4844-4b84-4ebe-a4e9-4ce8041e3731" pname="d" oct="5" dur="8" artic="stacc" />
										<note xml:id="m-e22575ef-d1de-4b74-9c4a-cb2a1cbbe0fe" pname="b" oct="4" dur="8" artic="stacc" />
									</beam>
									<beam xml:id="m-6b6b82f9-513f-4db9-ba72-4446d8d7c536">
										<tuplet xml:id="m-c603d2bb-f61b-4260-b017-d8336a565fe0" bracket.visible="false" dur.visible="true" num="3" numbase="1" num.format="count">
											<note xml:id="m-fc983bf0-29c4-4a01-bd66-7fd70df10266" pname="a" oct="4" dur="16" />
											<note xml:id="m-3dafd1d4-8373-426d-b856-4d6505474b99" pname="b" oct="4" dur="16" />
											<note xml:id="m-c91c76e8-888b-4bb0-b81b-9140e4d757b7" pname="a" oct="4" dur="16" />
										</tuplet>
										<note xml:id="m-01b88696-50c2-4e6f-a321-83aa36bf854b" pname="f" oct="4" dur="8" artic="stacc" />
									</beam>
									<beam xml:id="m-71c9dbd6-46f2-45c3-a4b9-c64eda335c9c">
										<note xml:id="m-0954842c-9275-42b3-b169-1f1953b10419" pname="d" oct="4" dur="8" artic="stacc" />
										<note xml:id="m-82f8f95f-fe38-4a20-9983-7e2debd6dafe" pname="b" oct="3" dur="8" />
									</beam>
								</layer>
							</staff>
						</measure>
						<measure xml:id="m-401c60a0-5593-4ccc-a740-0965834dd3c2" n="10">
							<staff xml:id="m-2f6c4631-db5f-4558-9212-df7d4c93d706" n="1">
								<layer xml:id="m-98e54783-63a3-4578-9f2f-504574e20754" n="1">
									<beam xml:id="m-66ee178e-cac9-41de-b774-97605e72fbaf">
										<note xml:id="m-316d08b2-7f3e-423e-982e-ac4fbc7b2629" pname="a" oct="3" dur="8" artic="stacc" />
										<note xml:id="m-09f04343-dfce-421f-a4ac-977ef313603a" pname="d" oct="4" dur="8" artic="stacc" />
									</beam>
									<beam xml:id="m-7d654e78-b918-49db-9c6b-20d82ffc5951">
										<note xml:id="m-3d1dcfcf-c290-4653-a0cc-5931d90aa1d3" pname="b" oct="3" dur="8" artic="stacc" />
										<note xml:id="m-54994852-9414-47d2-aead-ad96e97da336" pname="f" oct="4" dur="8" artic="stacc" />
									</beam>
									<note xml:id="m-e2020f6c-09c9-44a3-b248-b1ca1366fe85" pname="d" oct="4" dur="2" artic="stacc" />
								</layer>
							</staff>
						</measure>
						<measure xml:id="m-0a8a89d9-cf08-4ebb-9643-74abd965939f" n="11">
							<staff xml:id="m-2aac5059-0a1b-4644-b803-3992a003cb95" n="1">
								<layer xml:id="m-b2e37056-5c95-4e4f-bc0d-29b647b0be68" n="1">
									<beam xml:id="m-a0342ceb-8e9a-4f85-8c24-bd5951ba1ef6">
										<note xml:id="m-320454eb-f45d-4d1b-a14c-dfd5be62ea0b" pname="g" oct="6" dur="8" />
										<tuplet xml:id="m-77f642a4-11d0-45b6-8790-337c82b0c933" bracket.visible="false" dur.visible="true" num="3" numbase="1" num.format="count">
											<note xml:id="m-07c5d55f-485e-4ac2-ba8f-d341a7ad69f4" pname="f" oct="4" dur="16" />
											<note xml:id="m-12029db4-309e-459c-8c35-6fb1bf243101" pname="g" oct="4" dur="16" />
											<note xml:id="m-341122d7-9ca6-4242-be14-9827491e2476" pname="f" oct="4" dur="16" />
										</tuplet>
									</beam>
									<beam xml:id="m-45f4a7e1-758e-443c-b8e9-3c90184fb934">
										<note xml:id="m-ffcb9a6e-24e7-4666-bd29-29a97fcd28d3" pname="e" oct="4" dur="8" />
										<tuplet xml:id="m-bf1a98b2-b513-407a-9419-a8863d2a6118" bracket.visible="false" dur.visible="true" num="3" numbase="1" num.format="count">
											<note xml:id="m-f1d4f233-a540-4551-b201-37092a37cba9" pname="d" oct="4" dur="16" />
											<note xml:id="m-0200cbe3-098c-476b-bb6f-8cd80fb61f7f" pname="e" oct="4" dur="16" />
											<note xml:id="m-d6aed107-4e2b-42af-a180-b79c895d91c1" pname="d" oct="4" dur="16" />
										</tuplet>
									</beam>
									<beam xml:id="m-693a8557-7c6d-4eaa-9ff7-eec56984087c">
										<note xml:id="m-270375bf-2f2d-4254-962f-2c58daedf46d" pname="b" oct="3" dur="8" />
										<note xml:id="m-070d3dea-c86c-4334-9e45-4c6eadfcabc0" pname="d" oct="4" dur="8" artic="stacc" />
									</beam>
									<note xml:id="m-c284d79b-8a4c-4f01-9f2e-8077535ef827" pname="e" oct="4" dur="4" tie="i" />
								</layer>
							</staff>
						</measure>
						<measure xml:id="m-1845cf08-2e58-49ce-afa0-cd3dd81e781f" n="12">
							<staff xml:id="m-76eddaff-1fd5-481b-a322-c7fd0c7101d0" n="1">
								<layer xml:id="m-4803c84e-4467-4764-be02-3a87a3c27e0b" n="1">
									<beam xml:id="m-6da83031-428d-4c77-af92-87ed4d5e3a8e">
										<note xml:id="m-b26ba61a-6b95-4b5a-8cc7-ab1f3c4d4620" pname="e" oct="4" dur="8" tie="t" />
										<note xml:id="m-cd92a6b5-0b35-4363-b36f-94da7d5aa45d" pname="a" oct="4" dur="8" artic="stacc" />
									</beam>
									<beam xml:id="m-85a1a81b-6633-4bb0-aeaf-659fccf6e642">
										<note xml:id="m-c9c73aea-4803-467d-874d-078bb43429d3" pname="c" oct="5" dur="8" artic="stacc" />
										<note xml:id="m-35108c90-6964-439d-b532-0cab6eab92a4" pname="e" oct="5" dur="8" artic="stacc" />
									</beam>
									<beam xml:id="m-2870bac2-e506-49f6-8096-a937a9122782">
										<note xml:id="m-e9c4fd5f-8544-4d81-bdd7-410492966cca" pname="f" oct="4" dur="8" artic="stacc" />
										<note xml:id="m-5f94ebc1-6280-4d78-aec0-a19392303142" pname="a" oct="4" dur="8" artic="stacc" />
									</beam>
									<beam xml:id="m-4e3193d2-d86d-4835-9993-60f10c346243">
										<note xml:id="m-9509bba4-efcb-4de3-9eb2-53ab0f0651b7" pname="d" oct="5" dur="8" artic="stacc" />
										<note xml:id="m-03e99ffd-4f77-4198-8e4c-c81bcd95241e" pname="f" oct="5" dur="8" artic="stacc" />
									</beam>
								</layer>
							</staff>
						</measure>
						<measure xml:id="m-8362c756-089d-412a-865b-a800e18b4667" n="13">
							<staff xml:id="m-a86fdc56-199c-4c37-9b39-846751152c0c" n="1">
								<layer xml:id="m-09f561a2-96f8-456a-81b0-4c91f54affe8" n="1">
									<beam xml:id="m-8a77530a-43c3-4ba2-8867-6e4c81ef4dd9">
										<note xml:id="m-c6e029b2-4aa5-44d8-a3e6-aaacc2eb3d27" pname="g" oct="5" dur="8" />
										<tuplet xml:id="m-3ccb9629-bf16-4cc7-a53d-204f9366688f" bracket.visible="false" dur.visible="true" num="3" numbase="1" num.format="count">
											<note xml:id="m-1e6fefbf-8f84-40a8-b1ce-5d3211a27453" pname="f" oct="4" dur="16" />
											<note xml:id="m-fa20d6e0-8d32-46a3-bfe8-35caecc97435" pname="g" oct="4" dur="16" />
											<note xml:id="m-44e82eb0-11b8-4ea2-b1bf-a67e59d1380e" pname="f" oct="4" dur="16" />
										</tuplet>
									</beam>
									<beam xml:id="m-7d573408-5047-447d-955f-6e8871d3ee75">
										<note xml:id="m-919113a9-1d62-471c-801b-6385467119ca" pname="e" oct="4" dur="8" />
										<tuplet xml:id="m-5076d58b-1e55-4846-91e5-d1ef9fb29f5d" bracket.visible="false" dur.visible="true" num="3" numbase="1" num.format="count">
											<note xml:id="m-7500be02-0cde-4dbf-bd2b-9e348560b8b6" pname="d" oct="4" dur="16" />
											<note xml:id="m-0938a5c5-5973-4193-b084-1ca9e45c2af5" pname="e" oct="4" dur="16" />
											<note xml:id="m-9a665078-db35-47cf-b456-92c4d6aad004" pname="d" oct="4" dur="16" />
										</tuplet>
									</beam>
									<beam xml:id="m-cfcce75c-a137-4ecc-a89c-9a4e8d2fcbbc">
										<note xml:id="m-67ee3f2b-498e-4e7a-884d-b641667d62db" pname="b" oct="3" dur="8" />
										<note xml:id="m-d9e1aa6d-512b-457e-a38c-cbe2f08b88d6" pname="d" oct="4" dur="8" artic="stacc" />
									</beam>
									<note xml:id="m-2ef5df46-c240-42ef-b77a-625e29a1d457" pname="e" oct="4" dur="4" />
								</layer>
							</staff>
						</measure>
						<measure xml:id="m-5edb8f1d-19d0-4b47-b651-46c7761094f9" n="14">
							<staff xml:id="m-d775cfa7-5443-4481-8a33-ab1900d7b864" n="1">
								<layer xml:id="m-595eb4ea-843b-4daa-bbd4-e9987b5ca6ee" n="1">
									<beam xml:id="m-467d6c81-5b67-4826-9859-d710538b78a8">
										<note xml:id="m-6d29d26d-3928-414b-a3ac-0f6414d2f11d" pname="e" oct="4" dur="8" />
										<note xml:id="m-d98eaffa-1255-497c-a21a-3facde5af28c" pname="a" oct="4" dur="8" artic="stacc" />
									</beam>
									<beam xml:id="m-b1359f7e-bb1b-4fd9-9ebd-7415066223f3">
										<note xml:id="m-d7f76c7f-9b9e-435f-9379-9be2f240c19e" pname="c" oct="5" dur="8" artic="stacc" />
										<note xml:id="m-72514e44-e346-492d-a14b-921d0977661e" pname="e" oct="5" artic="stacc" dur="8" tie="i" />
									</beam>
									<beam xml:id="m-fa0994ed-a479-447b-873d-b805df73237f">
										<note xml:id="m-00968774-3257-4233-94ea-1422e91e20a4" pname="e" oct="5" artic="stacc" dur="8" tie="t" />
										<note xml:id="m-e3493fc6-6ddd-44a8-9196-7da6d349c6f6" pname="a" oct="4" dur="8" artic="stacc" />
									</beam>
									<beam xml:id="m-3dcb553d-fce3-4780-b100-53c9d97999d1">
										<note xml:id="m-1963b6fd-5ecf-4389-9661-541091e0f883" pname="e" oct="5" dur="8" artic="stacc" />
										<note xml:id="m-c7becd56-8b46-41ab-94b2-22623b0bbd8d" pname="f" oct="5" dur="8" artic="stacc" />
									</beam>
								</layer>
							</staff>
						</measure>
						<measure xml:id="m-c013d225-8097-4e9e-8841-d01624d1257a" n="15">
							<staff xml:id="m-8755fd89-9634-429a-9168-4d35ae26e6aa" n="1">
								<layer xml:id="m-d0394afd-6b0c-4e72-a004-28159fc2cfde" n="1">
									<beam xml:id="m-4db3ca7b-5c7b-4198-b967-36da6843d5aa">
										<note xml:id="m-aaef553d-8d27-4137-8e9f-9dbd366e4b88" pname="b" oct="5" dur="8" />
										<tuplet xml:id="m-1e603e34-c8af-4254-9c8f-54c548498ca0" bracket.visible="false" dur.visible="true" num="3" numbase="1" num.format="count">
											<note xml:id="m-e95479d0-1317-42ad-ba42-15f646241c06" pname="a" oct="5" accid="s" dur="16" />
											<note xml:id="m-2c095b31-93dd-4524-a977-d4446175b849" pname="b" oct="5" dur="16" />
											<note xml:id="m-153c803b-a4e2-4655-b793-65b884150332" pname="a" oct="5" dur="16" />
										</tuplet>
									</beam>
									<beam xml:id="m-2f35324d-8661-4420-83a7-2c1d7a56edc7">
										<note xml:id="m-f990e1f2-3613-414e-9905-f1278bedbb27" pname="a" oct="5" accid="f" dur="8" />
										<tuplet xml:id="m-99a05493-b645-432a-9acd-54a3fc2980d0" bracket.visible="false" dur.visible="true" num="3" numbase="1" num.format="count">
											<note xml:id="m-264ef5cc-38ba-4e02-ad5f-d95452806403" pname="f" oct="5" dur="16" />
											<note xml:id="m-07582593-7409-4b1d-83f3-55b556c8e37b" pname="a" oct="5" dur="16" />
											<note xml:id="m-d85a4992-a274-4f81-b029-cfe9cfea8289" pname="f" oct="5" dur="16" />
										</tuplet>
									</beam>
									<beam xml:id="m-9f4ac0cc-96ba-41e5-b78e-4a1b3f08916a">
										<note xml:id="m-9422b144-d00f-46b7-bc85-88d7ea6d7dd1" pname="d" oct="5" dur="8" />
										<note xml:id="m-b1cf8198-7ca5-4e1a-af8d-2b005da1bece" pname="f" oct="5" dur="8" />
									</beam>
									<note xml:id="m-4b7c39d1-354c-417e-af2b-7685f757f393" pname="a" oct="5" dur="4" />
								</layer>
							</staff>
						</measure>
						<measure xml:id="m-4d5a2178-ae3d-4f71-89d2-4f8431cecbde" n="16">
							<staff xml:id="m-040a96be-6aae-448d-aa5e-b443dade0eb0" n="1">
								<layer xml:id="m-6e8c1a81-626e-4dc0-aa15-58196fdb3660" n="1">
									<beam xml:id="m-e9fdbe20-2909-4dc0-a3e7-c85b821d149a">
										<note xml:id="m-99366265-1b2c-4a2e-9d1c-490f64d73dc7" pname="b" oct="5" dur="8" />
										<tuplet xml:id="m-841e2b57-b25d-4945-9085-9c81a95c3c1e" bracket.visible="false" dur.visible="true" num="3" numbase="1" num.format="count">
											<note xml:id="m-342470e9-2320-413f-aa4b-a38ba97f210a" pname="a" oct="5" accid="s" dur="16" />
											<note xml:id="m-16ede7fc-6f2e-4ac8-9eed-99e18e1844e0" pname="b" oct="5" dur="16" />
											<note xml:id="m-904afe29-0dac-4a87-89fa-d07969a49b0b" pname="a" oct="5" dur="16" />
										</tuplet>
									</beam>
									<beam xml:id="m-09085372-670e-42c6-9a84-0cc186430128">
										<note xml:id="m-fed4bb8a-369b-4539-ba47-d612ebaadce4" pname="a" oct="5" accid="f" dur="8" />
										<tuplet xml:id="m-73c376ff-affc-4c35-abf8-df9461a4f388" bracket.visible="false" dur.visible="true" num="3" numbase="1" num.format="count">
											<note xml:id="m-05072a3b-58a0-4c9a-8528-9aa4d4753a23" pname="f" oct="5" dur="16" />
											<note xml:id="m-b6530ee6-29bd-4264-a8ee-a1d319cddca5" pname="a" oct="5" dur="16" />
											<note xml:id="m-937c125e-50e8-4198-be84-d7ef94dbca11" pname="f" oct="5" dur="16" />
										</tuplet>
									</beam>
									<beam xml:id="m-4b1d7378-38b4-4db5-a4fe-756097a74573">
										<note xml:id="m-3d48ba92-1e6d-4e3e-9752-b877c1dedb2d" pname="d" oct="5" dur="8" />
										<note xml:id="m-41a5eec8-6c05-43f5-a50f-e36cfa5a925e" pname="f" oct="5" dur="8" />
									</beam>
									<note xml:id="m-7e637bb8-2595-4ef4-acd4-9e83788db188" pname="a" oct="5" dur="4" />
								</layer>
							</staff>
						</measure>
						<measure xml:id="m-d6c1328e-e1e1-4a10-8287-4945661748d4" n="17">
							<staff xml:id="m-eae5832d-eb7b-494c-8381-7ec6a9076968" n="1">
								<layer xml:id="m-85435130-5920-4c93-a83d-14ad42badc04" n="1">
									<note xml:id="m-b5704b8f-2982-483a-9f42-13c0dfe9dadc" pname="b" oct="5" dur="4" artic="stacc" />
									<note xml:id="m-02236609-5567-46f4-bd86-74d02bc5028c" pname="b" oct="5" dur="4" />
									<rest xml:id="m-4256ba1c-5eeb-41f3-9537-914d2fd8d99b" dur="4" />
									<note xml:id="m-95aa0995-9724-4fd7-95a2-86ba8185f36f" pname="c" oct="6" dur="4" />
								</layer>
							</staff>
						</measure>
						<measure xml:id="m-20e32a16-5621-4a2b-912f-5af5bcfd7bff" n="18">
							<staff xml:id="m-e26b50d0-5694-44b5-b85e-8d4b6cc65d7c" n="1">
								<layer xml:id="m-cf603463-bac6-4dbb-8d90-57983af8ad2c" n="1">
									<note xml:id="m-e189cf33-d8e5-45d6-a5c0-e14f58f899e9" pname="d" oct="6" dur="4" artic="stacc" />
									<note xml:id="m-2bfb93f0-7b6c-4493-bf70-993616c35984" pname="d" oct="6" artic="stacc" dur="4" tie="i" />
									<beam xml:id="m-827bc4dc-921d-415b-bd32-6dfb803f937e">
										<note xml:id="m-b2fbc70f-9ee4-4b4b-81a3-16c5735b2748" pname="d" oct="6" artic="stacc" dur="8" tie="t" />
										<tuplet xml:id="m-5581edb2-42aa-4df2-b454-2badec9c04f1" bracket.visible="false" dur.visible="true" num="3" numbase="1" num.format="count">
											<note xml:id="m-d9e4d4a4-f298-497b-b5af-004c849f4b81" pname="c" oct="4" dur="16" />
											<note xml:id="m-d19e159f-46f0-4ca6-8daf-6e72b8a5e40a" pname="d" oct="4" dur="16" />
											<note xml:id="m-7d50b0b8-6335-4e0e-914d-1504be3950d7" pname="c" oct="4" dur="16" />
										</tuplet>
									</beam>
									<beam xml:id="m-857c1973-8475-41c4-92bb-de498f91214b">
										<note xml:id="m-ff3be6b1-7742-40f3-a87a-306faa10343a" pname="b" oct="3" dur="8" />
										<tuplet xml:id="m-560eabba-0dad-4b59-bd4c-e1b0d06216ca" bracket.visible="false" dur.visible="true" num="3" numbase="1" num.format="count">
											<note xml:id="m-3ee7be79-fbe1-4eca-94fd-b13cd7195c7e" pname="a" oct="3" dur="16" />
											<note xml:id="m-28a7e33d-01d8-4265-b873-7c0578251a42" pname="b" oct="3" dur="16" />
											<note xml:id="m-8635649f-af47-4d54-b6f4-e74cc915f6e4" pname="a" oct="3" dur="16" />
										</tuplet>
									</beam>
								</layer>
							</staff>
						</measure>
						<measure xml:id="m-aa58d298-3a0d-4d20-8909-f998536db5e1" n="19">
							<staff xml:id="m-2d2853c8-6116-4ae2-b142-9684b2558f6e" n="1">
								<layer xml:id="m-cbc46afb-9696-4374-9649-67a477e8beb3" n="1">
									<note xml:id="m-0584ac2c-67aa-491e-8f8e-81f3158f8ed4" pname="g" oct="3" dur="4" artic="stacc" />
									<note xml:id="m-dcad2201-4d96-44c8-bbd7-9d66e1b3971f" pname="g" oct="3" artic="stacc" dur="4" tie="i" />
									<note xml:id="m-710d79b5-5ef3-4242-a144-772fce3f92a6" pname="g" oct="3" artic="stacc" dur="4" tie="t" />
									<note xml:id="m-4e156696-97f1-4e58-b79f-7fcb948fc52e" pname="g" oct="5" dur="4" artic="stacc" />
								</layer>
							</staff>
						</measure>
						<measure xml:id="m-f976d161-5448-47d9-9e4e-9047f1ca2b00" n="20">
							<staff xml:id="m-2ee694df-dcfa-410a-a098-092c92196594" n="1">
								<layer xml:id="m-3360fd50-2ec1-4fbb-ab86-b11e264f7f38" n="1">
									<note xml:id="m-61279ede-6332-4683-851e-08043bec48d2" pname="g" oct="5" dur="2" artic="stacc" />
									<note xml:id="m-35b16c51-5ce3-4c8d-93bc-d2ba28ab2662" pname="g" oct="3" dur="2" />
								</layer>
							</staff>
						</measure>
					</section>
				</score>
			</mdiv>
		</body>
	</music>
</mei>
