<?xml version="1.0" encoding="UTF-8"?>
<mei xml:id="m-db41a53e-b0d7-4b5d-ac25-00506f4ca482" xmlns="http://www.music-encoding.org/ns/mei" meiversion="3.0.0">
	<music xml:id="m-74751846-2b58-4221-a6a4-22c98004deb0">
		<body xml:id="m-315313dc-6665-4488-9c98-58533f091ec6">
			<mdiv xml:id="m-93a962cd-cc11-4e24-b689-0bf95c5d485c">
				<score xml:id="m-1f838115-eaf6-4bbb-99b7-b67fe2718ad8">
					<scoreDef xml:id="m-4d6dcdf8-2348-453b-a1c1-a1374366d728" meter.count="4" meter.unit="4" key.sig="2s">
						<staffGrp xml:id="m-f03e0cf6-d80f-45c4-a549-932f0e9e2d3e">
							<staffDef xml:id="m-8ae94054-42c0-4616-af4f-bc47f5463d8d" n="1" lines="5" clef.shape="G" clef.line="2" />
						</staffGrp>
					</scoreDef>
					<section xml:id="m-364911d3-e463-415c-8baf-7993f2b5f226">
						<measure xml:id="m-31d09c84-85c4-435d-a2cf-4ded4061c4ee" n="1">
							<staff xml:id="m-c03f6e62-7818-43b2-a1e5-a6c9a245cdbb" n="1">
								<layer xml:id="m-c3098ff9-74bc-4642-8ba3-2612a42682f5" n="1">
									<beam xml:id="m-28253cb9-734c-413d-be45-5006f141c5e0">
										<note xml:id="m-cfba70e0-4faa-4efc-81c7-9e975910183a" pname="e" oct="5" dur="16" />
										<note xml:id="m-7adae1dc-e3cb-4d01-a8bb-ceb9024c85c3" pname="f" oct="5" accid="s" dur="32" />
										<note xml:id="m-130f4257-238e-4be5-b2be-0bbc3ac0df55" pname="e" oct="5" dur="32" />
										<note xml:id="m-9d6b1472-0e87-46a5-8f8b-0ea0e226bae2" pname="b" oct="4" dur="8" artic="stacc" />
									</beam>
									<beam xml:id="m-9cf33844-ddb7-4a62-914e-cc827468d8de">
										<note xml:id="m-3b9b5706-b936-42ec-ad66-ee6660f74019" pname="d" oct="5" dur="8" artic="stacc" />
										<note xml:id="m-e415e477-b106-452b-a627-08c2a3e1e70c" pname="g" oct="4" dur="8" artic="stacc" />
									</beam>
									<beam xml:id="m-12c8288e-5faf-4e70-90be-7d866fecb2b3">
										<note xml:id="m-9773d6e6-8210-44a1-9d79-a7a5a6e1885c" pname="b" oct="4" dur="16" />
										<note xml:id="m-7941fac5-34c1-4882-a62f-0100d99c3479" pname="c" oct="5" accid="n" dur="32" />
										<note xml:id="m-76654ac5-e2d6-4e06-9949-5e1bafedb4ae" pname="b" oct="4" dur="32" />
										<note xml:id="m-621ea01e-86f6-4f6f-9487-83ee830fc46c" pname="d" oct="4" dur="8" artic="stacc" />
									</beam>
									<beam xml:id="m-f61ea5fa-28de-485c-8364-650ae2d4fadc">
										<note xml:id="m-54bd68f0-c8ea-4011-a748-05407f73615c" pname="a" oct="4" dur="8" artic="stacc" />
										<note xml:id="m-28da1db3-a54e-4932-8284-f4c342ccf147" pname="e" oct="4" dur="8" artic="stacc" />
									</beam>
								</layer>
							</staff>
						</measure>
						<measure xml:id="m-c33d360e-f8df-40ab-9595-d463aeae7a76" n="2">
							<staff xml:id="m-9f7ce29c-2b82-4794-b494-eb28af4445aa" n="1">
								<layer xml:id="m-7ae7b5b8-920c-4d66-ad08-c8dc27f1e304" n="1">
									<beam xml:id="m-f503ca12-e902-4d33-9427-72626177189c">
										<note xml:id="m-1ec18151-87fc-4282-a58c-eaa7f9dc9ed5" pname="e" oct="5" dur="16" />
										<note xml:id="m-5fd9d29d-ae16-4484-b6c6-e93a6188757a" pname="f" oct="5" accid="s" dur="32" />
										<note xml:id="m-8dc31822-90fd-483c-b186-3aca9cafce69" pname="e" oct="5" dur="32" />
										<note xml:id="m-7cb5cc8c-82b8-4f53-a52b-0c0ae9272ba7" pname="b" oct="4" dur="8" artic="stacc" />
									</beam>
									<beam xml:id="m-bc1c75e0-3837-4d88-b983-46e0b2395cd1">
										<note xml:id="m-6cf5bfa0-d1bc-4e3a-96d8-79621d5902db" pname="d" oct="5" dur="8" artic="stacc" />
										<note xml:id="m-207cc8c5-3dc3-4747-80c8-06715a4bab95" pname="g" oct="4" dur="8" artic="stacc" />
									</beam>
									<beam xml:id="m-0c47d8ef-447f-4626-94a7-6fa724b89de0">
										<note xml:id="m-e33c7683-6561-447c-9c14-e8cb5ec1e75b" pname="b" oct="4" dur="16" />
										<note xml:id="m-a75ff69a-a834-4b16-add2-8e4538634a63" pname="c" oct="5" accid="n" dur="32" />
										<note xml:id="m-415e549a-8e67-4464-a473-5c4967f79dc8" pname="b" oct="4" dur="32" />
										<note xml:id="m-6538c47c-c5b9-4d49-8bdf-0d78b8f2de59" pname="d" oct="4" dur="8" artic="stacc" />
									</beam>
									<beam xml:id="m-05fd8445-9840-49af-aa9f-460cbe67199c">
										<note xml:id="m-4d33e254-8119-4440-950a-b2e56e53931a" pname="a" oct="4" dur="8" artic="stacc" />
										<note xml:id="m-0d8963b0-a829-4d4e-b338-e443f63e5fa6" pname="e" oct="4" dur="8" artic="stacc" />
									</beam>
								</layer>
							</staff>
						</measure>
						<measure xml:id="m-0645b36b-1c62-4f32-98d2-443b71585314" n="3">
							<staff xml:id="m-bdb6656f-0af0-4ffd-8da5-90d907aa08ee" n="1">
								<layer xml:id="m-8c59c590-b208-4447-a4cd-cfabc4e1580e" n="1">
									<beam xml:id="m-7d23be1a-118e-4d51-b0d3-49e37ff3144e">
										<note xml:id="m-fefa89fe-65f7-40eb-aa1d-1449f5e59107" pname="g" oct="4" dur="16" />
										<note xml:id="m-f2c1020a-1ed6-422f-b83a-03f3228682aa" pname="a" oct="4" dur="32" />
										<note xml:id="m-6c7f6b60-fbea-4be5-ab35-9de2343855fb" pname="g" oct="4" dur="32" />
										<note xml:id="m-d884130b-8463-4f31-bea8-f94a51978fe7" pname="d" oct="4" dur="8" artic="stacc" />
									</beam>
									<tuplet xml:id="m-c5acaab4-4dd6-41bb-b708-08f113534470" bracket.visible="false" dur.visible="true" num="3" numbase="1" num.format="count">
										<beam xml:id="m-f566cc88-a6a7-4b22-9217-f2d5e0c1baea">
											<note xml:id="m-e00ec3a6-2729-4bb0-90c3-98af4e3976b7" pname="e" oct="4" dur="8" artic="stacc" />
											<note xml:id="m-e8660ed3-5c8a-41bd-a939-ea5beef06938" pname="g" oct="4" dur="8" artic="stacc" />
											<note xml:id="m-b0f75b96-9022-457a-b691-edd275860e78" pname="b" oct="4" dur="8" artic="stacc" />
										</beam>
									</tuplet>
									<beam xml:id="m-96bcee08-24dc-4b3f-83d7-c0a9ef2cb0ad">
										<note xml:id="m-0d08d149-6eee-4bce-8be6-3f4596e616c5" pname="g" oct="4" dur="16" />
										<note xml:id="m-6f5544e1-1252-4179-b98e-ba0aa88026dd" pname="a" oct="4" dur="32" />
										<note xml:id="m-6176d302-2822-4a04-be4f-f531d1598135" pname="g" oct="4" dur="32" />
										<note xml:id="m-d64c2fb1-fc26-4e15-bbad-1946a71d0ee2" pname="d" oct="4" dur="8" artic="stacc" />
									</beam>
									<tuplet xml:id="m-fd50373a-9d5f-431f-b603-2a5c671c4c80" bracket.visible="false" dur.visible="true" num="3" numbase="1" num.format="count">
										<beam xml:id="m-35d4ec07-e696-48fb-ad8c-9a78afe308e6">
											<note xml:id="m-2a9c8161-f04e-4b1a-8d37-9176c65ee807" pname="e" oct="4" dur="8" artic="stacc" />
											<note xml:id="m-75fbeb14-4711-4db7-b474-4d1f3186a0b3" pname="g" oct="4" dur="8" artic="stacc" />
											<note xml:id="m-8f7c863f-3044-437b-99f5-00bb279db20a" pname="b" oct="4" dur="8" artic="stacc" />
										</beam>
									</tuplet>
								</layer>
							</staff>
						</measure>
						<measure xml:id="m-99533c0b-696c-4f58-b899-9c1458577fdd" n="4">
							<staff xml:id="m-ee191edd-d3f2-4d27-b450-ba7bb5a9868c" n="1">
								<layer xml:id="m-876576bb-786b-4887-9eab-d725f65d220a" n="1">
									<beam xml:id="m-aae635dd-7b01-4682-b439-675e6f9fb162">
										<note xml:id="m-bacc8b31-a5b6-4920-8241-2609ddbf1e8f" pname="a" oct="4" dur="16" />
										<note xml:id="m-944bc839-f193-49d5-8089-99a7ae6568cd" pname="b" oct="4" dur="32" />
										<note xml:id="m-92601b50-55e4-4879-9c83-57a500b3d4fe" pname="a" oct="4" dur="32" />
										<note xml:id="m-87eeabe5-51a1-4870-94d5-aa8a306ca7ad" pname="e" oct="4" dur="8" artic="stacc" />
									</beam>
									<beam xml:id="m-baaa8112-fdb1-459c-b29b-5e5173779757">
										<note xml:id="m-adf0c885-39d3-4fb9-a275-82b5ac8bf917" pname="e" oct="5" dur="8" artic="stacc" />
										<note xml:id="m-34c2a84b-8306-4a4e-95ef-5f7e48f363b5" pname="d" oct="5" dur="8" artic="stacc" />
									</beam>
									<beam xml:id="m-8545d18d-e698-42e2-8510-454fc9417ec6">
										<note xml:id="m-1c81f907-8352-4aad-9d8b-df69d042de7b" pname="b" oct="5" dur="8" />
										<note xml:id="m-76e548e4-f7cc-4542-a09f-2423a3146efc" pname="a" oct="5" dur="8" />
									</beam>
									<beam xml:id="m-55be3d67-c8e6-4c55-a0dc-81cc61823ec7">
										<note xml:id="m-8b8bc74a-4414-45f3-892f-c573666bbea6" pname="f" oct="5" accid="s" dur="8" artic="stacc" />
										<note xml:id="m-ed669359-053d-4922-8460-54736e6345cb" pname="d" oct="5" dur="8" artic="stacc" />
									</beam>
								</layer>
							</staff>
						</measure>
						<measure xml:id="m-c9c25117-eaa1-41dc-833a-49508bf412ed" n="5">
							<staff xml:id="m-6d9a448f-55b8-4089-a44d-85ea3328a393" n="1">
								<layer xml:id="m-fc95a5bb-ec59-4951-82d5-14a1a36213e8" n="1">
									<beam xml:id="m-a94a54ae-8bb5-4d69-8f35-2091ac776b1f">
										<note xml:id="m-ab67a572-fe11-4f80-8038-363492137341" pname="e" oct="5" dur="16" />
										<note xml:id="m-c9d5e59e-1ada-41a0-992b-b990a866214c" pname="f" oct="5" accid="s" dur="32" />
										<note xml:id="m-8476807f-e2b1-4023-bd79-534f44478076" pname="e" oct="5" dur="32" />
										<note xml:id="m-c6ad33bd-b2b4-46e5-9eb0-2765eddc41f5" pname="b" oct="4" dur="8" artic="stacc" />
									</beam>
									<beam xml:id="m-1109ef15-198e-45f7-b363-83f3cf623209">
										<note xml:id="m-9f8190f0-6e58-4d06-86da-9577d991b2f6" pname="d" oct="5" dur="8" artic="stacc" />
										<note xml:id="m-80e46863-b73a-4462-9f61-917d67cc8325" pname="g" oct="4" dur="8" artic="stacc" />
									</beam>
									<beam xml:id="m-32cadf8c-db50-4325-9ff2-8c569a3e97d8">
										<note xml:id="m-69c760c8-9e5e-45b5-b4b1-dc5f18a1858d" pname="b" oct="4" dur="16" />
										<note xml:id="m-79cde538-0fe2-4f2e-bfda-65865f920be0" pname="c" oct="5" accid="n" dur="32" />
										<note xml:id="m-36506471-34d1-4170-b064-2a4695e969cc" pname="b" oct="4" dur="32" />
										<note xml:id="m-86bc6b49-deb8-4c43-be3a-256e26f05c89" pname="d" oct="4" dur="8" artic="stacc" />
									</beam>
									<beam xml:id="m-2c37e4b4-99c5-47a6-bc41-1eef4c78c3c3">
										<note xml:id="m-994bca6b-2442-4e25-8e3c-d5a3e049e729" pname="a" oct="4" dur="8" artic="stacc" />
										<note xml:id="m-4b3212af-fdf4-42a6-b736-d3f33edbf6dd" pname="d" oct="4" dur="8" artic="stacc" />
									</beam>
								</layer>
							</staff>
						</measure>
						<measure xml:id="m-3910a91b-1a52-49ef-a6f0-331c4d3b3873" n="6">
							<staff xml:id="m-89618147-09f3-484d-93dd-0d9a0a9c7854" n="1">
								<layer xml:id="m-401b654b-b44a-4f0d-846b-1e54deb39682" n="1">
									<beam xml:id="m-fd82f335-f390-4b6a-a9b5-21dc2299a6a8">
										<note xml:id="m-0a4d5f4c-f0fd-4f33-b93d-bf78077cdcfc" pname="e" oct="5" dur="16" />
										<note xml:id="m-489bd1e5-4d9e-4256-ad10-360c90fe0b21" pname="f" oct="5" accid="s" dur="32" />
										<note xml:id="m-031414c5-5c68-4721-9595-7336cb6ccc4b" pname="e" oct="5" dur="32" />
										<note xml:id="m-17521931-6dcb-4d4e-94b7-0fc06eeb5cb8" pname="b" oct="4" dur="8" artic="stacc" />
									</beam>
									<beam xml:id="m-3d7da673-4ccd-4bb2-a9a0-fc35c61f3c98">
										<note xml:id="m-e46cf9e9-435c-40d6-a1f0-e7d067c66825" pname="d" oct="5" dur="8" artic="stacc" />
										<note xml:id="m-fa342e6d-4a11-4738-81ee-5e0a187d3c98" pname="g" oct="4" dur="8" artic="stacc" />
									</beam>
									<beam xml:id="m-68de9522-bb94-46ba-89d0-c9d952f45f52">
										<note xml:id="m-dc444a2f-e643-49c9-9455-01fdb176d973" pname="b" oct="4" dur="16" />
										<note xml:id="m-bc544a1d-b525-4a73-9023-eab8a658ebec" pname="c" oct="5" accid="n" dur="32" />
										<note xml:id="m-572ba388-f795-43a0-bcd6-d89aebe0fb74" pname="b" oct="4" dur="32" />
										<note xml:id="m-53325628-7c66-405b-a3d2-1fcd5fa605dd" pname="d" oct="4" dur="8" artic="stacc" />
									</beam>
									<beam xml:id="m-3cb081ab-22d9-41c5-b7ef-7dfe6c11cc65">
										<note xml:id="m-ea855d82-fbbc-4cbd-a20d-89790bca99bc" pname="a" oct="4" dur="8" artic="stacc" />
										<note xml:id="m-698d4381-1426-4544-8327-0ab7adb904da" pname="e" oct="4" dur="8" artic="stacc" />
									</beam>
								</layer>
							</staff>
						</measure>
						<measure xml:id="m-356be2cc-62aa-4daa-a157-7849cf7d9b04" n="7">
							<staff xml:id="m-93482919-0e1b-4839-b9f7-8e761ca037cf" n="1">
								<layer xml:id="m-1bacf407-9667-46eb-a744-9a5103cab8a3" n="1">
									<beam xml:id="m-538ecdad-d2f8-4227-8766-cf4f4d2f7a86">
										<note xml:id="m-9f3f216a-4a14-42ce-ad63-1ef55da7c5c8" pname="g" oct="4" dur="16" />
										<note xml:id="m-81afeae5-9a68-49eb-9e72-7980113caeeb" pname="a" oct="4" dur="32" />
										<note xml:id="m-4afbf5ca-d0ec-4bc5-a317-07c2986cc07a" pname="g" oct="4" dur="32" />
										<note xml:id="m-e7b19417-511e-43aa-a3e1-ebdc915fda8f" pname="d" oct="4" dur="8" artic="stacc" />
									</beam>
									<tuplet xml:id="m-15c4e4de-ac9b-47ce-bb9e-c01468ecae6b" bracket.visible="false" dur.visible="true" num="3" numbase="1" num.format="count">
										<beam xml:id="m-db6526cb-87db-4bef-aa97-a33ba246c016">
											<note xml:id="m-09b14178-097a-40c6-bae0-dd485da987e2" pname="e" oct="4" dur="8" artic="stacc" />
											<note xml:id="m-ba3070c9-4963-48a2-a3c3-bb70bf0bbc72" pname="g" oct="4" dur="8" artic="stacc" />
											<note xml:id="m-aa7573b7-f556-43f2-861e-8ab0e38d1d10" pname="b" oct="4" dur="8" artic="stacc" />
										</beam>
									</tuplet>
									<note xml:id="m-97d2f6c0-0f0b-4626-aea9-352282aa399d" pname="a" oct="4" artic="stacc" dots="1" dur="4" />
									<note xml:id="m-2d190786-60fe-4250-8fa7-e75786f769ab" pname="a" oct="5" dur="8" />
								</layer>
							</staff>
						</measure>
						<measure xml:id="m-495907ff-affc-4056-b4ca-4bbaf8c9c435" n="8">
							<staff xml:id="m-cdd74dc9-beac-4ab8-9c96-bb0177e4bb3f" n="1">
								<layer xml:id="m-3f4e381e-e3a4-4a77-ab0c-8050bbfce7d7" n="1">
									<beam xml:id="m-79abd404-1528-4f01-886c-692c2ee9359b">
										<note xml:id="m-a84b24b7-16a7-4034-a771-01da106cb860" pname="g" oct="4" dur="16" />
										<note xml:id="m-b89357cf-e0db-4662-8cd6-ebb6539cd423" pname="a" oct="4" dur="32" />
										<note xml:id="m-98644e47-d165-4846-bf96-4927a2364c47" pname="g" oct="4" dur="32" />
										<note xml:id="m-7dafaeaa-8c3d-4297-a214-58eae2cd4811" pname="d" oct="4" dur="8" artic="stacc" />
									</beam>
									<tuplet xml:id="m-e6055dbf-0882-4a9f-a0d2-a97f7856b3f1" bracket.visible="false" dur.visible="true" num="3" numbase="1" num.format="count">
										<beam xml:id="m-7db1a829-08bd-45ab-ab7e-fdeb9f924964">
											<note xml:id="m-c865d286-001b-4663-9796-d9110314d450" pname="e" oct="4" dur="8" artic="stacc" />
											<note xml:id="m-dfca4447-b035-4b0a-ab5e-ea59d032da62" pname="g" oct="4" dur="8" artic="stacc" />
											<note xml:id="m-9865b1eb-ae74-4e88-9f41-aca6ca74a252" pname="b" oct="4" dur="8" artic="stacc" />
										</beam>
									</tuplet>
									<note xml:id="m-f4e9374b-8587-4b5b-b75d-da41856e95ef" pname="a" oct="4" artic="stacc" dots="1" dur="4" />
									<note xml:id="m-e5051bd7-d7ba-46e4-a709-fbfa719e8551" pname="a" oct="5" dur="8" />
								</layer>
							</staff>
						</measure>
						<measure xml:id="m-139d845d-f287-48fb-8dcb-531cf2a90062" n="9">
							<staff xml:id="m-2338958f-600e-4da6-9069-4f767d58cb72" n="1">
								<layer xml:id="m-190b7cb3-75d4-4898-81f2-6d5d2aff9e7d" n="1">
									<beam xml:id="m-15c8a45c-9f98-4a29-a93f-9ac9a5849eaa">
										<note xml:id="m-d43d9f9b-9578-43dd-b7af-dd01b4139bc5" pname="a" oct="5" dur="16" />
										<note xml:id="m-9f9dba43-9a5c-432b-a84b-44072bf882c5" pname="b" oct="5" dur="32" />
										<note xml:id="m-679beaec-7d6a-4e86-835e-76ad28e5d959" pname="a" oct="5" dur="32" />
										<note xml:id="m-61f533f9-2a6b-4f58-bf34-f0a5f25446ab" pname="f" oct="5" accid="s" dur="8" />
									</beam>
									<beam xml:id="m-7333ddef-8c19-439a-a8cb-3bdd2ab2418d">
										<note xml:id="m-365e0dec-24ff-4ae4-aece-4448d0878675" pname="d" oct="5" dur="8" artic="stacc" />
										<note xml:id="m-55d22d9e-1e25-40ca-8bef-cd146deffcea" pname="b" oct="4" dur="8" artic="stacc" />
									</beam>
									<beam xml:id="m-e091fd50-60a8-4c66-8340-1b1231c568db">
										<note xml:id="m-29cc0371-a5c8-4290-acb7-a8034df27b4d" pname="a" oct="4" dur="16" />
										<note xml:id="m-6cbe3b82-b751-4c14-b139-e3e3a6e0c8eb" pname="b" oct="4" dur="32" />
										<note xml:id="m-9ceeb798-7dba-47e6-a1a7-67e364f51786" pname="a" oct="4" dur="32" />
										<note xml:id="m-ee8a6d7d-8454-4f7b-afe2-3c8f8a9ae06c" pname="f" oct="4" accid="s" dur="8" artic="stacc" />
									</beam>
									<beam xml:id="m-93c24c73-b7b5-4524-82b2-4af3920bfd47">
										<note xml:id="m-9a435082-7764-4311-99d9-f88cb2982030" pname="d" oct="4" dur="8" artic="stacc" />
										<note xml:id="m-2697dc5f-6a4d-4caf-aa25-3f71feccaea2" pname="b" oct="3" dur="8" />
									</beam>
								</layer>
							</staff>
						</measure>
						<measure xml:id="m-71b28194-e4e1-41d9-91b9-2b2fa9ab82c4" n="10">
							<staff xml:id="m-3f17e5ed-af6d-4ba8-bc3b-eccc6bb1348c" n="1">
								<layer xml:id="m-e9db9170-a520-4306-9a1a-4d55c72a4b33" n="1">
									<beam xml:id="m-e4899b0c-05f2-45cd-ad6b-bf2b24959162">
										<note xml:id="m-47b571b9-b114-4721-871d-844161645831" pname="a" oct="3" dur="8" artic="stacc" />
										<note xml:id="m-282ec379-5a0b-4517-8bcf-f987c02a16f2" pname="d" oct="4" dur="8" artic="stacc" />
									</beam>
									<beam xml:id="m-a7fa61ff-fba9-49ff-b463-f6cfe8728ad2">
										<note xml:id="m-c78f5da4-35c0-4e95-b0a3-f0a5501858b6" pname="b" oct="3" dur="8" artic="stacc" />
										<note xml:id="m-3b51a0d8-e55c-43c3-8be2-ea673d2785fd" pname="f" oct="4" accid="s" dur="8" artic="stacc" />
									</beam>
									<note xml:id="m-ab68516e-f6bf-43d7-bd20-eef4599c84ac" pname="d" oct="4" dur="2" artic="stacc" />
								</layer>
							</staff>
						</measure>
						<measure xml:id="m-85653eb6-a4a4-4e13-a2e1-4fd18682cd43" n="11">
							<staff xml:id="m-6146a0c1-4e77-45fe-868a-5ff3136f5868" n="1">
								<layer xml:id="m-19d2dddc-f2bb-4965-b9ae-86d9a69c6cc9" n="1">
									<beam xml:id="m-35af4d6e-bcc4-44c8-9938-47544796f5dd">
										<note xml:id="m-da0713ac-a031-4c17-8311-724d33e5e5b4" pname="g" oct="6" dur="8" />
										<tuplet xml:id="m-32e328c7-41bd-41d1-ad29-159a89813f01" bracket.visible="false" dur.visible="true" num="3" numbase="1" num.format="count">
											<note xml:id="m-4c905907-e1da-468c-ac89-03be5a90054c" pname="f" oct="4" accid="s" dur="16" />
											<note xml:id="m-62b09ede-418d-45ff-9fc6-b6b4df114b97" pname="g" oct="4" dur="16" />
											<note xml:id="m-dc0c1090-6b99-48e4-836e-d58c8daee963" pname="f" oct="4" accid="s" dur="16" />
										</tuplet>
									</beam>
									<beam xml:id="m-88db3cd2-bf96-4761-8ed4-c0cd0660d21d">
										<note xml:id="m-e11dd97b-48a7-493b-9b16-66cf5c315a18" pname="e" oct="4" dur="8" />
										<tuplet xml:id="m-31fe3628-0de0-4b0b-8e1f-54a43f3b7a22" bracket.visible="false" dur.visible="true" num="3" numbase="1" num.format="count">
											<note xml:id="m-d986405f-2ee7-497d-9262-6c644d1d9bba" pname="d" oct="4" dur="16" />
											<note xml:id="m-d15918b2-1c8f-43e7-8684-68c954dc0252" pname="e" oct="4" dur="16" />
											<note xml:id="m-82ddafd3-ff4e-4ceb-9adb-45c3b1428118" pname="d" oct="4" dur="16" />
										</tuplet>
									</beam>
									<beam xml:id="m-5cdfc263-fea9-4b8e-b01c-e9e48a8d936f">
										<note xml:id="m-42c9dfa8-cc05-4b12-8069-5d62001e64e5" pname="b" oct="3" dur="8" />
										<note xml:id="m-d675b53a-ccbb-4750-a769-7db681d1fe46" pname="d" oct="4" dur="8" artic="stacc" />
									</beam>
									<note xml:id="m-c24bd339-0d57-46ec-824b-9c38858071e2" pname="e" oct="4" dur="4" tie="i" />
								</layer>
							</staff>
						</measure>
						<measure xml:id="m-80aa318b-e808-4cc1-910b-0b4b3254a5a1" n="12">
							<staff xml:id="m-26cba5f8-47d2-483a-928b-937a578c308a" n="1">
								<layer xml:id="m-98427433-74e8-4743-a9d8-59c079655bb2" n="1">
									<beam xml:id="m-b9b6f7af-af25-4bb1-8533-ac194ea5585f">
										<note xml:id="m-b8f470c3-1fc7-4840-a470-00c5a9b479b6" pname="e" oct="4" dur="8" tie="t" />
										<note xml:id="m-e6e5c849-6b98-40c3-90a3-fb2711017a7c" pname="a" oct="4" dur="8" artic="stacc" />
									</beam>
									<beam xml:id="m-7ef26f2e-37a1-4d32-8a95-04d95228a023">
										<note xml:id="m-9edb9cec-7275-4780-8b92-891d3867c6ee" pname="c" oct="5" accid="n" dur="8" artic="stacc" />
										<note xml:id="m-0cbb71a2-5c21-4ef4-9a45-7af681714df7" pname="e" oct="5" dur="8" artic="stacc" />
									</beam>
									<beam xml:id="m-437b7441-e929-4a61-8951-6c7077a04692">
										<note xml:id="m-40062ab2-7839-42c7-863a-42373573e5b2" pname="f" oct="4" accid="s" dur="8" artic="stacc" />
										<note xml:id="m-88e3beb3-987e-401b-a4c3-35f86d62b66b" pname="a" oct="4" dur="8" artic="stacc" />
									</beam>
									<beam xml:id="m-2596e93b-0c69-425f-8344-b121babf4885">
										<note xml:id="m-72773b62-0c4c-4102-9aba-c298126e897d" pname="d" oct="5" dur="8" artic="stacc" />
										<note xml:id="m-1a9e4b46-827c-4d68-b716-413553743e86" pname="f" oct="5" accid="s" dur="8" artic="stacc" />
									</beam>
								</layer>
							</staff>
						</measure>
						<measure xml:id="m-80b42450-8305-44d8-8903-7e202486a80e" n="13">
							<staff xml:id="m-625ccaa4-f545-48f8-ab5d-3a0e07e7bd29" n="1">
								<layer xml:id="m-3ddd374b-2438-4910-bad7-21d27cfb58b5" n="1">
									<beam xml:id="m-7bdd4160-20bb-4c4b-b3fd-1dabf3b92545">
										<note xml:id="m-f415e959-bcd9-43c2-a245-b943ea75f0bc" pname="g" oct="5" dur="8" />
										<tuplet xml:id="m-740638e0-d5ad-48d6-afe0-bddd79f28142" bracket.visible="false" dur.visible="true" num="3" numbase="1" num.format="count">
											<note xml:id="m-61b83617-d53a-4041-a579-8359595be4c8" pname="f" oct="4" accid="s" dur="16" />
											<note xml:id="m-cbfbbaf0-d5d3-46fc-9fd7-4aedbe2311d7" pname="g" oct="4" dur="16" />
											<note xml:id="m-59543346-77b7-4de4-8db2-920d9c3d52f7" pname="f" oct="4" accid="s" dur="16" />
										</tuplet>
									</beam>
									<beam xml:id="m-f9ff6691-713a-4654-93de-5be80014f4d0">
										<note xml:id="m-153b837d-be04-4732-aa13-2c165f991b2b" pname="e" oct="4" dur="8" />
										<tuplet xml:id="m-247efc21-fcea-4517-9371-f04c087999df" bracket.visible="false" dur.visible="true" num="3" numbase="1" num.format="count">
											<note xml:id="m-b140577f-fe8a-409d-be91-e735526180d3" pname="d" oct="4" dur="16" />
											<note xml:id="m-d4390937-de3f-4782-a167-67a65b2bb9ca" pname="e" oct="4" dur="16" />
											<note xml:id="m-96d5ea0d-c5dd-4653-8dbd-79747ae0f672" pname="d" oct="4" dur="16" />
										</tuplet>
									</beam>
									<beam xml:id="m-3e694014-63b6-4f12-ac3a-03cf42bc42eb">
										<note xml:id="m-95fb629d-d3ab-438a-99dc-4f21c2318516" pname="b" oct="3" dur="8" />
										<note xml:id="m-6612b077-0292-4295-bda6-51f5ae6a5b78" pname="d" oct="4" dur="8" artic="stacc" />
									</beam>
									<note xml:id="m-10a2f021-2024-45fe-a1ab-788ef2605678" pname="e" oct="4" dur="4" />
								</layer>
							</staff>
						</measure>
						<measure xml:id="m-cc12644c-4e06-44c0-8f2e-cb9ad4f05390" n="14">
							<staff xml:id="m-6685a02a-a9e4-4a09-a75d-8328d22e3d31" n="1">
								<layer xml:id="m-c7248855-f91b-4a34-86e3-debd0a38a658" n="1">
									<beam xml:id="m-4a35edd2-2b7d-42b5-9c37-6782dae03068">
										<note xml:id="m-d95d3349-5282-4782-8d23-a325d5df962b" pname="e" oct="4" dur="8" />
										<note xml:id="m-8720fef1-da9e-4d0a-99a8-e8f176ef24af" pname="a" oct="4" dur="8" artic="stacc" />
									</beam>
									<beam xml:id="m-9ccd2079-14e1-4d23-a3a1-f9ac4c1c29d5">
										<note xml:id="m-0201fa7b-26e3-4686-86b2-52a2513ce296" pname="c" oct="5" accid="n" dur="8" artic="stacc" />
										<note xml:id="m-faf6a122-142b-441c-a3fb-72323269daea" pname="e" oct="5" artic="stacc" dur="8" tie="i" />
									</beam>
									<beam xml:id="m-c087d31e-d471-4717-b6f3-ec4841d10937">
										<note xml:id="m-f4cfd3b6-9773-4388-bea5-4eaa3352b66e" pname="e" oct="5" artic="stacc" dur="8" tie="t" />
										<note xml:id="m-6631a65a-eca9-445e-b448-fff992d4623f" pname="a" oct="4" dur="8" artic="stacc" />
									</beam>
									<beam xml:id="m-da7a6cc6-18bb-42dd-af54-babe4eefd9de">
										<note xml:id="m-17d26436-a109-4c35-8e48-e7032c95bc5d" pname="e" oct="5" dur="8" artic="stacc" />
										<note xml:id="m-ab493a71-f396-4e1e-9daf-da6c0f0abaa4" pname="f" oct="5" accid="s" dur="8" artic="stacc" />
									</beam>
								</layer>
							</staff>
						</measure>
						<measure xml:id="m-1ca1f093-32b4-4536-a356-28266803d47e" n="15">
							<staff xml:id="m-83a6046e-f987-4f08-be47-86fec6b32906" n="1">
								<layer xml:id="m-d7ecd648-fe7a-45f3-9138-f701a16614a6" n="1">
									<beam xml:id="m-ce6fb324-6ec8-4f28-86f4-9a1804304ddd">
										<note xml:id="m-4686ea2f-a791-4aab-8d9b-a414f2c52f6b" pname="b" oct="5" dur="8" />
										<tuplet xml:id="m-4df40e4e-87a4-4549-8cb3-8bbe569d008a" bracket.visible="false" dur.visible="true" num="3" numbase="1" num.format="count">
											<note xml:id="m-9f6bdd59-f9d0-48bd-a916-538f40c618f1" pname="a" oct="5" accid="s" dur="16" />
											<note xml:id="m-b676971f-a680-4751-9a5f-07284beb9c73" pname="b" oct="5" dur="16" />
											<note xml:id="m-ab1130af-e8a2-4dda-9b1c-e0bf3671cd10" pname="a" oct="5" accid="s" dur="16" />
										</tuplet>
									</beam>
									<beam xml:id="m-955e5dde-2b05-4f86-b90c-ffc76f034664">
										<note xml:id="m-e85fa866-eeea-46f6-81da-f203b66aef90" pname="g" oct="5" accid="s" dur="8" />
										<tuplet xml:id="m-bfc038c6-0ab2-4aa5-b605-eb055ec4790e" bracket.visible="false" dur.visible="true" num="3" numbase="1" num.format="count">
											<note xml:id="m-ee728cb6-3803-45ed-994e-0fe212a8d000" pname="f" oct="5" accid="s" dur="16" />
											<note xml:id="m-a8be723d-0ba9-411b-8493-7acdfc31e54a" pname="g" oct="5" accid="s" dur="16" />
											<note xml:id="m-35f86913-817e-4222-bd97-b23eda71e090" pname="f" oct="5" accid="s" dur="16" />
										</tuplet>
									</beam>
									<beam xml:id="m-2927d592-c572-43b7-ae68-b1161de24c72">
										<note xml:id="m-c49872f5-c694-4444-8e6c-4314e56430ac" pname="d" oct="5" dur="8" />
										<note xml:id="m-36d38ffe-4e3e-452f-b4fb-c55feb1f12bb" pname="f" oct="5" accid="s" dur="8" />
									</beam>
									<note xml:id="m-464a223d-1849-4cf3-83c3-de281459e1c4" pname="g" oct="5" accid="s" dur="4" />
								</layer>
							</staff>
						</measure>
						<measure xml:id="m-b5dd3e1f-5c94-423d-a0b4-e2ab6a11caa2" n="16">
							<staff xml:id="m-2a2594d8-e9a6-43a8-85d4-649dde46cf42" n="1">
								<layer xml:id="m-51a537c3-aef7-44da-b18f-92b6fca8732b" n="1">
									<beam xml:id="m-e219ae7f-23c1-4657-9ba6-98f08b97e1f3">
										<note xml:id="m-132f18d7-1e28-4cd6-96f1-4e26e0dc5b8f" pname="b" oct="5" dur="8" />
										<tuplet xml:id="m-2d100fbe-ed40-45c8-bfd8-03825bd6fb75" bracket.visible="false" dur.visible="true" num="3" numbase="1" num.format="count">
											<note xml:id="m-c2b627fe-8435-4c4d-b8e6-dbec76f6c757" pname="a" oct="5" accid="s" dur="16" />
											<note xml:id="m-0e1be2e0-c81a-4f40-b2da-1ed43e5fcee6" pname="b" oct="5" dur="16" />
											<note xml:id="m-16784dff-7c48-486e-8681-763cc5a99693" pname="a" oct="5" accid="s" dur="16" />
										</tuplet>
									</beam>
									<beam xml:id="m-97088a90-c980-4c27-98e9-a8e150be042d">
										<note xml:id="m-d14ee3da-747e-4f8c-ac78-1aa572412371" pname="g" oct="5" accid="s" dur="8" />
										<tuplet xml:id="m-4bd431f3-ffa8-47d7-b8cd-e31c48e9f1ee" bracket.visible="false" dur.visible="true" num="3" numbase="1" num.format="count">
											<note xml:id="m-eaba3b87-a759-4c7e-b213-4bd88764e4a0" pname="f" oct="5" accid="s" dur="16" />
											<note xml:id="m-7699d2dd-40e2-42fe-bdee-e92e337dc6da" pname="g" oct="5" accid="s" dur="16" />
											<note xml:id="m-ef3e3d87-28cd-4889-b312-205d40aef388" pname="f" oct="5" accid="s" dur="16" />
										</tuplet>
									</beam>
									<beam xml:id="m-400ff39b-1aa3-425e-97a3-cb625c2f7bd5">
										<note xml:id="m-c46d0de5-20a6-4825-819c-fffdcbc9fd94" pname="d" oct="5" dur="8" />
										<note xml:id="m-5e77339b-927b-4327-afe7-14243500e7e3" pname="f" oct="5" accid="s" dur="8" />
									</beam>
									<note xml:id="m-e3eb3727-3a6e-4ac9-becf-0b2d92be25eb" pname="g" oct="5" accid="s" dur="4" />
								</layer>
							</staff>
						</measure>
						<measure xml:id="m-2783f07a-9e87-4219-830c-4c694a93be61" n="17">
							<staff xml:id="m-3ed87490-82e2-457f-8c2c-5d91d6e7c284" n="1">
								<layer xml:id="m-d819dfbc-4da1-4d1f-b161-05ed71c55a39" n="1">
									<note xml:id="m-01b11734-53c2-4b42-ab97-6e0131624da1" pname="b" oct="5" dur="4" artic="stacc" />
									<note xml:id="m-29b539d8-845b-4305-85ca-a030d0c2bca3" pname="b" oct="5" dur="4" />
									<rest xml:id="m-3626cf88-c95d-4aa1-92e2-adda62453c8f" dur="4" />
									<note xml:id="m-a91dbb9b-39f1-4932-8b83-650158f29883" pname="c" oct="6" accid="n" dur="4" />
								</layer>
							</staff>
						</measure>
						<measure xml:id="m-a03dee99-c1b7-4fae-b21e-41cb2c6d7149" n="18">
							<staff xml:id="m-65ca1eb7-44d5-4081-bfc8-fcdaac634dca" n="1">
								<layer xml:id="m-5323a59e-05a3-4df3-8fa5-085e799f9611" n="1">
									<note xml:id="m-cfb49e20-c786-4b36-b944-341d29071518" pname="d" oct="6" dur="4" artic="stacc" />
									<note xml:id="m-b7e9b09e-f6c4-4a43-94a4-d6608af4954c" pname="d" oct="6" artic="stacc" dur="4" tie="i" />
									<beam xml:id="m-ddc1a642-f388-43d7-bb84-a27370ca2925">
										<note xml:id="m-d89c32d2-1b69-453c-b66c-6ab9b8d0a1a4" pname="d" oct="6" artic="stacc" dur="8" tie="t" />
										<tuplet xml:id="m-d4cdec57-a37c-4c07-8d10-2078f8a064cf" bracket.visible="false" dur.visible="true" num="3" numbase="1" num.format="count">
											<note xml:id="m-1e8b5583-4be0-4cfd-8a60-2b69c4474c50" pname="c" oct="4" accid="n" dur="16" />
											<note xml:id="m-4fb7c20e-8d3d-4068-90b7-6715d64685f0" pname="d" oct="4" dur="16" />
											<note xml:id="m-88aaf643-cd53-4e77-a15f-d8ca1877ae57" pname="c" oct="4" dur="16" />
										</tuplet>
									</beam>
									<beam xml:id="m-5f19c7ad-ad8c-4c4b-b6fb-534e400a585d">
										<note xml:id="m-80c3f3c4-5901-48b1-841a-ea8f8fcebd9c" pname="b" oct="3" dur="8" />
										<tuplet xml:id="m-98fd4be2-ebbe-49dd-8d5a-8ac521da6e05" bracket.visible="false" dur.visible="true" num="3" numbase="1" num.format="count">
											<note xml:id="m-bce9299c-bc4b-4847-b02c-e19c1d150823" pname="a" oct="3" dur="16" />
											<note xml:id="m-2680e702-6fde-43db-97df-908e8d6a287b" pname="b" oct="3" dur="16" />
											<note xml:id="m-3e28631f-b684-4220-b084-f548b162b820" pname="a" oct="3" dur="16" />
										</tuplet>
									</beam>
								</layer>
							</staff>
						</measure>
						<measure xml:id="m-d36e8193-fa12-48d7-b443-e75d5bb833c6" n="19">
							<staff xml:id="m-169940f6-c45a-4be3-a134-3f1479dd697a" n="1">
								<layer xml:id="m-54a8fc98-5010-4a6b-b561-5b3afd08852c" n="1">
									<note xml:id="m-c1f94d1b-1b27-4cbd-bf8d-fea4a57f4c08" pname="g" oct="3" dur="4" artic="stacc" />
									<note xml:id="m-7f2af80b-8505-4a3e-a42c-da3e9908cec2" pname="g" oct="3" artic="stacc" dur="4" tie="i" />
									<note xml:id="m-fb41aba3-f94e-43c8-b13f-5664b304b87e" pname="g" oct="3" artic="stacc" dur="4" tie="t" />
									<note xml:id="m-2fb292a0-2555-41d2-80de-a45988b83abe" pname="g" oct="5" dur="4" artic="stacc" />
								</layer>
							</staff>
						</measure>
						<measure xml:id="m-179e1893-f83d-4381-ac15-6769bc82a85d" n="20">
							<staff xml:id="m-e177c894-1f00-4e6d-8249-98d4727547d1" n="1">
								<layer xml:id="m-167ccea5-2f85-4a18-9756-b866dee72fd7" n="1">
									<note xml:id="m-f2162d11-2b7b-465f-b961-8fda245f5c33" pname="g" oct="5" dur="2" artic="stacc" />
									<note xml:id="m-e4aa1964-61f5-4519-867e-37a6c2edbaad" pname="g" oct="3" dur="2" />
								</layer>
							</staff>
						</measure>
					</section>
				</score>
			</mdiv>
		</body>
	</music>
</mei>
