<?xml version="1.0" encoding="UTF-8"?>
<mei xml:id="m-42daf9a6-6c34-44d5-8945-973e4c80eb71" xmlns="http://www.music-encoding.org/ns/mei" meiversion="3.0.0">
	<music xml:id="m-cf5cbdc8-89b8-4c51-bb5e-eb0ec2067a54">
		<body xml:id="m-75437df0-867e-4977-be11-8b7e8c1951c8">
			<mdiv xml:id="m-44f2fcb9-171f-438a-adab-37f42c4600d3">
				<score xml:id="m-780ba265-3661-4e1a-b44c-9b09a0bbc2ea">
					<scoreDef xml:id="m-daea5af8-5e22-48a9-8a30-253bcc01af4f" meter.count="3" meter.unit="4" key.sig="1s">
						<staffGrp xml:id="m-34ee1ffb-97e1-426c-8498-703cb8bd9535">
							<staffDef xml:id="m-ed984e31-6e5e-47d6-abce-436e92d2e3fc" n="1" lines="5" clef.shape="G" clef.line="2" />
						</staffGrp>
					</scoreDef>
					<section xml:id="m-c2d535f8-b111-477d-b397-a91af68c61bf">
						<measure xml:id="m-15838b0a-5855-4b32-89c4-c05bc3aa9d7e" n="1">
							<staff xml:id="m-d933f758-7f89-4209-b726-be1c7af4e0f6" n="1">
								<layer xml:id="m-139a2bc8-d6a9-4d5b-94e6-bf2a3ef4c40a" n="1">
									<note xml:id="m-bcc0d290-6eea-4fa9-885f-88a33e5fcd59" pname="d" oct="5" dur="4" />
									<note xml:id="m-ead2c0a5-3cc1-4971-aa5b-1bd145c5f90b" pname="e" oct="5" dur="4" />
									<note xml:id="m-48c021ad-2fcf-4081-820d-74c6f5a9d297" pname="f" oct="5" dur="4" />
								</layer>
							</staff>
						</measure>
						<measure xml:id="m-9c935483-9a6f-4bc8-8009-e5150e487bcc" n="2">
							<staff xml:id="m-1c32edd4-af9a-49b5-82f2-08fa81b606c0" n="1">
								<layer xml:id="m-9e2e3de3-2b13-4521-b15c-bd7d3a306a83" n="1">
									<beam xml:id="m-7239a73f-fd13-4bca-8a26-c32bd5a9bf94">
										<note xml:id="m-38542588-8a4f-4cb4-a381-3e635753954a" pname="g" oct="5" dur="8" />
										<note xml:id="m-850f5a6f-8c41-47d1-8b73-2e88def76b4a" pname="b" oct="5" dur="16" />
										<note xml:id="m-bfbeb47f-fc85-474d-990f-ce001eb3603f" pname="d" oct="5" dur="16" />
									</beam>
									<note xml:id="m-7297300c-d98e-4010-8ae7-e4e1af97e99b" pname="e" oct="5" dur="4" tie="i" />
									<note xml:id="m-917452d8-acf1-4ec9-8e6b-01d1a55f6371" pname="e" oct="5" dur="4" tie="t" />
								</layer>
							</staff>
						</measure>
						<measure xml:id="m-c47787a9-b56c-4085-8dd6-7bcc158e2c1b" n="3">
							<staff xml:id="m-e2ff89bd-e2f5-4fee-b48a-50b054c6f6ad" n="1">
								<layer xml:id="m-b4e3daac-9243-4a56-b8af-dc51e0cdef3d" n="1">
									<beam xml:id="m-ea8865ef-b931-496f-b4ee-cabc01bc2efe">
										<note xml:id="m-6330d029-ba87-411b-981b-f99120de73b6" pname="d" oct="5" dur="8" />
										<note xml:id="m-a51479a4-1f8c-4dff-83b1-8bb4216b1d4f" pname="g" oct="5" dur="16" />
										<note xml:id="m-77314182-104f-4732-a96b-8665b3251b33" pname="b" oct="4" dur="16" />
									</beam>
									<beam xml:id="m-639a32cf-69d9-4c83-be60-16e1157521b1">
										<note xml:id="m-63216955-85ae-4ae6-8a54-bbd89fb1707c" pname="c" oct="5" dur="8" />
										<note xml:id="m-000b3ef8-f7c2-497b-9ffe-7f9a9f7a5622" pname="e" oct="5" dur="16" />
										<note xml:id="m-45caba5a-4055-4f67-af10-a19e465c140a" pname="a" oct="4" dur="16" />
									</beam>
									<beam xml:id="m-50b70721-4339-4ed5-988c-769fbe7eaf9e">
										<note xml:id="m-faf7a3a6-d9a5-4268-a46d-6f96f57b2e27" pname="b" oct="4" dur="8" />
										<note xml:id="m-60137fdf-d0da-40da-9dbe-95eec30dcb50" pname="d" oct="5" dur="16" />
										<note xml:id="m-c2dedd2d-108f-448f-91ef-dfb2c64e4cf5" pname="g" oct="4" dur="32" />
										<note xml:id="m-95e9185b-57af-48b8-baeb-93652c50ca4b" pname="b" oct="4" dur="32" />
									</beam>
								</layer>
							</staff>
						</measure>
						<measure xml:id="m-cca854fd-f709-47df-8683-075931284911" n="4">
							<staff xml:id="m-0cfcd165-90a8-4cfa-aa29-2cb72b6d0f74" n="1">
								<layer xml:id="m-f9f2c26c-07d9-4fe8-bd8a-f3db1b85ceac" n="1">
									<beam xml:id="m-9d6ad3cb-ce86-4158-8e61-84661e1b2dc2">
										<note xml:id="m-fa34cebf-59dd-4cac-9b8e-e868a3232070" pname="a" oct="4" dur="8" />
										<note xml:id="m-da06a691-0dd1-4174-a341-72dfc66fdccc" pname="g" oct="4" dur="16" />
										<note xml:id="m-d249b7f2-8d7b-44a1-b348-aafa2c52ec97" pname="f" oct="4" dur="32" />
										<note xml:id="m-25f7e7f7-35ad-433f-9fa4-741a73387595" pname="e" oct="4" dur="32" />
									</beam>
									<note xml:id="m-e755000a-f0f7-41b5-91a2-6a0da2e9518d" pname="d" oct="4" dur="4" tie="i" />
									<note xml:id="m-4952efca-54bb-4ca9-abb3-be4a9942be5b" pname="d" oct="4" dur="4" tie="t" />
								</layer>
							</staff>
						</measure>
						<measure xml:id="m-659ba5bc-60ca-4bc1-8c0b-168b0ab5cd7e" n="5">
							<staff xml:id="m-a2986336-d9db-42a5-89bd-66494d8ebd06" n="1">
								<layer xml:id="m-b671bd0b-0c64-42b2-9185-54de76d161bc" n="1">
									<beam xml:id="m-eec8fa0c-e027-44e2-aac0-fd1c5e93807b">
										<note xml:id="m-e43dbd73-df18-4d61-b819-4c63172b70a6" pname="d" oct="4" dur="8" artic="stacc" />
										<note xml:id="m-342dd175-60a5-4ff4-9f7d-1ba93a336809" pname="g" oct="4" dur="16" />
										<note xml:id="m-f1d3b039-d3da-4b0c-9023-008ad7b80d16" pname="f" oct="4" dur="16" />
									</beam>
									<beam xml:id="m-f8aa92be-6faa-4cb6-a83c-538c679538bf">
										<note xml:id="m-1507e46e-d805-4f90-b000-72092dab5aa0" pname="g" oct="4" dur="8" artic="stacc" />
										<note xml:id="m-fe06c6ba-f4c8-4415-92bd-2a87a5bcd998" pname="d" oct="4" dur="8" artic="stacc" />
									</beam>
									<note xml:id="m-302c5d16-6b48-45a7-bb68-f006bcee10a3" pname="d" oct="4" dur="4" />
								</layer>
							</staff>
						</measure>
						<measure xml:id="m-4a6e770e-59ac-4e52-941d-0a72c5ed7088" n="6">
							<staff xml:id="m-82a83795-f9f2-4c65-b579-ee12159b319e" n="1">
								<layer xml:id="m-90fd920b-bc8b-44d8-9eaf-15cb1ebc481c" n="1">
									<beam xml:id="m-b87f9a91-273f-459b-8c94-53bb700821c0">
										<note xml:id="m-12b19a7b-92c6-4e23-be2c-7dfdfb08ee96" pname="d" oct="4" dur="8" artic="stacc" />
										<note xml:id="m-f69fa636-4e9d-4894-9833-1e77536602c0" pname="a" oct="4" dur="16" />
										<note xml:id="m-c7987f35-8b5d-4f23-a5e4-416a4037a632" pname="g" oct="4" dur="16" />
									</beam>
									<beam xml:id="m-27eaa11d-e8e1-4786-bc9b-b24ff315a6c7">
										<note xml:id="m-0c3ee93d-d7f1-4f54-8bb6-ff04888c2634" pname="a" oct="4" dur="8" artic="stacc" />
										<note xml:id="m-15b5f069-2ec8-4d55-83b1-e4f13d152d63" pname="d" oct="4" dur="8" artic="stacc" />
									</beam>
									<note xml:id="m-471e1888-ef6a-4f92-aad4-53a7d3cad2db" pname="d" oct="4" dur="4" />
								</layer>
							</staff>
						</measure>
						<measure xml:id="m-8cddec1e-b0d3-4235-8145-471028c1bcea" n="7">
							<staff xml:id="m-3121da20-494e-44e0-a4b2-ad79a664e0ae" n="1">
								<layer xml:id="m-160ba4a6-4b8b-4c6a-9928-db8540e754da" n="1">
									<note xml:id="m-316fae42-d74b-4d9a-82e1-2269ccbc1ca4" pname="g" oct="5" dur="4" tie="i" />
									<beam xml:id="m-70e05317-f65a-496c-a34b-6ed23115e2b5">
										<note xml:id="m-ccbb5e1b-10ff-4e60-b16e-03e04d34c8e4" pname="g" oct="5" dur="16" tie="t" />
										<note xml:id="m-2518bfd3-cfc0-4cf2-9756-b16d5ea9173f" pname="f" oct="5" dur="16" />
										<note xml:id="m-1a530c73-0939-49b3-bf53-fa131e399c4d" pname="e" oct="5" dur="16" />
										<note xml:id="m-857c022d-3921-4180-845e-2a15e489df24" pname="d" oct="5" dur="16" />
									</beam>
									<beam xml:id="m-b6e28564-3931-41dd-a3a4-3ad8e38c4c68">
										<note xml:id="m-3d3db428-a38a-49bb-b16a-75e789a1aa2b" pname="c" oct="5" dur="16" />
										<note xml:id="m-16e91db3-8dc6-4389-aaa7-db10a93e95bb" pname="b" oct="4" dur="16" />
										<note xml:id="m-ee103532-6a94-4e4a-b829-04183f418ebf" pname="a" oct="4" dur="16" />
										<note xml:id="m-9c7e7923-b4c1-4b78-82a1-c3601971d957" pname="g" oct="4" dur="16" />
									</beam>
								</layer>
							</staff>
						</measure>
						<measure xml:id="m-47211bc3-bf98-430a-be84-1eb0b9a84824" n="8">
							<staff xml:id="m-c1c1e28a-c24b-4edb-af23-bfe8d35b4608" n="1">
								<layer xml:id="m-71b82a64-6e5d-4321-ab34-db3672df75ca" n="1">
									<beam xml:id="m-151c310d-a7bb-4fa7-a79e-be0e01ff36f8">
										<note xml:id="m-250ca776-9463-408e-a98c-7aee50c228e9" pname="f" oct="4" dur="16" />
										<note xml:id="m-411324fd-4c56-4389-8467-f5b63cb24554" pname="c" oct="5" dur="16" />
										<note xml:id="m-03e2f5f1-3f24-494d-90b7-d627c5598ac4" pname="a" oct="4" dur="16" />
										<note xml:id="m-4b77d4f1-64a1-4b26-90cd-74ac24b7e1af" pname="f" oct="4" dur="32" />
										<note xml:id="m-4bbe6e05-ccdd-4ed3-92eb-e0467ea30004" pname="f" oct="4" dur="32" />
									</beam>
									<note xml:id="m-068d6c06-5280-464f-ac91-02657729f598" pname="g" oct="4" dur="4" tie="i" />
									<note xml:id="m-b85824f4-8ef6-4db1-9bee-389cbac29003" pname="g" oct="4" dur="4" tie="t" />
								</layer>
							</staff>
						</measure>
						<measure xml:id="m-ee1c693f-0e84-4de6-9442-c305e93a0c8f" n="9">
							<staff xml:id="m-b13f0fab-f085-4c1f-9ba6-f3030fa0a9c6" n="1">
								<layer xml:id="m-a337af5f-fa96-4b80-bd55-dca156343135" n="1">
									<note xml:id="m-e7da108e-e341-4e37-8e6a-86148a715df8" pname="d" oct="5" dur="4" />
									<note xml:id="m-908ed751-da2b-4fba-92c5-99f4c3d65f54" pname="e" oct="5" dur="4" />
									<note xml:id="m-aba283ad-e026-426e-9e5a-ffdbe09efb9b" pname="f" oct="5" dur="4" />
								</layer>
							</staff>
						</measure>
						<measure xml:id="m-69c27edd-3045-45d5-85c1-fc2e485dd7dd" n="10">
							<staff xml:id="m-12d1351d-fda5-4536-a510-0303b96c56fb" n="1">
								<layer xml:id="m-c7e7248a-4038-44b3-a6f2-556c67a8690b" n="1">
									<beam xml:id="m-3fb30b14-5b06-4f6d-974f-f649ea73832a">
										<note xml:id="m-6d32cd9d-6bd9-432c-8c43-fe3e92194350" pname="g" oct="5" dur="8" />
										<note xml:id="m-785a5b50-8129-4521-85bd-1819fccc635a" pname="b" oct="5" dur="16" />
										<note xml:id="m-dce19c42-cbd5-40d3-b80a-c230366e19d5" pname="g" oct="5" dur="16" />
									</beam>
									<note xml:id="m-ed71b79f-9f7a-413b-8e16-5bbfdbedeca0" pname="g" oct="5" dur="4" tie="i" />
									<note xml:id="m-05bb96f2-88db-42b4-ab64-7ae33dcc4e8f" pname="g" oct="5" dur="4" tie="t" />
								</layer>
							</staff>
						</measure>
						<measure xml:id="m-3475e4fb-a338-4588-8083-b65ae21b8d99" n="11">
							<staff xml:id="m-a6e5b986-2e4d-4e99-910a-9905729243f7" n="1">
								<layer xml:id="m-697c4a97-a52a-4694-bd53-172f4d83a181" n="1">
									<beam xml:id="m-09a31a39-b8ee-4ebd-aa7b-9c9ec303e4c8">
										<note xml:id="m-4e6f7f89-0c10-4a98-9e4a-81e6687b60ca" pname="f" oct="5" dur="16" />
										<note xml:id="m-da2834fb-266d-4810-aff1-5db5af12ed91" pname="a" oct="5" dur="16" />
										<note xml:id="m-d35c4a0d-4b5a-4eae-8b25-9e8167c13a6b" pname="g" oct="5" dur="16" />
										<note xml:id="m-de78fc5a-f9a4-4f11-b81c-054dcd041aff" pname="f" oct="5" dur="16" />
									</beam>
									<beam xml:id="m-48ce2f59-7c6c-4e9f-ac48-f2513c6fbaba">
										<note xml:id="m-f82251b7-3aad-4511-945d-5019d6df7890" pname="b" oct="5" dots="1" dur="8" />
										<note xml:id="m-ef4a2666-7b42-4666-a895-72957286e349" pname="a" oct="5" dur="16" />
									</beam>
									<beam xml:id="m-4e455018-2ad1-4ddf-9c8b-fb1a76bdb761">
										<note xml:id="m-4d80c281-ed34-49ad-87d2-eef7d589dfb3" pname="g" oct="5" dur="16" />
										<note xml:id="m-3f251f1c-de72-4af3-a35f-55a06e428539" pname="f" oct="5" dur="16" />
										<note xml:id="m-d0aff77d-f5bf-4173-8363-d0b5a4205832" pname="e" oct="5" dur="16" />
										<note xml:id="m-0d17ff27-e002-45e4-be3a-a90b5687460d" pname="d" oct="5" dur="16" />
									</beam>
								</layer>
							</staff>
						</measure>
						<measure xml:id="m-8802b73e-9c71-415a-aff9-32b4f9b09fb9" n="12">
							<staff xml:id="m-77701dde-9419-4691-a814-f7e03cf5bbb9" n="1">
								<layer xml:id="m-db012d19-3993-4d32-855c-ffdbd3a2c248" n="1">
									<beam xml:id="m-ee27e4fa-8ae2-4a25-b71b-1677e0a9ee9f">
										<note xml:id="m-cca413bd-9a93-4d55-8f06-3c61352309c5" pname="c" oct="5" accid="s" dur="16" />
										<note xml:id="m-470bc503-8598-4fa0-b39f-fa9bc7d60407" pname="a" oct="5" dur="16" />
										<note xml:id="m-5ab85ee0-78d1-4268-bc25-9a0fb95dd01f" pname="e" oct="5" dur="16" />
										<note xml:id="m-ee4d85f7-804a-4c90-9618-431270a9ce38" pname="c" oct="5" dur="32" />
										<note xml:id="m-2107067d-4665-4d83-9ceb-9f09af096843" pname="b" oct="4" dur="32" />
									</beam>
									<note xml:id="m-63b11019-a6e4-41e2-8078-0d7f84b2893d" pname="a" oct="4" dur="4" tie="i" />
									<note xml:id="m-2a5a5dd6-0124-4891-b449-8a5a1b45e326" pname="a" oct="4" dur="4" tie="t" />
								</layer>
							</staff>
						</measure>
						<measure xml:id="m-77bf4c13-6938-4e07-b1d4-ae6b30f59c7a" n="13">
							<staff xml:id="m-d9a87947-4b65-4d4c-a930-5b19f2e6e9ca" n="1">
								<layer xml:id="m-760c811d-d785-4c2a-a8be-18ec802b90a3" n="1">
									<beam xml:id="m-1a85a5c4-98c9-4ca3-a7c3-323e7a204dba">
										<note xml:id="m-2d105e3d-92f5-4838-ad5c-6ff3696b2e43" pname="a" oct="4" dur="8" artic="stacc" />
										<note xml:id="m-13e3d6b4-fe0a-400f-9ad9-a773b3861894" pname="d" oct="5" dur="16" />
										<note xml:id="m-37f6b88a-afe8-4ca7-abbf-0b008a81d99e" pname="c" oct="5" accid="s" dur="16" />
									</beam>
									<beam xml:id="m-0520a2ff-96d5-4e67-b304-33bf02e267c7">
										<note xml:id="m-0fc1e9b9-3ac9-4b2c-9380-81340acbd308" pname="d" oct="5" dur="8" artic="stacc" />
										<note xml:id="m-613d4147-7f74-448b-972f-73cc31471005" pname="a" oct="4" dur="8" artic="stacc" />
									</beam>
									<note xml:id="m-e384237d-46d8-4b75-8961-d40cef8980bb" pname="a" oct="4" dur="4" />
								</layer>
							</staff>
						</measure>
						<measure xml:id="m-2cc8320f-dbf2-4347-953a-4524fcb5ffe8" n="14">
							<staff xml:id="m-20ed943b-8ff9-4302-9b0b-19a9af3baa73" n="1">
								<layer xml:id="m-bda05600-9ce2-4fa4-b20c-4e83ddc59550" n="1">
									<beam xml:id="m-6f575185-ec70-4f92-8270-3aca3219f173">
										<note xml:id="m-5d42bf29-3608-45ef-8e5c-daef4698bfb1" pname="a" oct="4" dur="8" artic="stacc" />
										<note xml:id="m-d36ac02b-b3c8-4688-a3cb-b5a4f795a2cf" pname="e" oct="5" dur="16" />
										<note xml:id="m-97c64ff0-5a45-48a4-b2c3-ca9099e1a840" pname="d" oct="5" dur="16" />
									</beam>
									<beam xml:id="m-ca960a7a-8473-4ac0-85bf-ec77b23262bb">
										<note xml:id="m-67bfffc2-eae0-4990-a8c8-065394b4f5cc" pname="e" oct="5" dur="8" artic="stacc" />
										<note xml:id="m-14336a17-85f8-499e-ab30-7437e240d6a9" pname="a" oct="4" dur="8" artic="stacc" />
									</beam>
									<note xml:id="m-a3685006-c647-4621-8e31-ac6ca22a61cf" pname="a" oct="4" dur="4" />
								</layer>
							</staff>
						</measure>
						<measure xml:id="m-8bcf2262-d828-4563-acec-dd37f021c2c1" n="15">
							<staff xml:id="m-598794ec-2e69-4742-b034-d1d5dd8799a4" n="1">
								<layer xml:id="m-5989c254-df1e-489f-8f47-63dc869e9197" n="1">
									<note xml:id="m-d515ae70-e389-4a51-87fc-ca821207e61c" pname="d" oct="6" dur="4" tie="i" />
									<beam xml:id="m-30484ada-c528-4f7d-b5a1-507143a32863">
										<note xml:id="m-49df6f23-48d0-44a6-89f4-5a5dd0627be4" pname="d" oct="6" dur="16" tie="t" />
										<note xml:id="m-37951047-9ac4-4e23-9723-a5098c398712" pname="c" oct="6" accid="s" dur="16" />
										<note xml:id="m-b7287d08-e06f-4b77-b586-cf0f57ed9986" pname="b" oct="5" dur="16" />
										<note xml:id="m-062e98be-ae54-4fc4-88e1-c103dae985a0" pname="a" oct="5" dur="16" />
									</beam>
									<beam xml:id="m-7cd9e928-fb71-4527-844e-be7e8668605d">
										<note xml:id="m-3484eb4c-d24b-47cc-a881-07e429385008" pname="g" oct="5" dur="16" />
										<note xml:id="m-8f568781-6809-4ced-8473-b65604271e32" pname="f" oct="5" dur="16" />
										<note xml:id="m-87c16033-83ae-4c69-843f-b491f75fae96" pname="e" oct="5" dur="16" />
										<note xml:id="m-113ee313-e179-4b74-962f-8abbbaa06f4c" pname="d" oct="5" dur="16" />
									</beam>
								</layer>
							</staff>
						</measure>
						<measure xml:id="m-999a1193-1977-4840-9ca5-1069244b79c6" n="16">
							<staff xml:id="m-de2a3b9e-6f7a-410f-b765-37531951a4e5" n="1">
								<layer xml:id="m-e00a2786-9d79-487a-b520-a472cf651e97" n="1">
									<beam xml:id="m-1593a8dc-a717-472b-8b6d-2d157b38b899">
										<note xml:id="m-a4b917d4-184c-4c11-b9dc-ff1359f45e61" pname="c" oct="5" accid="s" dur="16" />
										<note xml:id="m-80182986-331d-4271-80d6-8f7588010e26" pname="g" oct="5" dur="16" />
										<note xml:id="m-500a17ee-129b-4930-b386-3ea2826299b3" pname="e" oct="5" dur="16" />
										<note xml:id="m-81dd2c9b-cef5-4e37-b8b2-b76beb7e9541" pname="c" oct="5" dur="32" />
										<note xml:id="m-b1bd322d-8777-497e-83b3-88ca8aadc667" pname="c" oct="5" dur="32" />
									</beam>
									<note xml:id="m-619755dd-e223-4aab-958e-f2005cb42cbb" pname="d" oct="5" dur="4" tie="i" />
									<note xml:id="m-f9c9a57d-7a64-4e00-b969-be2418c6b6e8" pname="d" oct="5" dur="4" tie="t" />
								</layer>
							</staff>
						</measure>
						<measure xml:id="m-4bd0fa6b-afab-491e-b9cb-0f05b1262537" n="17">
							<staff xml:id="m-a0bf2bf1-7c0d-431c-aa4a-c0a9ed99cac6" n="1">
								<layer xml:id="m-d4fd8632-56f4-42e2-9558-af2f09a61e72" n="1">
									<beam xml:id="m-70eadc38-2dee-45ef-9350-98e53cd1c5bf">
										<note xml:id="m-1a6de873-a59d-4cfa-a3e8-d5d880b08c44" pname="d" oct="5" dur="16" />
										<note xml:id="m-eab0da86-2b56-4db7-b88a-c98f182cdcd3" pname="e" oct="5" dur="16" />
									</beam>
									<note xml:id="m-fc8e8b94-1d22-456c-94d4-3fb43c66ac6f" pname="f" oct="5" accid="n" dots="1" dur="4" tie="i" />
									<beam xml:id="m-fcfb17d3-2795-4951-933a-9ae7c0f661bd">
										<note xml:id="m-fbcff1d9-cd0a-415b-a74f-9e6d7aee9bec" pname="f" oct="5" accid="n" dur="8" tie="t" />
										<note xml:id="m-fd767077-6420-4d79-a223-46ab8b0287d7" pname="e" oct="5" dur="16" />
										<note xml:id="m-96278cd8-64b9-4012-b368-3b1aeae73780" pname="d" oct="5" dur="16" />
									</beam>
								</layer>
							</staff>
						</measure>
						<measure xml:id="m-b95f3f88-775c-4069-ab39-818792ad156a" n="18">
							<staff xml:id="m-85543ce7-4268-4391-acea-fb8d06eee4f8" n="1">
								<layer xml:id="m-56205b39-fa71-4dc1-94c8-dc74e9aa7eaf" n="1">
									<beam xml:id="m-42494516-975c-4328-8bc0-2c5230e8ab3e">
										<note xml:id="m-51acbf1b-bd0e-4f4c-b778-3bcc701501cc" pname="c" oct="5" dur="16" />
										<note xml:id="m-e7a0be12-f192-40c8-a654-4be3ef599c15" pname="a" oct="5" dur="16" />
										<note xml:id="m-7f3cdc78-5cb5-46d0-bcc3-f2feb2e79f17" pname="e" oct="5" dur="16" />
										<note xml:id="m-0a5fb425-40f2-40a9-adec-0fee8e4bef79" pname="c" oct="5" dur="32" />
										<note xml:id="m-e8d1a682-c47d-42ac-a429-d22250203ad2" pname="b" oct="4" dur="32" />
									</beam>
									<note xml:id="m-e02e29f9-b010-4d13-bc4b-870aa112d5e6" pname="a" oct="4" dur="4" tie="i" />
									<note xml:id="m-995e1c40-d118-4ea4-8bdb-d3bfbe6b7497" pname="a" oct="4" dur="4" tie="t" />
								</layer>
							</staff>
						</measure>
						<measure xml:id="m-41f585f7-0c55-4b99-a980-03beba183a66" n="19">
							<staff xml:id="m-130f70ce-a17e-4eb8-9bed-e2cb490e941d" n="1">
								<layer xml:id="m-1ae89c4b-b9f7-499e-9f1f-0d7d695a11f1" n="1">
									<beam xml:id="m-aef705e1-ec8d-48c7-a043-06a2dc6bc044">
										<note xml:id="m-61da6379-73bb-4048-85f3-b7bbb4d7ba94" pname="c" oct="5" dur="16" />
										<note xml:id="m-d07449d7-bd79-40e9-9bb7-593a1be97da4" pname="d" oct="5" dur="16" />
									</beam>
									<note xml:id="m-8bf250e8-c84d-47eb-a702-852dab164f49" pname="e" oct="5" dots="1" dur="4" tie="i" />
									<beam xml:id="m-021ab875-ba02-426e-8510-a648e958238f">
										<note xml:id="m-d3b42e34-5fc4-44a4-b06e-6b4d5f8509d4" pname="e" oct="5" dur="8" tie="t" />
										<note xml:id="m-5d49df02-ffb9-408c-8a32-108c86ee5079" pname="d" oct="5" dur="16" />
										<note xml:id="m-c723f8b5-bf8a-4a10-8556-4483aa6befdf" pname="c" oct="5" dur="16" />
									</beam>
								</layer>
							</staff>
						</measure>
						<measure xml:id="m-fb291871-832a-41cf-85bf-81bbacb4a149" n="20">
							<staff xml:id="m-b0b5c7f6-49ba-41d1-bc8c-026203a5db84" n="1">
								<layer xml:id="m-7e2b2805-d9a2-441d-8ee7-ac57e67705c0" n="1">
									<beam xml:id="m-9a93a438-2cdf-4536-a3fd-82be660e587d">
										<note xml:id="m-db392b4d-32dc-44b0-aad1-6a5c76427f42" pname="b" oct="4" dur="16" />
										<note xml:id="m-92c37285-74c0-46ac-8363-e93e71da77c1" pname="g" oct="5" dur="16" />
										<note xml:id="m-27831ab7-d11e-43cb-90c7-d57c9b5262b2" pname="d" oct="5" dur="16" />
										<note xml:id="m-2fc7fb12-04cb-4341-af41-b9574615fb75" pname="b" oct="4" dur="32" />
										<note xml:id="m-17be720c-8cd9-42b8-83a0-3e714bb7799b" pname="a" oct="4" dur="32" />
									</beam>
									<note xml:id="m-ed04450c-f751-4354-9201-e3f92e6aabce" pname="g" oct="4" dur="4" />
									<rest xml:id="m-34d4ff10-49fb-4d9d-bdbe-e445ba2e5a4d" dur="4" />
								</layer>
							</staff>
						</measure>
					</section>
				</score>
			</mdiv>
		</body>
	</music>
</mei>
