<?xml version="1.0" encoding="UTF-8"?>
<mei xml:id="m-039c7437-b041-4a0b-8f28-14354203235c" xmlns="http://www.music-encoding.org/ns/mei" meiversion="3.0.0">
	<music xml:id="m-6d49a123-cc70-4b6a-9484-b1d00e390987">
		<body xml:id="m-fa3574ab-470a-4734-8327-9d5e734242ce">
			<mdiv xml:id="m-b52d5cdb-0de4-418d-8093-5cb2091368a0">
				<score xml:id="m-ba94c48c-ffad-4f28-8fbf-25c80e280f0a">
					<scoreDef xml:id="m-5be8c4e7-25dd-4940-adc5-dc51f8b791e4" meter.count="2" meter.unit="4" key.sig="3s">
						<staffGrp xml:id="m-d3fa3bea-d4e6-4ac6-8a5d-831e77a8517d">
							<staffDef xml:id="m-d7c50c9e-0c35-451f-af75-65d85ae95e18" n="1" lines="5" clef.shape="G" clef.line="2" />
						</staffGrp>
					</scoreDef>
					<section xml:id="m-bb13a582-278c-41bf-aa85-d9680b82448b">
						<measure xml:id="m-237eb0fa-7824-4f7f-93dd-405b654fb3e5" n="1">
							<staff xml:id="m-fc62cd17-afe6-4069-8264-1b8d9fe1f1e2" n="1">
								<layer xml:id="m-511e75a8-e050-469e-99fa-9a8e7e7f8e58" n="1">
									<note xml:id="m-a8b46ba1-2c89-4f29-89c2-c0f3f6e3281e" pname="b" oct="4" dur="4" />
									<beam xml:id="m-fa3489bd-54ee-4f94-a4a9-cdf5b517f3d2">
										<note xml:id="m-df4a3f91-1722-406a-adaf-f580207eb964" pname="b" oct="4" dur="8" />
										<note xml:id="m-f674a2b9-3d6f-4220-a631-92761548b3c3" pname="b" oct="4" dur="8" />
									</beam>
								</layer>
							</staff>
						</measure>
						<measure xml:id="m-7a519378-64c6-402c-bb6e-d1c19e383f41" n="2">
							<staff xml:id="m-a73882e3-e77b-42d4-a1d1-40c59f612ca8" n="1">
								<layer xml:id="m-f0d72fd4-cdd3-4606-9a89-7097c38ba8d4" n="1">
									<note xml:id="m-6289b007-09d5-4365-8146-83dabe7280e6" pname="c" oct="5" dur="4" />
									<beam xml:id="m-92e1174b-53e2-477a-99bb-f96664281ea0">
										<note xml:id="m-7ae3fa37-f167-4657-a026-7969e5bbc7dd" pname="c" oct="5" dur="8" />
										<note xml:id="m-43fc4127-ed29-479f-98fd-5dd9ceaf5138" pname="c" oct="5" dur="8" />
									</beam>
								</layer>
							</staff>
						</measure>
						<measure xml:id="m-00a463e5-0a16-47fe-b5c2-f04b049e4b55" n="3">
							<staff xml:id="m-2dd89abf-a437-406e-9836-32102b12322d" n="1">
								<layer xml:id="m-86a4453b-f228-404a-adfb-0df8c7477fac" n="1">
									<note xml:id="m-749041de-76cc-4e2b-9a01-c6ec98a4647a" pname="d" oct="5" dur="2" />
								</layer>
							</staff>
						</measure>
						<measure xml:id="m-11201695-6afd-49b1-9c28-868493dc7c17" n="4">
							<staff xml:id="m-c3b9e106-d3e3-40ab-99b6-21337056ede9" n="1">
								<layer xml:id="m-6f116b93-de18-41ba-b956-17d5aa942f61" n="1">
									<note xml:id="m-bf2267cd-fb68-4b53-9a28-e3d5e9e9be96" pname="a" oct="4" dur="4" />
									<beam xml:id="m-e9935c69-b67e-4d2e-8ef7-59e236281f0a">
										<note xml:id="m-847055aa-75bf-43ba-94da-be55a1238201" pname="a" oct="4" dur="8" />
										<note xml:id="m-041015a1-a073-4fdb-baf6-274cb8dc43da" pname="a" oct="4" dur="8" />
									</beam>
								</layer>
							</staff>
						</measure>
						<measure xml:id="m-742fa653-78ec-4717-928b-3f9f1683c097" n="5">
							<staff xml:id="m-ac486afb-1e98-4b00-b703-73825dac8dd8" n="1">
								<layer xml:id="m-960f0d38-2550-46bc-ac85-331a19d44b6d" n="1">
									<note xml:id="m-604477d8-0d4c-483c-89c3-7ac4d4afcd1c" pname="g" oct="4" accid="n" dur="4" />
									<note xml:id="m-13e42678-f0b5-47d7-b4a4-35ca47d05e93" pname="g" oct="4" dur="4" />
								</layer>
							</staff>
						</measure>
						<measure xml:id="m-b8256111-00de-46c0-9444-a8759160284f" n="6">
							<staff xml:id="m-82251b48-e693-49b5-9b15-1bfa5c0b175d" n="1">
								<layer xml:id="m-329d730b-3339-4fa4-b996-de351d6a1085" n="1">
									<note xml:id="m-0a5a2502-6ae8-4974-b818-a37bed9c6262" pname="f" oct="4" dur="4" />
									<beam xml:id="m-06596778-bc22-4936-bea8-5d0f5c195813">
										<note xml:id="m-34f89b78-85ec-475e-8254-00314e3cb2d4" pname="f" oct="4" dur="8" />
										<note xml:id="m-b1e4b1e9-83c5-48f0-958e-ccd722d9d14f" pname="f" oct="4" dur="8" />
									</beam>
								</layer>
							</staff>
						</measure>
						<measure xml:id="m-402c6a06-d369-4b67-a0df-95e0fe530631" n="7">
							<staff xml:id="m-733cc200-2b1e-49d7-9a70-3e1cc931b567" n="1">
								<layer xml:id="m-23bf483d-69c0-40ff-a61f-af31b742bd4e" n="1">
									<note xml:id="m-b2b19a55-28bc-4f2f-a954-f0309a5918a3" pname="e" oct="4" dur="4" />
									<note xml:id="m-183b0122-5eb0-4e64-83af-0ea8b287f482" pname="e" oct="4" dur="4" />
								</layer>
							</staff>
						</measure>
						<measure xml:id="m-dd80f61f-e020-4f14-854f-2e5c48121d20" n="8">
							<staff xml:id="m-bd66944a-9315-44bf-a2fd-df6da90c1e82" n="1">
								<layer xml:id="m-76010d7c-6e74-4ba1-b8ae-71c371e5ad44" n="1">
									<rest xml:id="m-92776081-9d3c-4a15-a791-59097fbcefc3" dur="2" />
								</layer>
							</staff>
						</measure>
						<measure xml:id="m-b49c2cc8-9111-43f8-bb48-e578cc16fb59" n="9">
							<staff xml:id="m-ac419df3-9fff-4f4a-aac5-35d3220fc030" n="1">
								<layer xml:id="m-62185110-280b-4afb-8fc8-e29868e56660" n="1">
									<note xml:id="m-d63b273f-8cfc-4c99-86a4-aa0b07ffd54e" pname="c" oct="5" dur="2" />
								</layer>
							</staff>
						</measure>
						<measure xml:id="m-4f581fcf-5094-4f2c-81bb-4c2b45c28a2d" n="10">
							<staff xml:id="m-5f8159c2-6f90-4c1d-a512-39c05dcdc3e7" n="1">
								<layer xml:id="m-8b4fc97f-f8cf-436f-b7af-0985cfc4abf5" n="1">
									<note xml:id="m-644bb10a-14b5-4253-81bc-7d2c44e2668c" pname="c" oct="5" dur="4" />
									<note xml:id="m-813514ae-bb51-4c93-b2f0-5f9e47436899" pname="c" oct="5" dur="4" />
								</layer>
							</staff>
						</measure>
						<measure xml:id="m-c2a4bd53-ae9d-4f7c-be08-bca468146856" n="11">
							<staff xml:id="m-566a6b60-1e27-4786-95b8-3ccc4f8073c5" n="1">
								<layer xml:id="m-c6fb61ad-3cea-413a-bc72-fa6b98db12a9" n="1">
									<note xml:id="m-101493a2-591a-43a8-b704-442b83772db4" pname="d" oct="5" dur="2" />
								</layer>
							</staff>
						</measure>
						<measure xml:id="m-c8500617-0c4b-450b-8108-3fdf927df30f" n="12">
							<staff xml:id="m-021a975c-3f6b-43c0-976d-4b457e007bc4" n="1">
								<layer xml:id="m-2a2f65a9-9df6-4441-b55d-6650d669c7c6" n="1">
									<note xml:id="m-2a90185a-f1f1-40fd-b011-1f352c86379a" pname="d" oct="5" dur="2" />
								</layer>
							</staff>
						</measure>
						<measure xml:id="m-c331da8e-f9d9-4375-866b-ff3b6fee488e" n="13">
							<staff xml:id="m-32d1a53e-cf58-4a1f-b0ee-fbfdcec0e07e" n="1">
								<layer xml:id="m-a71de69f-6143-44fd-8975-8dc38e65085f" n="1">
									<note xml:id="m-cd580541-181c-41e6-b984-e6c0794a4c63" pname="d" oct="5" dur="2" tie="i" />
								</layer>
							</staff>
						</measure>
						<measure xml:id="m-5d4261e1-8376-4a79-912b-bde16a9c21b9" n="14">
							<staff xml:id="m-ca7a7e9a-f17a-4567-ad00-26ba010568f6" n="1">
								<layer xml:id="m-95dbc629-8ea2-4312-ab5a-0fd4e842f43f" n="1">
									<note xml:id="m-870e0b89-2820-47e9-b510-562054118f43" pname="d" oct="5" dur="4" tie="t" />
									<note xml:id="m-f4206b22-66ed-46b8-b459-d0ec3a9b596a" pname="d" oct="5" dur="4" />
								</layer>
							</staff>
						</measure>
						<measure xml:id="m-4b8c6737-08a5-4d22-be1b-61c29625212e" n="15">
							<staff xml:id="m-6f74ae21-d19e-46e6-8d90-a8c828ba4973" n="1">
								<layer xml:id="m-182e5b17-8e76-4666-817a-96669ebf8ed0" n="1">
									<note xml:id="m-2edbc27d-d041-4ade-933e-1ffd7ba08bd9" pname="d" oct="5" dur="2" />
								</layer>
							</staff>
						</measure>
						<measure xml:id="m-e25a2ffb-195a-4ded-ba67-b02047b689a3" n="16">
							<staff xml:id="m-87db2f45-4ed2-417f-b6df-62765a930c16" n="1">
								<layer xml:id="m-32bc1b8c-b537-4fad-93f4-fdb8d6764e69" n="1">
									<note xml:id="m-53435562-ec43-416a-bd91-2ca6f5562009" pname="d" oct="5" dur="2" />
								</layer>
							</staff>
						</measure>
						<measure xml:id="m-9a87f3b8-6bd0-4a58-9b1e-3542bf18f68a" n="17">
							<staff xml:id="m-126ef3f0-2863-4ccd-9c30-5340037b8381" n="1">
								<layer xml:id="m-916b8a66-1107-4e16-b758-62f4bc1cbc51" n="1">
									<note xml:id="m-5d9c7164-8e65-4201-a790-b45e73411cba" pname="d" oct="5" accid="s" dur="2" tie="i" />
								</layer>
							</staff>
						</measure>
						<measure xml:id="m-0e9f272b-c9ab-4b24-b6ac-71086d564d8e" n="18">
							<staff xml:id="m-892f2a5c-16b3-4dd8-9b0f-a012bb08dbb0" n="1">
								<layer xml:id="m-6142ec9b-1e45-49b5-ad77-80dbbd93e7db" n="1">
									<note xml:id="m-739b4b44-231d-4f0d-9024-c82d67643311" pname="d" oct="5" accid="s" dur="4" tie="t" />
									<note xml:id="m-1284b07f-674e-423d-ad94-82d7edbc9a80" pname="d" oct="5" accid="s" dur="4" />
								</layer>
							</staff>
						</measure>
						<measure xml:id="m-8569fa94-6bce-4494-bb36-7f392f992ed0" n="19">
							<staff xml:id="m-e58c26d6-4e2a-4c81-8d8f-c90e3fec9dd3" n="1">
								<layer xml:id="m-41e7284b-d973-425f-a18e-9c4bb6cd37f9" n="1">
									<note xml:id="m-6f31fba9-e253-4e30-a548-772c9ec617ab" pname="e" oct="5" dur="2" />
								</layer>
							</staff>
						</measure>
						<measure xml:id="m-6798c56f-4d5d-4e73-876d-df2421fbe483" n="20">
							<staff xml:id="m-7f13db20-925f-4414-9a2a-f27d2a4eb4c2" n="1">
								<layer xml:id="m-ffaf061e-06d4-4424-88e5-628d04f37bc0" n="1">
									<note xml:id="m-4785528c-60fa-44c4-ad5e-1caaef8db371" pname="e" oct="5" dur="4" />
									<note xml:id="m-bc01102f-c3ab-4159-b5a0-0a8a1b585ec3" pname="e" oct="5" dur="4" />
								</layer>
							</staff>
						</measure>
						<measure xml:id="m-46293f22-5af9-4a06-8a34-0dc9a22d1e3e" n="21">
							<staff xml:id="m-b17419c0-46cf-4fc0-a150-81029e7e4483" n="1">
								<layer xml:id="m-6025fdef-cb13-49d8-b8ec-aea900b0043f" n="1">
									<note xml:id="m-04d4afaa-3ffe-4c27-95af-cd9481a02d7d" pname="d" oct="5" accid="s" dur="2" tie="i" />
								</layer>
							</staff>
						</measure>
						<measure xml:id="m-129b3251-9bf7-4410-9032-d40cf091acc4" n="22">
							<staff xml:id="m-53f9a4c8-51d5-438f-aeab-9c5bf59caddd" n="1">
								<layer xml:id="m-792e7620-428f-45e4-956c-d57c9e35454e" n="1">
									<note xml:id="m-7580ef3e-d600-4223-befc-5d73ddde0799" pname="d" oct="5" accid="s" dur="4" tie="t" />
									<note xml:id="m-2cedf7be-4458-449e-9106-c58697144339" pname="d" oct="5" accid="s" dur="4" />
								</layer>
							</staff>
						</measure>
						<measure xml:id="m-c434010e-aa13-41fe-810c-136d6110b209" n="23">
							<staff xml:id="m-f20c93f5-249f-4dd6-85e6-a4ad69b9993d" n="1">
								<layer xml:id="m-d83335b8-cf41-4e4c-bac0-a5cef2817cb0" n="1">
									<note xml:id="m-7e607ded-880b-4c32-8392-0a81e6ae84b6" pname="e" oct="5" dur="2" />
								</layer>
							</staff>
						</measure>
						<measure xml:id="m-6e5889ed-d9cc-4ccd-8ed0-8591d028187e" n="24">
							<staff xml:id="m-d7a90082-a804-43c9-bf5e-0f0f4a3b1a53" n="1">
								<layer xml:id="m-6cb03ef9-8149-407d-94f8-824130baf178" n="1">
									<note xml:id="m-d0b8ed28-0a61-49c4-a1ba-1f285372bc2f" pname="e" oct="5" dur="4" />
									<beam xml:id="m-28d59ea4-681c-4ba2-a238-417ff92fdac5">
										<note xml:id="m-0e521c1e-e89e-4bee-aea7-5660c3d37066" pname="e" oct="5" dur="8" />
										<note xml:id="m-ae24cd29-b7d5-45b1-aca7-f29f5608d810" pname="e" oct="5" dur="8" />
									</beam>
								</layer>
							</staff>
						</measure>
						<measure xml:id="m-87db4b3b-fdc5-4d45-9597-3d3270f0c86f" n="25">
							<staff xml:id="m-8129155c-15d1-4091-b548-4b79b4d7137d" n="1">
								<layer xml:id="m-77b26577-2503-483f-b37c-0053d38553f1" n="1">
									<note xml:id="m-963e8d8c-6762-4186-8bfd-b63843f7e6f0" pname="e" oct="5" dots="1" dur="4" />
									<note xml:id="m-7a921f7f-473b-48d1-a60b-00d855c3688f" pname="e" oct="5" dur="8" />
								</layer>
							</staff>
						</measure>
						<measure xml:id="m-a22dc018-d0c0-47e3-a42b-553a9072795f" n="26">
							<staff xml:id="m-339d9bf8-4200-41e1-a5d2-c3c3e72f79b2" n="1">
								<layer xml:id="m-6287b044-dba2-472d-bb7c-473661adb9c2" n="1">
									<note xml:id="m-b2a811b9-1126-4a3b-ab99-e85bb214bc4f" pname="e" oct="5" dur="4" />
									<note xml:id="m-e647cbf5-03cb-44ec-adf8-09a2425b687b" pname="e" oct="5" dur="4" />
								</layer>
							</staff>
						</measure>
						<measure xml:id="m-9acea872-7dd6-445e-b07e-b74c2c3a30df" n="27">
							<staff xml:id="m-d920418d-2a66-4510-8725-872214ca2a69" n="1">
								<layer xml:id="m-76e29479-07d1-4151-ae8f-2e0e52757e76" n="1">
									<note xml:id="m-41bc35b8-16e6-462a-994c-fa47d0bdc7e4" pname="e" oct="5" dur="4" />
									<beam xml:id="m-c047d9d8-4a7e-4e7d-972d-80f07d205c2d">
										<note xml:id="m-3b46dff7-bbe4-417e-855e-48b31ad20c15" pname="e" oct="5" dur="8" />
										<note xml:id="m-e9e50ece-76b4-4e04-854f-303101b78e8a" pname="e" oct="5" dur="8" />
									</beam>
								</layer>
							</staff>
						</measure>
						<measure xml:id="m-7b4c9845-48a1-4f9f-b122-4b3dd9101e5a" n="28">
							<staff xml:id="m-e1fb3137-929a-44d8-b14b-f5565c5270d3" n="1">
								<layer xml:id="m-981528e3-2a16-45a7-bec2-d042e44a790a" n="1">
									<note xml:id="m-83cc6b8e-5711-48b8-958f-e0716c4bb249" pname="e" oct="5" dur="4" />
									<note xml:id="m-7a78d706-a2be-4f1c-be00-c85e1cebd341" pname="e" oct="5" dur="4" />
								</layer>
							</staff>
						</measure>
						<measure xml:id="m-c421d6a7-cacb-4ebc-97dd-0f281ae84723" n="29">
							<staff xml:id="m-21f8f22f-b558-49b3-a500-aff9c310dec2" n="1">
								<layer xml:id="m-62a79f0d-bd72-4086-8dd5-eb8bc3a4c3d3" n="1">
									<note xml:id="m-e051b39f-fc1f-41c4-9c6e-8abb645874df" pname="e" oct="5" dur="2" tie="i" />
								</layer>
							</staff>
						</measure>
						<measure xml:id="m-b792c409-172c-45e5-a6fa-9c9f8c9f8124" n="30">
							<staff xml:id="m-e9244880-227b-45b4-b2c2-7c03fbed032b" n="1">
								<layer xml:id="m-5ddabe15-0ccd-4b3f-9d25-570cd3897bd0" n="1">
									<note xml:id="m-84b85093-384a-4c72-b17b-e783ea3824bf" pname="e" oct="5" dur="2" tie="t" />
								</layer>
							</staff>
						</measure>
						<measure xml:id="m-6378bfe7-bf9f-4af0-9b32-dfb20eefd44d" n="31">
							<staff xml:id="m-1198ca50-8d89-4b6a-9140-029c196c7212" n="1">
								<layer xml:id="m-e019a28e-748b-48aa-93fe-71e72ab036ea" n="1">
									<note xml:id="m-01a62cf3-3992-4a37-9f2a-d4806d4f7ed7" pname="e" oct="5" artic="stacc" dur="2" tie="i" />
								</layer>
							</staff>
						</measure>
						<measure xml:id="m-25f45ba6-226d-442e-bd6b-ab6cdbcffa1b" n="32">
							<staff xml:id="m-a97dc68f-67bc-4113-b28c-f5cc3ee6997a" n="1">
								<layer xml:id="m-70e26870-3c64-4f88-a8ce-4c0befa85149" n="1">
									<note xml:id="m-4f67811b-2198-4a48-b371-f2953d5f6d27" pname="e" oct="5" artic="stacc" dur="2" tie="t" />
								</layer>
							</staff>
						</measure>
						<measure xml:id="m-c8027417-92d2-4c59-aab1-60600834d861" n="33">
							<staff xml:id="m-20070088-ba27-4500-bd08-f24bed6ac777" n="1">
								<layer xml:id="m-85ba6d84-733f-493d-a016-5de2d5627a89" n="1">
									<note xml:id="m-e598cf10-515f-4285-8c6f-e188ccd42a27" pname="c" oct="5" dur="2" />
								</layer>
							</staff>
						</measure>
						<measure xml:id="m-31b0b69c-28e4-4149-a030-f7f0c58165ed" n="34">
							<staff xml:id="m-fed0cf30-4035-4c10-90ed-352d55b4b118" n="1">
								<layer xml:id="m-09cb7582-8e46-4aee-a4f6-fc61dc5774f6" n="1">
									<note xml:id="m-8c2d2247-fbd0-4a00-866c-7e7103d01a21" pname="b" oct="4" dur="4" />
									<note xml:id="m-91357949-f4c8-4f04-903f-647ff1cb6f21" pname="a" oct="4" dur="4" />
								</layer>
							</staff>
						</measure>
						<measure xml:id="m-b1e98c77-0ba2-43b7-bc93-c30f4d28c2cc" n="35">
							<staff xml:id="m-649efd2a-8eb1-4238-9df9-a83b728de8ff" n="1">
								<layer xml:id="m-09e1cc30-a305-4d3c-9bcd-6d4d3a89fbd2" n="1">
									<note xml:id="m-14412674-70db-4192-b62b-68b086444966" pname="a" oct="4" grace="unacc" dur="8" stem.mod="1slash" />
									<note xml:id="m-d9b9ccbe-9585-4603-b607-764b88e2dc62" pname="g" oct="4" dur="4" />
									<note xml:id="m-4f11c572-1c1f-44bf-89d5-a7426646dccc" pname="g" oct="4" dur="4" />
								</layer>
							</staff>
						</measure>
						<measure xml:id="m-dc19b270-9f7f-4ddf-b2f3-e1205b2061b6" n="36">
							<staff xml:id="m-2f93db5d-32f6-4a92-8134-c5f2ab737c62" n="1">
								<layer xml:id="m-7d46876d-4998-4acc-aa28-f3711aac9b15" n="1">
									<rest xml:id="m-935d0898-4f76-4da3-b187-23bf7de53d75" dur="2" />
								</layer>
							</staff>
						</measure>
						<measure xml:id="m-8faa0179-1a58-4880-849b-226d8ccee72b" n="37">
							<staff xml:id="m-d9291d71-e09b-4312-88a7-69bb42c010c4" n="1">
								<layer xml:id="m-8c5c3c07-d4cb-4232-843b-e89035277b10" n="1">
									<note xml:id="m-a766d301-aa95-4569-97b8-b408d07f3cdf" pname="c" oct="5" dur="2" />
								</layer>
							</staff>
						</measure>
						<measure xml:id="m-af9d97b5-c3b3-4bf5-80ab-04e4f42ab5b6" n="38">
							<staff xml:id="m-ee4b55cc-190a-4e9d-ad2a-6e4489caa43a" n="1">
								<layer xml:id="m-fd1f3378-ac43-4639-89a8-80912f28af64" n="1">
									<note xml:id="m-5d67e611-283a-4211-a065-aa89bf99ffbc" pname="b" oct="4" dur="4" />
									<note xml:id="m-fdf2fb12-4b6f-4bba-9e9a-44fcf09d138d" pname="a" oct="4" dur="4" />
								</layer>
							</staff>
						</measure>
						<measure xml:id="m-a35a1dab-215d-4c42-91cb-cce1c78e3627" n="39">
							<staff xml:id="m-0f75e6f0-12fa-48e3-a003-f5da48aced8f" n="1">
								<layer xml:id="m-0a27f931-0e50-42d5-92d6-ae9c06079ca1" n="1">
									<note xml:id="m-b7216ff1-76cc-4152-9fb2-c74981881c61" pname="a" oct="4" grace="unacc" dur="8" stem.mod="1slash" />
									<note xml:id="m-01b18463-5af9-40eb-9748-3fdc44aaf464" pname="g" oct="4" dur="4" />
									<note xml:id="m-e83f75f7-5a74-4ab5-94fe-b88b4eeaf3e2" pname="g" oct="4" dur="4" />
								</layer>
							</staff>
						</measure>
						<measure xml:id="m-bfece889-c3e9-4af1-b4c8-522b91d099cc" n="40">
							<staff xml:id="m-0c38f247-bac6-4757-9eab-2cb42b22ac33" n="1">
								<layer xml:id="m-1f9d58ea-bf2d-4e17-8d7a-b2fa00a843a6" n="1">
									<rest xml:id="m-6541ec03-61dd-4336-8599-95976f9ed6cd" dur="2" />
								</layer>
							</staff>
						</measure>
						<measure xml:id="m-757b1fbd-7538-4d9e-b509-e36d4564f963" n="41">
							<staff xml:id="m-b7a72562-85ed-4415-a4c0-92d48804f599" n="1">
								<layer xml:id="m-36d88230-baea-428c-8918-93f7d29ee2d7" n="1">
									<note xml:id="m-db170b70-ab24-4f18-9deb-5b2f23b64dd6" pname="c" oct="5" dots="1" dur="4" />
									<note xml:id="m-d7a68ee3-6d63-4dfe-b594-a5ba285668fc" pname="c" oct="5" dur="8" />
								</layer>
							</staff>
						</measure>
						<measure xml:id="m-5a6e5360-12c6-45bb-a11a-4f003537a5c8" n="42">
							<staff xml:id="m-bebc09bc-dd6d-41a2-8546-0b000ecb88b7" n="1">
								<layer xml:id="m-e63cbc9c-de11-4d47-8b69-e9c84f9501c9" n="1">
									<note xml:id="m-9f357825-1d9f-4b20-a9a2-7053bd3c42a4" pname="c" oct="5" dur="4" />
									<note xml:id="m-faf56105-440a-419e-b63b-775a9521302d" pname="c" oct="5" dur="4" />
								</layer>
							</staff>
						</measure>
						<measure xml:id="m-a6833d3b-360c-4120-aea4-b02c6e8da8bc" n="43">
							<staff xml:id="m-958d74dc-b4a4-4e7b-9ed5-4157011817c3" n="1">
								<layer xml:id="m-b922dd9d-8e92-4997-8262-0e793fa85627" n="1">
									<note xml:id="m-ceabfbd6-b775-4646-ad99-4f6416951b15" pname="d" oct="5" dur="2" />
								</layer>
							</staff>
						</measure>
						<measure xml:id="m-c7ef09e4-b60e-4387-95d4-25c485fb2a4d" n="44">
							<staff xml:id="m-502ae944-b5b7-4bb6-873f-5feb85176de8" n="1">
								<layer xml:id="m-476d0142-cf26-467c-8aa7-ef284dc162e9" n="1">
									<note xml:id="m-60218e28-7ccd-41f8-bbe6-4501f5158d27" pname="c" oct="5" dur="2" />
								</layer>
							</staff>
						</measure>
						<measure xml:id="m-a418c83b-7fa9-47cb-a793-6612bd6ed3d1" n="45">
							<staff xml:id="m-cec98ee1-7d7a-48a4-9b81-a1c995eafbb4" n="1">
								<layer xml:id="m-8f2e4144-d26e-4a04-b130-87d056d04d05" n="1">
									<note xml:id="m-c975bafe-fa37-46d6-b387-5de1c7d195ed" pname="b" oct="4" dur="2" />
								</layer>
							</staff>
						</measure>
					</section>
				</score>
			</mdiv>
		</body>
	</music>
</mei>
