<?xml version="1.0" encoding="UTF-8" standalone="no"?>
<svg width="2100px" height="2970px" version="1.1" xmlns="http://www.w3.org/2000/svg" xmlns:xlink="http://www.w3.org/1999/xlink" xmlns:mei="http://www.music-encoding.org/ns/mei" overflow="visible">
   <desc>Engraved by Verovio 3.12.1-[undefined]</desc>
   <defs>
      <symbol id="E050-rreic5" viewBox="0 0 1000 1000" overflow="inherit">
         <path transform="scale(1,-1)" d="M441 -245c-23 -4 -48 -6 -76 -6c-59 0 -102 7 -130 20c-88 42 -150 93 -187 154c-26 44 -43 103 -48 176c0 6 -1 13 -1 19c0 54 15 111 45 170c29 57 65 106 110 148s96 85 153 127c-3 16 -8 46 -13 92c-4 43 -5 73 -5 89c0 117 16 172 69 257c34 54 64 82 89 82 c21 0 43 -30 69 -92s39 -115 41 -159v-15c0 -109 -21 -162 -67 -241c-13 -20 -63 -90 -98 -118c-13 -9 -25 -19 -37 -29l31 -181c8 1 18 2 28 2c58 0 102 -12 133 -35c59 -43 92 -104 98 -184c1 -7 1 -15 1 -22c0 -123 -87 -209 -181 -248c8 -57 17 -110 25 -162 c5 -31 6 -58 6 -80c0 -30 -5 -53 -14 -70c-35 -64 -88 -99 -158 -103c-5 0 -11 -1 -16 -1c-37 0 -72 10 -108 27c-50 24 -77 59 -80 105v11c0 29 7 55 20 76c18 28 45 42 79 44h6c49 0 93 -42 97 -87v-9c0 -51 -34 -86 -105 -106c17 -24 51 -36 102 -36c62 0 116 43 140 85 c9 16 13 41 13 74c0 20 -1 42 -5 67c-8 53 -18 106 -26 159zM461 939c-95 0 -135 -175 -135 -286c0 -24 2 -48 5 -71c50 39 92 82 127 128c40 53 60 100 60 140v8c-4 53 -22 81 -55 81h-2zM406 119l54 -326c73 25 110 78 110 161c0 7 0 15 -1 23c-7 95 -57 142 -151 142h-12 zM382 117c-72 -2 -128 -47 -128 -120v-7c2 -46 43 -99 75 -115c-3 -2 -7 -5 -10 -10c-70 33 -116 88 -123 172v11c0 68 44 126 88 159c23 17 49 29 78 36l-29 170c-21 -13 -52 -37 -92 -73c-50 -44 -86 -84 -109 -119c-45 -69 -67 -130 -67 -182v-13c5 -68 35 -127 93 -176 s125 -73 203 -73c25 0 50 3 75 9c-19 111 -36 221 -54 331z" />
      </symbol>
      <symbol id="E082-rreic5" viewBox="0 0 1000 1000" overflow="inherit">
         <path transform="scale(1,-1)" d="M124 -185c-18 0 -55 -14 -65 -65h-36l-3 30c0 25 6 45 18 63c11 19 22 30 39 43l121 82l37 29c15 11 27 29 38 54c12 24 18 47 18 70c0 40 -19 88 -94 88c-25 0 -32 0 -50 -8c-14 -5 -23 -12 -26 -22c3 -9 7 -15 10 -18l24 -17c12 -7 17 -11 27 -21c5 -7 7 -16 7 -27 c0 -12 0 -57 -79 -74c-30 0 -76 26 -76 94c0 66 81 135 197 135c72 0 181 -32 181 -150c0 -53 -32 -95 -113 -133l-91 -41c-26 -11 -45 -23 -57 -37l49 7c84 0 115 -41 148 -41c20 0 33 20 39 61h35c0 -152 -68 -168 -114 -168c-17 0 -65 0 -79 7h10l-28 17 c-49 37 -69 40 -87 42z" />
      </symbol>
      <symbol id="E084-rreic5" viewBox="0 0 1000 1000" overflow="inherit">
         <path transform="scale(1,-1)" d="M20 -78c84 97 114 180 134 329h170c-13 -32 -82 -132 -99 -151l-84 -97c-33 -36 -59 -63 -80 -81h162v102l127 123v-225h57v-39h-57v-34c0 -43 19 -65 57 -65v-34h-244v36c48 0 60 26 60 70v27h-203v39z" />
      </symbol>
      <symbol id="E0A3-rreic5" viewBox="0 0 1000 1000" overflow="inherit">
         <path transform="scale(1,-1)" d="M278 64c0 22 -17 39 -43 39c-12 0 -26 -3 -41 -10c-85 -43 -165 -94 -165 -156c5 -25 15 -32 49 -32c67 11 200 95 200 159zM0 -36c0 68 73 174 200 174c66 0 114 -39 114 -97c0 -84 -106 -173 -218 -173c-64 0 -96 32 -96 96z" />
      </symbol>
      <symbol id="E0A4-rreic5" viewBox="0 0 1000 1000" overflow="inherit">
         <path transform="scale(1,-1)" d="M0 -39c0 68 73 172 200 172c66 0 114 -37 114 -95c0 -84 -106 -171 -218 -171c-64 0 -96 30 -96 94z" />
      </symbol>
      <symbol id="E240-rreic5" viewBox="0 0 1000 1000" overflow="inherit">
         <path transform="scale(1,-1)" d="M179 -646c15 29 29 55 46 102c18 49 30 108 30 138c0 105 -80 173 -168 200c-18 5 -47 9 -87 16v190h22c8 0 33 -61 71 -95c4 -3 -2 3 61 -56c62 -58 122 -137 122 -241c0 -38 -13 -106 -35 -163c-20 -51 -43 -99 -66 -132c-6 -5 -10 -7 -13 -7s-5 2 -5 5l4 10 c1 3 14 25 18 33z" />
      </symbol>
      <symbol id="E241-rreic5" viewBox="0 0 1000 1000" overflow="inherit">
         <path transform="scale(1,-1)" d="M179 646c-4 8 -17 30 -18 33l-4 10c0 3 2 5 5 5s7 -2 13 -7c23 -33 46 -81 66 -132c22 -57 35 -125 35 -163c0 -104 -60 -183 -122 -241c-63 -59 -57 -53 -61 -56c-38 -34 -63 -95 -71 -95h-22v190c40 7 69 11 87 16c88 27 168 95 168 200c0 30 -12 89 -30 138 c-17 47 -31 73 -46 102z" />
      </symbol>
      <symbol id="E261-rreic5" viewBox="0 0 1000 1000" overflow="inherit">
         <path transform="scale(1,-1)" d="M0 -188v539h18v-191l139 22v-533h-17v186zM18 -100l122 17v176l-122 -19v-174z" />
      </symbol>
      <symbol id="E262-rreic5" viewBox="0 0 1000 1000" overflow="inherit">
         <path transform="scale(1,-1)" d="M136 186v169h17v-164l44 14v-91l-44 -14v-165l44 12v-91l-44 -13v-155h-17v150l-76 -22v-155h-17v149l-43 -13v90l43 14v167l-43 -14v92l43 13v169h17v-163zM60 73v-167l76 22v168z" />
      </symbol>
      <symbol id="E4A2-rreic5" viewBox="0 0 1000 1000" overflow="inherit">
         <path transform="scale(1,-1)" d="M0 48c0 26 22 48 48 48s48 -22 48 -48s-22 -48 -48 -48s-48 22 -48 48z" />
      </symbol>
      <symbol id="E4E4-rreic5" viewBox="0 0 1000 1000" overflow="inherit">
         <path transform="scale(1,-1)" d="M0 10v105c0 9 1 10 10 10h280c9 0 10 -1 10 -10v-105c0 -9 -1 -10 -10 -10h-280c-9 0 -10 1 -10 10z" />
      </symbol>
   </defs>
   <style type="text/css">g.page-margin{font-family:Times;} g.ending, g.fing, g.reh, g.tempo{font-weight:bold;} g.dir, g.dynam, g.mNum{font-style:italic;} g.label{font-weight:normal;}</style>
   <svg class="definition-scale" color="black" viewBox="0 0 21000 29700">
      <g class="page-margin" transform="translate(500, 500)">
         <g id="m-b52d5cdb-0de4-418d-8093-5cb2091368a0" class="mdiv pageMilestone" />
         <g id="m-ba94c48c-ffad-4f28-8fbf-25c80e280f0a" class="score pageMilestone" />
         <g id="soedxn9" class="system">
            <g id="m-bb13a582-278c-41bf-aa85-d9680b82448b" class="section systemMilestone" />
            <g id="m-237eb0fa-7824-4f7f-93dd-405b654fb3e5" class="measure">
               <g id="m-fc62cd17-afe6-4069-8264-1b8d9fe1f1e2" class="staff">
                  <path d="M0 540 L3691 540" stroke="currentColor" stroke-width="13" />
                  <path d="M0 720 L3691 720" stroke="currentColor" stroke-width="13" />
                  <path d="M0 900 L3691 900" stroke="currentColor" stroke-width="13" />
                  <path d="M0 1080 L3691 1080" stroke="currentColor" stroke-width="13" />
                  <path d="M0 1260 L3691 1260" stroke="currentColor" stroke-width="13" />
                  <g id="c8o9ui3" class="clef">
                     <use xlink:href="#E050-rreic5" x="90" y="1080" height="720px" width="720px" />
                  </g>
                  <g id="k1quz7l7" class="keySig">
                     <g id="k11p0zbn" class="keyAccid">
                        <use xlink:href="#E262-rreic5" x="735" y="540" height="720px" width="720px" />
                     </g>
                     <g id="k1xuqooq" class="keyAccid">
                        <use xlink:href="#E262-rreic5" x="913" y="810" height="720px" width="720px" />
                     </g>
                     <g id="kokg6mu" class="keyAccid">
                        <use xlink:href="#E262-rreic5" x="1091" y="450" height="720px" width="720px" />
                     </g>
                  </g>
                  <g id="mku4uxe" class="meterSig">
                     <use xlink:href="#E082-rreic5" x="1398" y="720" height="720px" width="720px" />
                     <use xlink:href="#E084-rreic5" x="1403" y="1080" height="720px" width="720px" />
                  </g>
                  <g id="m-511e75a8-e050-469e-99fa-9a8e7e7f8e58" class="layer">
                     <g id="m-a8b46ba1-2c89-4f29-89c2-c0f3f6e3281e" class="note">
                        <g class="notehead">
                           <use xlink:href="#E0A4-rreic5" x="1982" y="900" height="720px" width="720px" />
                        </g>
                        <g id="s1oucbgx" class="stem">
                           <rect x="1982" y="928" height="572" width="18" />
                        </g>
                     </g>
                     <g id="m-fa3489bd-54ee-4f94-a4a9-cdf5b517f3d2" class="beam">
                        <polygon points="2717,1485 3216,1485 3216,1395 2717,1395" />
                        <g id="m-df4a3f91-1722-406a-adaf-f580207eb964" class="note">
                           <g class="notehead">
                              <use xlink:href="#E0A4-rreic5" x="2717" y="900" height="720px" width="720px" />
                           </g>
                           <g id="s1lvvi5b" class="stem">
                              <rect x="2717" y="928" height="539" width="18" />
                           </g>
                        </g>
                        <g id="m-f674a2b9-3d6f-4220-a631-92761548b3c3" class="note">
                           <g class="notehead">
                              <use xlink:href="#E0A4-rreic5" x="3198" y="900" height="720px" width="720px" />
                           </g>
                           <g id="suvxynh" class="stem">
                              <rect x="3198" y="928" height="539" width="18" />
                           </g>
                        </g>
                     </g>
                  </g>
               </g>
               <g id="be2401o" class="barLine">
                  <path d="M3678 540 L3678 1260" stroke="currentColor" stroke-width="27" />
               </g>
            </g>
            <g id="m-7a519378-64c6-402c-bb6e-d1c19e383f41" class="measure">
               <g id="m-a73882e3-e77b-42d4-a1d1-40c59f612ca8" class="staff">
                  <path d="M3691 540 L5591 540" stroke="currentColor" stroke-width="13" />
                  <path d="M3691 720 L5591 720" stroke="currentColor" stroke-width="13" />
                  <path d="M3691 900 L5591 900" stroke="currentColor" stroke-width="13" />
                  <path d="M3691 1080 L5591 1080" stroke="currentColor" stroke-width="13" />
                  <path d="M3691 1260 L5591 1260" stroke="currentColor" stroke-width="13" />
                  <g id="m-f0d72fd4-cdd3-4606-9a89-7097c38ba8d4" class="layer">
                     <g id="m-6289b007-09d5-4365-8146-83dabe7280e6" class="note">
                        <g class="notehead">
                           <use xlink:href="#E0A4-rreic5" x="3882" y="810" height="720px" width="720px" />
                        </g>
                        <g id="sha709s" class="stem">
                           <rect x="3882" y="838" height="602" width="18" />
                        </g>
                     </g>
                     <g id="m-92e1174b-53e2-477a-99bb-f96664281ea0" class="beam">
                        <polygon points="4617,1440 5116,1440 5116,1350 4617,1350" />
                        <g id="m-7ae3fa37-f167-4657-a026-7969e5bbc7dd" class="note">
                           <g class="notehead">
                              <use xlink:href="#E0A4-rreic5" x="4617" y="810" height="720px" width="720px" />
                           </g>
                           <g id="s16qoy94" class="stem">
                              <rect x="4617" y="838" height="584" width="18" />
                           </g>
                        </g>
                        <g id="m-43fc4127-ed29-479f-98fd-5dd9ceaf5138" class="note">
                           <g class="notehead">
                              <use xlink:href="#E0A4-rreic5" x="5098" y="810" height="720px" width="720px" />
                           </g>
                           <g id="s1y8j8bq" class="stem">
                              <rect x="5098" y="838" height="584" width="18" />
                           </g>
                        </g>
                     </g>
                  </g>
               </g>
               <g id="bqkx9vq" class="barLine">
                  <path d="M5578 540 L5578 1260" stroke="currentColor" stroke-width="27" />
               </g>
            </g>
            <g id="m-00a463e5-0a16-47fe-b5c2-f04b049e4b55" class="measure">
               <g id="m-2dd89abf-a437-406e-9836-32102b12322d" class="staff">
                  <path d="M5591 540 L6914 540" stroke="currentColor" stroke-width="13" />
                  <path d="M5591 720 L6914 720" stroke="currentColor" stroke-width="13" />
                  <path d="M5591 900 L6914 900" stroke="currentColor" stroke-width="13" />
                  <path d="M5591 1080 L6914 1080" stroke="currentColor" stroke-width="13" />
                  <path d="M5591 1260 L6914 1260" stroke="currentColor" stroke-width="13" />
                  <g id="m-86a4453b-f228-404a-adfb-0df8c7477fac" class="layer">
                     <g id="m-749041de-76cc-4e2b-9a01-c6ec98a4647a" class="note">
                        <g class="notehead">
                           <use xlink:href="#E0A3-rreic5" x="5782" y="720" height="720px" width="720px" />
                        </g>
                        <g id="s1yopvfl" class="stem">
                           <rect x="5782" y="745" height="605" width="18" />
                        </g>
                     </g>
                  </g>
               </g>
               <g id="bet7mqe" class="barLine">
                  <path d="M6901 540 L6901 1260" stroke="currentColor" stroke-width="27" />
               </g>
            </g>
            <g id="m-11201695-6afd-49b1-9c28-868493dc7c17" class="measure">
               <g id="m-c3b9e106-d3e3-40ab-99b6-21337056ede9" class="staff">
                  <path d="M6914 540 L8814 540" stroke="currentColor" stroke-width="13" />
                  <path d="M6914 720 L8814 720" stroke="currentColor" stroke-width="13" />
                  <path d="M6914 900 L8814 900" stroke="currentColor" stroke-width="13" />
                  <path d="M6914 1080 L8814 1080" stroke="currentColor" stroke-width="13" />
                  <path d="M6914 1260 L8814 1260" stroke="currentColor" stroke-width="13" />
                  <g id="m-6f116b93-de18-41ba-b956-17d5aa942f61" class="layer">
                     <g id="m-bf2267cd-fb68-4b53-9a28-e3d5e9e9be96" class="note">
                        <g class="notehead">
                           <use xlink:href="#E0A4-rreic5" x="7105" y="990" height="720px" width="720px" />
                        </g>
                        <g id="s11av96a" class="stem">
                           <rect x="7313" y="360" height="602" width="18" />
                        </g>
                     </g>
                     <g id="m-e9935c69-b67e-4d2e-8ef7-59e236281f0a" class="beam">
                        <polygon points="8048,360 8547,360 8547,450 8048,450" />
                        <g id="m-847055aa-75bf-43ba-94da-be55a1238201" class="note">
                           <g class="notehead">
                              <use xlink:href="#E0A4-rreic5" x="7840" y="990" height="720px" width="720px" />
                           </g>
                           <g id="sr9xk8t" class="stem">
                              <rect x="8048" y="378" height="584" width="18" />
                           </g>
                        </g>
                        <g id="m-041015a1-a073-4fdb-baf6-274cb8dc43da" class="note">
                           <g class="notehead">
                              <use xlink:href="#E0A4-rreic5" x="8321" y="990" height="720px" width="720px" />
                           </g>
                           <g id="s1afz95h" class="stem">
                              <rect x="8529" y="378" height="584" width="18" />
                           </g>
                        </g>
                     </g>
                  </g>
               </g>
               <g id="b1vfvu9j" class="barLine">
                  <path d="M8801 540 L8801 1260" stroke="currentColor" stroke-width="27" />
               </g>
            </g>
            <g id="m-742fa653-78ec-4717-928b-3f9f1683c097" class="measure">
               <g id="m-ac486afb-1e98-4b00-b703-73825dac8dd8" class="staff">
                  <path d="M8814 540 L10656 540" stroke="currentColor" stroke-width="13" />
                  <path d="M8814 720 L10656 720" stroke="currentColor" stroke-width="13" />
                  <path d="M8814 900 L10656 900" stroke="currentColor" stroke-width="13" />
                  <path d="M8814 1080 L10656 1080" stroke="currentColor" stroke-width="13" />
                  <path d="M8814 1260 L10656 1260" stroke="currentColor" stroke-width="13" />
                  <g id="m-960f0d38-2550-46bc-ac85-331a19d44b6d" class="layer">
                     <g id="m-604477d8-0d4c-483c-89c3-7ac4d4afcd1c" class="note">
                        <g class="notehead">
                           <use xlink:href="#E0A4-rreic5" x="9171" y="1080" height="720px" width="720px" />
                        </g>
                        <g id="szcv7zl" class="stem">
                           <rect x="9379" y="450" height="602" width="18" />
                        </g>
                        <g id="a1sxjsrp" class="accid">
                           <use xlink:href="#E261-rreic5" x="9013" y="1080" height="720px" width="720px" />
                        </g>
                     </g>
                     <g id="m-13e42678-f0b5-47d7-b4a4-35ca47d05e93" class="note">
                        <g class="notehead">
                           <use xlink:href="#E0A4-rreic5" x="9907" y="1080" height="720px" width="720px" />
                        </g>
                        <g id="s1qfp72" class="stem">
                           <rect x="10115" y="450" height="602" width="18" />
                        </g>
                     </g>
                  </g>
               </g>
               <g id="b13ftjq" class="barLine">
                  <path d="M10643 540 L10643 1260" stroke="currentColor" stroke-width="27" />
               </g>
            </g>
            <g id="m-b8256111-00de-46c0-9444-a8759160284f" class="measure">
               <g id="m-82251b48-e693-49b5-9b15-1bfa5c0b175d" class="staff">
                  <path d="M10656 540 L12556 540" stroke="currentColor" stroke-width="13" />
                  <path d="M10656 720 L12556 720" stroke="currentColor" stroke-width="13" />
                  <path d="M10656 900 L12556 900" stroke="currentColor" stroke-width="13" />
                  <path d="M10656 1080 L12556 1080" stroke="currentColor" stroke-width="13" />
                  <path d="M10656 1260 L12556 1260" stroke="currentColor" stroke-width="13" />
                  <g id="m-329d730b-3339-4fa4-b996-de351d6a1085" class="layer">
                     <g id="m-0a5a2502-6ae8-4974-b818-a37bed9c6262" class="note">
                        <g class="notehead">
                           <use xlink:href="#E0A4-rreic5" x="10847" y="1170" height="720px" width="720px" />
                        </g>
                        <g id="s19040ee" class="stem">
                           <rect x="11055" y="540" height="602" width="18" />
                        </g>
                     </g>
                     <g id="m-06596778-bc22-4936-bea8-5d0f5c195813" class="beam">
                        <polygon points="11790,540 12289,540 12289,630 11790,630" />
                        <g id="m-34f89b78-85ec-475e-8254-00314e3cb2d4" class="note">
                           <g class="notehead">
                              <use xlink:href="#E0A4-rreic5" x="11582" y="1170" height="720px" width="720px" />
                           </g>
                           <g id="sd7y658" class="stem">
                              <rect x="11790" y="558" height="584" width="18" />
                           </g>
                        </g>
                        <g id="m-b1e4b1e9-83c5-48f0-958e-ccd722d9d14f" class="note">
                           <g class="notehead">
                              <use xlink:href="#E0A4-rreic5" x="12063" y="1170" height="720px" width="720px" />
                           </g>
                           <g id="sjz24v3" class="stem">
                              <rect x="12271" y="558" height="584" width="18" />
                           </g>
                        </g>
                     </g>
                  </g>
               </g>
               <g id="b6t9u4c" class="barLine">
                  <path d="M12543 540 L12543 1260" stroke="currentColor" stroke-width="27" />
               </g>
            </g>
            <g id="m-402c6a06-d369-4b67-a0df-95e0fe530631" class="measure">
               <g id="m-733cc200-2b1e-49d7-9a70-3e1cc931b567" class="staff">
                  <path d="M12556 540 L14231 540" stroke="currentColor" stroke-width="13" />
                  <path d="M12556 720 L14231 720" stroke="currentColor" stroke-width="13" />
                  <path d="M12556 900 L14231 900" stroke="currentColor" stroke-width="13" />
                  <path d="M12556 1080 L14231 1080" stroke="currentColor" stroke-width="13" />
                  <path d="M12556 1260 L14231 1260" stroke="currentColor" stroke-width="13" />
                  <g id="m-23bf483d-69c0-40ff-a61f-af31b742bd4e" class="layer">
                     <g id="m-b2b19a55-28bc-4f2f-a954-f0309a5918a3" class="note">
                        <g class="notehead">
                           <use xlink:href="#E0A4-rreic5" x="12747" y="1260" height="720px" width="720px" />
                        </g>
                        <g id="sxxp4dv" class="stem">
                           <rect x="12955" y="630" height="602" width="18" />
                        </g>
                     </g>
                     <g id="m-183b0122-5eb0-4e64-83af-0ea8b287f482" class="note">
                        <g class="notehead">
                           <use xlink:href="#E0A4-rreic5" x="13482" y="1260" height="720px" width="720px" />
                        </g>
                        <g id="s1jp6qth" class="stem">
                           <rect x="13690" y="630" height="602" width="18" />
                        </g>
                     </g>
                  </g>
               </g>
               <g id="b1kniqb0" class="barLine">
                  <path d="M14218 540 L14218 1260" stroke="currentColor" stroke-width="27" />
               </g>
            </g>
            <g id="m-dd80f61f-e020-4f14-854f-2e5c48121d20" class="measure">
               <g id="m-bd66944a-9315-44bf-a2fd-df6da90c1e82" class="staff">
                  <path d="M14231 540 L15684 540" stroke="currentColor" stroke-width="13" />
                  <path d="M14231 720 L15684 720" stroke="currentColor" stroke-width="13" />
                  <path d="M14231 900 L15684 900" stroke="currentColor" stroke-width="13" />
                  <path d="M14231 1080 L15684 1080" stroke="currentColor" stroke-width="13" />
                  <path d="M14231 1260 L15684 1260" stroke="currentColor" stroke-width="13" />
                  <g id="m-76010d7c-6e74-4ba1-b8ae-71c371e5ad44" class="layer">
                     <g id="m-92776081-9d3c-4a15-a791-59097fbcefc3" class="rest">
                        <use xlink:href="#E4E4-rreic5" x="14439" y="900" height="720px" width="720px" />
                        <g class="ledgerLines" />
                     </g>
                  </g>
               </g>
               <g id="bbvokhf" class="barLine">
                  <path d="M15671 540 L15671 1260" stroke="currentColor" stroke-width="27" />
               </g>
            </g>
            <g id="m-b49c2cc8-9111-43f8-bb48-e578cc16fb59" class="measure">
               <g id="m-ac419df3-9fff-4f4a-aac5-35d3220fc030" class="staff">
                  <path d="M15684 540 L17007 540" stroke="currentColor" stroke-width="13" />
                  <path d="M15684 720 L17007 720" stroke="currentColor" stroke-width="13" />
                  <path d="M15684 900 L17007 900" stroke="currentColor" stroke-width="13" />
                  <path d="M15684 1080 L17007 1080" stroke="currentColor" stroke-width="13" />
                  <path d="M15684 1260 L17007 1260" stroke="currentColor" stroke-width="13" />
                  <g id="m-62185110-280b-4afb-8fc8-e29868e56660" class="layer">
                     <g id="m-d63b273f-8cfc-4c99-86a4-aa0b07ffd54e" class="note">
                        <g class="notehead">
                           <use xlink:href="#E0A3-rreic5" x="15875" y="810" height="720px" width="720px" />
                        </g>
                        <g id="s1davlin" class="stem">
                           <rect x="15875" y="835" height="605" width="18" />
                        </g>
                     </g>
                  </g>
               </g>
               <g id="b1wrbfy8" class="barLine">
                  <path d="M16994 540 L16994 1260" stroke="currentColor" stroke-width="27" />
               </g>
            </g>
            <g id="m-4f581fcf-5094-4f2c-81bb-4c2b45c28a2d" class="measure">
               <g id="m-5f8159c2-6f90-4c1d-a512-39c05dcdc3e7" class="staff">
                  <path d="M17007 540 L18682 540" stroke="currentColor" stroke-width="13" />
                  <path d="M17007 720 L18682 720" stroke="currentColor" stroke-width="13" />
                  <path d="M17007 900 L18682 900" stroke="currentColor" stroke-width="13" />
                  <path d="M17007 1080 L18682 1080" stroke="currentColor" stroke-width="13" />
                  <path d="M17007 1260 L18682 1260" stroke="currentColor" stroke-width="13" />
                  <g id="m-8b4fc97f-f8cf-436f-b7af-0985cfc4abf5" class="layer">
                     <g id="m-644bb10a-14b5-4253-81bc-7d2c44e2668c" class="note">
                        <g class="notehead">
                           <use xlink:href="#E0A4-rreic5" x="17198" y="810" height="720px" width="720px" />
                        </g>
                        <g id="suvavda" class="stem">
                           <rect x="17198" y="838" height="602" width="18" />
                        </g>
                     </g>
                     <g id="m-813514ae-bb51-4c93-b2f0-5f9e47436899" class="note">
                        <g class="notehead">
                           <use xlink:href="#E0A4-rreic5" x="17933" y="810" height="720px" width="720px" />
                        </g>
                        <g id="s1fwy5da" class="stem">
                           <rect x="17933" y="838" height="602" width="18" />
                        </g>
                     </g>
                  </g>
               </g>
               <g id="bv7gg74" class="barLine">
                  <path d="M18669 540 L18669 1260" stroke="currentColor" stroke-width="27" />
               </g>
            </g>
            <g id="m-c2a4bd53-ae9d-4f7c-be08-bca468146856" class="measure">
               <g id="m-566a6b60-1e27-4786-95b8-3ccc4f8073c5" class="staff">
                  <path d="M18682 540 L20005 540" stroke="currentColor" stroke-width="13" />
                  <path d="M18682 720 L20005 720" stroke="currentColor" stroke-width="13" />
                  <path d="M18682 900 L20005 900" stroke="currentColor" stroke-width="13" />
                  <path d="M18682 1080 L20005 1080" stroke="currentColor" stroke-width="13" />
                  <path d="M18682 1260 L20005 1260" stroke="currentColor" stroke-width="13" />
                  <g id="m-c6fb61ad-3cea-413a-bc72-fa6b98db12a9" class="layer">
                     <g id="m-101493a2-591a-43a8-b704-442b83772db4" class="note">
                        <g class="notehead">
                           <use xlink:href="#E0A3-rreic5" x="18873" y="720" height="720px" width="720px" />
                        </g>
                        <g id="s1rpz7cu" class="stem">
                           <rect x="18873" y="745" height="605" width="18" />
                        </g>
                     </g>
                  </g>
               </g>
               <g id="b2elkm6" class="barLine">
                  <path d="M19992 540 L19992 1260" stroke="currentColor" stroke-width="27" />
               </g>
            </g>
         </g>
         <g id="sy95e8x" class="system">
            <g id="m-c8500617-0c4b-450b-8108-3fdf927df30f" class="measure">
               <g id="m1leufsn" class="mNum autogenerated">
                  <text x="0" y="2592" text-anchor="middle" font-size="0px">
                     <tspan id="t16lj9l8" class="text">
                        <tspan font-size="324px" class="text">12</tspan>
                     </tspan>
                  </text>
               </g>
               <g id="m-021a975c-3f6b-43c0-976d-4b457e007bc4" class="staff">
                  <path d="M0 2835 L2560 2835" stroke="currentColor" stroke-width="13" />
                  <path d="M0 3015 L2560 3015" stroke="currentColor" stroke-width="13" />
                  <path d="M0 3195 L2560 3195" stroke="currentColor" stroke-width="13" />
                  <path d="M0 3375 L2560 3375" stroke="currentColor" stroke-width="13" />
                  <path d="M0 3555 L2560 3555" stroke="currentColor" stroke-width="13" />
                  <g id="c167s3wu" class="clef">
                     <use xlink:href="#E050-rreic5" x="90" y="3375" height="720px" width="720px" />
                  </g>
                  <g id="k14ke67t" class="keySig">
                     <g id="k1wqdwhe" class="keyAccid">
                        <use xlink:href="#E262-rreic5" x="735" y="2835" height="720px" width="720px" />
                     </g>
                     <g id="kdnfchc" class="keyAccid">
                        <use xlink:href="#E262-rreic5" x="913" y="3105" height="720px" width="720px" />
                     </g>
                     <g id="k1f9jnb1" class="keyAccid">
                        <use xlink:href="#E262-rreic5" x="1091" y="2745" height="720px" width="720px" />
                     </g>
                  </g>
                  <g id="m-2a2f65a9-9df6-4441-b55d-6650d669c7c6" class="layer">
                     <g id="m-2a90185a-f1f1-40fd-b011-1f352c86379a" class="note">
                        <g class="notehead">
                           <use xlink:href="#E0A3-rreic5" x="1500" y="3015" height="720px" width="720px" />
                        </g>
                        <g id="s1ghzprd" class="stem">
                           <rect x="1500" y="3040" height="605" width="18" />
                        </g>
                     </g>
                  </g>
               </g>
               <g id="b15ks2ma" class="barLine">
                  <path d="M2547 2835 L2547 3555" stroke="currentColor" stroke-width="27" />
               </g>
            </g>
            <g id="m-c331da8e-f9d9-4375-866b-ff3b6fee488e" class="measure">
               <g id="m-32d1a53e-cf58-4a1f-b0ee-fbfdcec0e07e" class="staff">
                  <path d="M2560 2835 L3798 2835" stroke="currentColor" stroke-width="13" />
                  <path d="M2560 3015 L3798 3015" stroke="currentColor" stroke-width="13" />
                  <path d="M2560 3195 L3798 3195" stroke="currentColor" stroke-width="13" />
                  <path d="M2560 3375 L3798 3375" stroke="currentColor" stroke-width="13" />
                  <path d="M2560 3555 L3798 3555" stroke="currentColor" stroke-width="13" />
                  <g id="m-a71de69f-6143-44fd-8975-8dc38e65085f" class="layer">
                     <g id="m-cd580541-181c-41e6-b984-e6c0794a4c63" class="note">
                        <g class="notehead">
                           <use xlink:href="#E0A3-rreic5" x="2738" y="3015" height="720px" width="720px" />
                        </g>
                        <g id="si6rm8x" class="stem">
                           <rect x="2738" y="3040" height="605" width="18" />
                        </g>
                     </g>
                  </g>
               </g>
               <g id="b1cw237w" class="barLine">
                  <path d="M3785 2835 L3785 3555" stroke="currentColor" stroke-width="27" />
               </g>
            </g>
            <g id="m-5d4261e1-8376-4a79-912b-bde16a9c21b9" class="measure">
               <g id="m-ca7a7e9a-f17a-4567-ad00-26ba010568f6" class="staff">
                  <path d="M3798 2835 L5366 2835" stroke="currentColor" stroke-width="13" />
                  <path d="M3798 3015 L5366 3015" stroke="currentColor" stroke-width="13" />
                  <path d="M3798 3195 L5366 3195" stroke="currentColor" stroke-width="13" />
                  <path d="M3798 3375 L5366 3375" stroke="currentColor" stroke-width="13" />
                  <path d="M3798 3555 L5366 3555" stroke="currentColor" stroke-width="13" />
                  <g id="m-95dbc629-8ea2-4312-ab5a-0fd4e842f43f" class="layer">
                     <g id="m-870e0b89-2820-47e9-b510-562054118f43" class="note">
                        <g class="notehead">
                           <use xlink:href="#E0A4-rreic5" x="3976" y="3015" height="720px" width="720px" />
                        </g>
                        <g id="s12dvxsi" class="stem">
                           <rect x="3976" y="3043" height="602" width="18" />
                        </g>
                     </g>
                     <g id="m-f4206b22-66ed-46b8-b459-d0ec3a9b596a" class="note">
                        <g class="notehead">
                           <use xlink:href="#E0A4-rreic5" x="4664" y="3015" height="720px" width="720px" />
                        </g>
                        <g id="suxrpwv" class="stem">
                           <rect x="4664" y="3043" height="602" width="18" />
                        </g>
                     </g>
                  </g>
               </g>
               <g id="t1tjxzwp" class="tie">
                  <path d="M3009,2970 C3232,2817 3705,2817 3931,2970 C3692,2865 3245,2865 3009,2970" stroke="currentColor" stroke-linecap="round" stroke-linejoin="round" stroke-width="9" />
               </g>
               <g id="bwco918" class="barLine">
                  <path d="M5353 2835 L5353 3555" stroke="currentColor" stroke-width="27" />
               </g>
            </g>
            <g id="m-4b8c6737-08a5-4d22-be1b-61c29625212e" class="measure">
               <g id="m-6f74ae21-d19e-46e6-8d90-a8c828ba4973" class="staff">
                  <path d="M5366 2835 L6604 2835" stroke="currentColor" stroke-width="13" />
                  <path d="M5366 3015 L6604 3015" stroke="currentColor" stroke-width="13" />
                  <path d="M5366 3195 L6604 3195" stroke="currentColor" stroke-width="13" />
                  <path d="M5366 3375 L6604 3375" stroke="currentColor" stroke-width="13" />
                  <path d="M5366 3555 L6604 3555" stroke="currentColor" stroke-width="13" />
                  <g id="m-182e5b17-8e76-4666-817a-96669ebf8ed0" class="layer">
                     <g id="m-2edbc27d-d041-4ade-933e-1ffd7ba08bd9" class="note">
                        <g class="notehead">
                           <use xlink:href="#E0A3-rreic5" x="5544" y="3015" height="720px" width="720px" />
                        </g>
                        <g id="s13a3kmd" class="stem">
                           <rect x="5544" y="3040" height="605" width="18" />
                        </g>
                     </g>
                  </g>
               </g>
               <g id="b3i5cew" class="barLine">
                  <path d="M6591 2835 L6591 3555" stroke="currentColor" stroke-width="27" />
               </g>
            </g>
            <g id="m-e25a2ffb-195a-4ded-ba67-b02047b689a3" class="measure">
               <g id="m-87db2f45-4ed2-417f-b6df-62765a930c16" class="staff">
                  <path d="M6604 2835 L7842 2835" stroke="currentColor" stroke-width="13" />
                  <path d="M6604 3015 L7842 3015" stroke="currentColor" stroke-width="13" />
                  <path d="M6604 3195 L7842 3195" stroke="currentColor" stroke-width="13" />
                  <path d="M6604 3375 L7842 3375" stroke="currentColor" stroke-width="13" />
                  <path d="M6604 3555 L7842 3555" stroke="currentColor" stroke-width="13" />
                  <g id="m-32bc1b8c-b537-4fad-93f4-fdb8d6764e69" class="layer">
                     <g id="m-53435562-ec43-416a-bd91-2ca6f5562009" class="note">
                        <g class="notehead">
                           <use xlink:href="#E0A3-rreic5" x="6782" y="3015" height="720px" width="720px" />
                        </g>
                        <g id="s1idgc3i" class="stem">
                           <rect x="6782" y="3040" height="605" width="18" />
                        </g>
                     </g>
                  </g>
               </g>
               <g id="bxpi4ck" class="barLine">
                  <path d="M7829 2835 L7829 3555" stroke="currentColor" stroke-width="27" />
               </g>
            </g>
            <g id="m-9a87f3b8-6bd0-4a58-9b1e-3542bf18f68a" class="measure">
               <g id="m-126ef3f0-2863-4ccd-9c30-5340037b8381" class="staff">
                  <path d="M7842 2835 L9263 2835" stroke="currentColor" stroke-width="13" />
                  <path d="M7842 3015 L9263 3015" stroke="currentColor" stroke-width="13" />
                  <path d="M7842 3195 L9263 3195" stroke="currentColor" stroke-width="13" />
                  <path d="M7842 3375 L9263 3375" stroke="currentColor" stroke-width="13" />
                  <path d="M7842 3555 L9263 3555" stroke="currentColor" stroke-width="13" />
                  <g id="m-916b8a66-1107-4e16-b758-62f4bc1cbc51" class="layer">
                     <g id="m-5d9c7164-8e65-4201-a790-b45e73411cba" class="note">
                        <g class="notehead">
                           <use xlink:href="#E0A3-rreic5" x="8203" y="3015" height="720px" width="720px" />
                        </g>
                        <g id="sgklx84" class="stem">
                           <rect x="8203" y="3040" height="605" width="18" />
                        </g>
                        <g id="a1hugepz" class="accid">
                           <use xlink:href="#E262-rreic5" x="8017" y="3015" height="720px" width="720px" />
                        </g>
                     </g>
                  </g>
               </g>
               <g id="b12tt18x" class="barLine">
                  <path d="M9250 2835 L9250 3555" stroke="currentColor" stroke-width="27" />
               </g>
            </g>
            <g id="m-0e9f272b-c9ab-4b24-b6ac-71086d564d8e" class="measure">
               <g id="m-892f2a5c-16b3-4dd8-9b0f-a012bb08dbb0" class="staff">
                  <path d="M9263 2835 L11014 2835" stroke="currentColor" stroke-width="13" />
                  <path d="M9263 3015 L11014 3015" stroke="currentColor" stroke-width="13" />
                  <path d="M9263 3195 L11014 3195" stroke="currentColor" stroke-width="13" />
                  <path d="M9263 3375 L11014 3375" stroke="currentColor" stroke-width="13" />
                  <path d="M9263 3555 L11014 3555" stroke="currentColor" stroke-width="13" />
                  <g id="m-6142ec9b-1e45-49b5-ad77-80dbbd93e7db" class="layer">
                     <g id="m-739b4b44-231d-4f0d-9024-c82d67643311" class="note">
                        <g class="notehead">
                           <use xlink:href="#E0A4-rreic5" x="9624" y="3015" height="720px" width="720px" />
                        </g>
                        <g id="s10j4s2b" class="stem">
                           <rect x="9624" y="3043" height="602" width="18" />
                        </g>
                        <g id="agc40qz" class="accid">
                           <use xlink:href="#E262-rreic5" x="9438" y="3015" height="720px" width="720px" />
                        </g>
                     </g>
                     <g id="m-1284b07f-674e-423d-ad94-82d7edbc9a80" class="note">
                        <g class="notehead">
                           <use xlink:href="#E0A4-rreic5" x="10313" y="3015" height="720px" width="720px" />
                        </g>
                        <g id="s1clrn2j" class="stem">
                           <rect x="10313" y="3043" height="602" width="18" />
                        </g>
                        <g id="a111v1s2" class="accid">
                           <use xlink:href="#E262-rreic5" x="10127" y="3015" height="720px" width="720px" />
                        </g>
                     </g>
                  </g>
               </g>
               <g id="t103yx1n" class="tie">
                  <path d="M8316,2970 C8662,2689 9388,2689 9737,2970 C9373,2738 8679,2738 8316,2970" stroke="currentColor" stroke-linecap="round" stroke-linejoin="round" stroke-width="9" />
               </g>
               <g id="b16wrs5f" class="barLine">
                  <path d="M11001 2835 L11001 3555" stroke="currentColor" stroke-width="27" />
               </g>
            </g>
            <g id="m-8569fa94-6bce-4494-bb36-7f392f992ed0" class="measure">
               <g id="m-e58c26d6-4e2a-4c81-8d8f-c90e3fec9dd3" class="staff">
                  <path d="M11014 2835 L12252 2835" stroke="currentColor" stroke-width="13" />
                  <path d="M11014 3015 L12252 3015" stroke="currentColor" stroke-width="13" />
                  <path d="M11014 3195 L12252 3195" stroke="currentColor" stroke-width="13" />
                  <path d="M11014 3375 L12252 3375" stroke="currentColor" stroke-width="13" />
                  <path d="M11014 3555 L12252 3555" stroke="currentColor" stroke-width="13" />
                  <g id="m-41e7284b-d973-425f-a18e-9c4bb6cd37f9" class="layer">
                     <g id="m-6f31fba9-e253-4e30-a548-772c9ec617ab" class="note">
                        <g class="notehead">
                           <use xlink:href="#E0A3-rreic5" x="11192" y="2925" height="720px" width="720px" />
                        </g>
                        <g id="s5futvd" class="stem">
                           <rect x="11192" y="2950" height="605" width="18" />
                        </g>
                     </g>
                  </g>
               </g>
               <g id="bbwq799" class="barLine">
                  <path d="M12239 2835 L12239 3555" stroke="currentColor" stroke-width="27" />
               </g>
            </g>
            <g id="m-6798c56f-4d5d-4e73-876d-df2421fbe483" class="measure">
               <g id="m-7f13db20-925f-4414-9a2a-f27d2a4eb4c2" class="staff">
                  <path d="M12252 2835 L13820 2835" stroke="currentColor" stroke-width="13" />
                  <path d="M12252 3015 L13820 3015" stroke="currentColor" stroke-width="13" />
                  <path d="M12252 3195 L13820 3195" stroke="currentColor" stroke-width="13" />
                  <path d="M12252 3375 L13820 3375" stroke="currentColor" stroke-width="13" />
                  <path d="M12252 3555 L13820 3555" stroke="currentColor" stroke-width="13" />
                  <g id="m-ffaf061e-06d4-4424-88e5-628d04f37bc0" class="layer">
                     <g id="m-4785528c-60fa-44c4-ad5e-1caaef8db371" class="note">
                        <g class="notehead">
                           <use xlink:href="#E0A4-rreic5" x="12430" y="2925" height="720px" width="720px" />
                        </g>
                        <g id="s100pa49" class="stem">
                           <rect x="12430" y="2953" height="602" width="18" />
                        </g>
                     </g>
                     <g id="m-bc01102f-c3ab-4159-b5a0-0a8a1b585ec3" class="note">
                        <g class="notehead">
                           <use xlink:href="#E0A4-rreic5" x="13118" y="2925" height="720px" width="720px" />
                        </g>
                        <g id="s11rid8d" class="stem">
                           <rect x="13118" y="2953" height="602" width="18" />
                        </g>
                     </g>
                  </g>
               </g>
               <g id="buv6cwc" class="barLine">
                  <path d="M13807 2835 L13807 3555" stroke="currentColor" stroke-width="27" />
               </g>
            </g>
            <g id="m-46293f22-5af9-4a06-8a34-0dc9a22d1e3e" class="measure">
               <g id="m-b17419c0-46cf-4fc0-a150-81029e7e4483" class="staff">
                  <path d="M13820 2835 L15241 2835" stroke="currentColor" stroke-width="13" />
                  <path d="M13820 3015 L15241 3015" stroke="currentColor" stroke-width="13" />
                  <path d="M13820 3195 L15241 3195" stroke="currentColor" stroke-width="13" />
                  <path d="M13820 3375 L15241 3375" stroke="currentColor" stroke-width="13" />
                  <path d="M13820 3555 L15241 3555" stroke="currentColor" stroke-width="13" />
                  <g id="m-6025fdef-cb13-49d8-b8ec-aea900b0043f" class="layer">
                     <g id="m-04d4afaa-3ffe-4c27-95af-cd9481a02d7d" class="note">
                        <g class="notehead">
                           <use xlink:href="#E0A3-rreic5" x="14181" y="3015" height="720px" width="720px" />
                        </g>
                        <g id="sxuyhc3" class="stem">
                           <rect x="14181" y="3040" height="605" width="18" />
                        </g>
                        <g id="a17kpmrk" class="accid">
                           <use xlink:href="#E262-rreic5" x="13995" y="3015" height="720px" width="720px" />
                        </g>
                     </g>
                  </g>
               </g>
               <g id="b2jjkas" class="barLine">
                  <path d="M15228 2835 L15228 3555" stroke="currentColor" stroke-width="27" />
               </g>
            </g>
            <g id="m-129b3251-9bf7-4410-9032-d40cf091acc4" class="measure">
               <g id="m-53f9a4c8-51d5-438f-aeab-9c5bf59caddd" class="staff">
                  <path d="M15241 2835 L16992 2835" stroke="currentColor" stroke-width="13" />
                  <path d="M15241 3015 L16992 3015" stroke="currentColor" stroke-width="13" />
                  <path d="M15241 3195 L16992 3195" stroke="currentColor" stroke-width="13" />
                  <path d="M15241 3375 L16992 3375" stroke="currentColor" stroke-width="13" />
                  <path d="M15241 3555 L16992 3555" stroke="currentColor" stroke-width="13" />
                  <g id="m-792e7620-428f-45e4-956c-d57c9e35454e" class="layer">
                     <g id="m-7580ef3e-d600-4223-befc-5d73ddde0799" class="note">
                        <g class="notehead">
                           <use xlink:href="#E0A4-rreic5" x="15602" y="3015" height="720px" width="720px" />
                        </g>
                        <g id="s7yqad0" class="stem">
                           <rect x="15602" y="3043" height="602" width="18" />
                        </g>
                        <g id="a7r6yem" class="accid">
                           <use xlink:href="#E262-rreic5" x="15416" y="3015" height="720px" width="720px" />
                        </g>
                     </g>
                     <g id="m-2cedf7be-4458-449e-9106-c58697144339" class="note">
                        <g class="notehead">
                           <use xlink:href="#E0A4-rreic5" x="16291" y="3015" height="720px" width="720px" />
                        </g>
                        <g id="s1uvafpg" class="stem">
                           <rect x="16291" y="3043" height="602" width="18" />
                        </g>
                        <g id="ake7clh" class="accid">
                           <use xlink:href="#E262-rreic5" x="16105" y="3015" height="720px" width="720px" />
                        </g>
                     </g>
                  </g>
               </g>
               <g id="t14f9ql8" class="tie">
                  <path d="M14294,2970 C14640,2689 15366,2689 15715,2970 C15351,2738 14657,2738 14294,2970" stroke="currentColor" stroke-linecap="round" stroke-linejoin="round" stroke-width="9" />
               </g>
               <g id="b1qdg6ok" class="barLine">
                  <path d="M16979 2835 L16979 3555" stroke="currentColor" stroke-width="27" />
               </g>
            </g>
            <g id="m-c434010e-aa13-41fe-810c-136d6110b209" class="measure">
               <g id="m-f20c93f5-249f-4dd6-85e6-a4ad69b9993d" class="staff">
                  <path d="M16992 2835 L18230 2835" stroke="currentColor" stroke-width="13" />
                  <path d="M16992 3015 L18230 3015" stroke="currentColor" stroke-width="13" />
                  <path d="M16992 3195 L18230 3195" stroke="currentColor" stroke-width="13" />
                  <path d="M16992 3375 L18230 3375" stroke="currentColor" stroke-width="13" />
                  <path d="M16992 3555 L18230 3555" stroke="currentColor" stroke-width="13" />
                  <g id="m-d83335b8-cf41-4e4c-bac0-a5cef2817cb0" class="layer">
                     <g id="m-7e607ded-880b-4c32-8392-0a81e6ae84b6" class="note">
                        <g class="notehead">
                           <use xlink:href="#E0A3-rreic5" x="17170" y="2925" height="720px" width="720px" />
                        </g>
                        <g id="s1d287qb" class="stem">
                           <rect x="17170" y="2950" height="605" width="18" />
                        </g>
                     </g>
                  </g>
               </g>
               <g id="bcnrayx" class="barLine">
                  <path d="M18217 2835 L18217 3555" stroke="currentColor" stroke-width="27" />
               </g>
            </g>
            <g id="m-6e5889ed-d9cc-4ccd-8ed0-8591d028187e" class="measure">
               <g id="m-d7a90082-a804-43c9-bf5e-0f0f4a3b1a53" class="staff">
                  <path d="M18230 2835 L20006 2835" stroke="currentColor" stroke-width="13" />
                  <path d="M18230 3015 L20006 3015" stroke="currentColor" stroke-width="13" />
                  <path d="M18230 3195 L20006 3195" stroke="currentColor" stroke-width="13" />
                  <path d="M18230 3375 L20006 3375" stroke="currentColor" stroke-width="13" />
                  <path d="M18230 3555 L20006 3555" stroke="currentColor" stroke-width="13" />
                  <g id="m-6cb03ef9-8149-407d-94f8-824130baf178" class="layer">
                     <g id="m-d0b8ed28-0a61-49c4-a1ba-1f285372bc2f" class="note">
                        <g class="notehead">
                           <use xlink:href="#E0A4-rreic5" x="18408" y="2925" height="720px" width="720px" />
                        </g>
                        <g id="s3n17sl" class="stem">
                           <rect x="18408" y="2953" height="602" width="18" />
                        </g>
                     </g>
                     <g id="m-28d59ea4-681c-4ba2-a238-417ff92fdac5" class="beam">
                        <polygon points="19096,3555 19563,3555 19563,3465 19096,3465" />
                        <g id="m-0e521c1e-e89e-4bee-aea7-5660c3d37066" class="note">
                           <g class="notehead">
                              <use xlink:href="#E0A4-rreic5" x="19096" y="2925" height="720px" width="720px" />
                           </g>
                           <g id="s13car6n" class="stem">
                              <rect x="19096" y="2953" height="584" width="18" />
                           </g>
                        </g>
                        <g id="m-ae24cd29-b7d5-45b1-aca7-f29f5608d810" class="note">
                           <g class="notehead">
                              <use xlink:href="#E0A4-rreic5" x="19545" y="2925" height="720px" width="720px" />
                           </g>
                           <g id="s1v5z7ee" class="stem">
                              <rect x="19545" y="2953" height="584" width="18" />
                           </g>
                        </g>
                     </g>
                  </g>
               </g>
               <g id="b6m9ytx" class="barLine">
                  <path d="M19993 2835 L19993 3555" stroke="currentColor" stroke-width="27" />
               </g>
            </g>
         </g>
         <g id="s1eoeeqa" class="system">
            <g id="m-87db4b3b-fdc5-4d45-9597-3d3270f0c86f" class="measure">
               <g id="me5nvho" class="mNum autogenerated">
                  <text x="0" y="4941" text-anchor="middle" font-size="0px">
                     <tspan id="tk1gs2l" class="text">
                        <tspan font-size="324px" class="text">25</tspan>
                     </tspan>
                  </text>
               </g>
               <g id="m-8129155c-15d1-4091-b548-4b79b4d7137d" class="staff">
                  <path d="M0 5184 L2845 5184" stroke="currentColor" stroke-width="13" />
                  <path d="M0 5364 L2845 5364" stroke="currentColor" stroke-width="13" />
                  <path d="M0 5544 L2845 5544" stroke="currentColor" stroke-width="13" />
                  <path d="M0 5724 L2845 5724" stroke="currentColor" stroke-width="13" />
                  <path d="M0 5904 L2845 5904" stroke="currentColor" stroke-width="13" />
                  <g id="c10poaky" class="clef">
                     <use xlink:href="#E050-rreic5" x="90" y="5724" height="720px" width="720px" />
                  </g>
                  <g id="kadidrv" class="keySig">
                     <g id="kdq94pd" class="keyAccid">
                        <use xlink:href="#E262-rreic5" x="735" y="5184" height="720px" width="720px" />
                     </g>
                     <g id="kx5ynya" class="keyAccid">
                        <use xlink:href="#E262-rreic5" x="913" y="5454" height="720px" width="720px" />
                     </g>
                     <g id="kff1soe" class="keyAccid">
                        <use xlink:href="#E262-rreic5" x="1091" y="5094" height="720px" width="720px" />
                     </g>
                  </g>
                  <g id="m-77b26577-2503-483f-b37c-0053d38553f1" class="layer">
                     <g id="m-963e8d8c-6762-4186-8bfd-b63843f7e6f0" class="note">
                        <g class="notehead">
                           <use xlink:href="#E0A4-rreic5" x="1500" y="5274" height="720px" width="720px" />
                        </g>
                        <g id="dhftohc" class="dots">
                           <ellipse cx="1816" cy="5274" rx="36" ry="36" />
                        </g>
                        <g id="sob56sp" class="stem">
                           <rect x="1500" y="5302" height="602" width="18" />
                        </g>
                     </g>
                     <g id="m-7a921f7f-473b-48d1-a60b-00d855c3688f" class="note">
                        <g class="notehead">
                           <use xlink:href="#E0A4-rreic5" x="2381" y="5274" height="720px" width="720px" />
                        </g>
                        <g id="s19tz4ix" class="stem">
                           <rect x="2381" y="5302" height="602" width="18" />
                           <g id="fb0taqy" class="flag">
                              <use xlink:href="#E241-rreic5" x="2381" y="5904" height="720px" width="720px" />
                           </g>
                        </g>
                     </g>
                  </g>
               </g>
               <g id="bbqfzq9" class="barLine">
                  <path d="M2832 5184 L2832 5904" stroke="currentColor" stroke-width="27" />
               </g>
            </g>
            <g id="m-a22dc018-d0c0-47e3-a42b-553a9072795f" class="measure">
               <g id="m-339d9bf8-4200-41e1-a5d2-c3c3e72f79b2" class="staff">
                  <path d="M2845 5184 L4417 5184" stroke="currentColor" stroke-width="13" />
                  <path d="M2845 5364 L4417 5364" stroke="currentColor" stroke-width="13" />
                  <path d="M2845 5544 L4417 5544" stroke="currentColor" stroke-width="13" />
                  <path d="M2845 5724 L4417 5724" stroke="currentColor" stroke-width="13" />
                  <path d="M2845 5904 L4417 5904" stroke="currentColor" stroke-width="13" />
                  <g id="m-6287b044-dba2-472d-bb7c-473661adb9c2" class="layer">
                     <g id="m-b2a811b9-1126-4a3b-ab99-e85bb214bc4f" class="note">
                        <g class="notehead">
                           <use xlink:href="#E0A4-rreic5" x="3023" y="5274" height="720px" width="720px" />
                        </g>
                        <g id="s1mr7q0s" class="stem">
                           <rect x="3023" y="5302" height="602" width="18" />
                        </g>
                     </g>
                     <g id="m-e647cbf5-03cb-44ec-adf8-09a2425b687b" class="note">
                        <g class="notehead">
                           <use xlink:href="#E0A4-rreic5" x="3713" y="5274" height="720px" width="720px" />
                        </g>
                        <g id="s12z3lft" class="stem">
                           <rect x="3713" y="5302" height="602" width="18" />
                        </g>
                     </g>
                  </g>
               </g>
               <g id="b10k5sg0" class="barLine">
                  <path d="M4404 5184 L4404 5904" stroke="currentColor" stroke-width="27" />
               </g>
            </g>
            <g id="m-9acea872-7dd6-445e-b07e-b74c2c3a30df" class="measure">
               <g id="m-d920418d-2a66-4510-8725-872214ca2a69" class="staff">
                  <path d="M4417 5184 L6200 5184" stroke="currentColor" stroke-width="13" />
                  <path d="M4417 5364 L6200 5364" stroke="currentColor" stroke-width="13" />
                  <path d="M4417 5544 L6200 5544" stroke="currentColor" stroke-width="13" />
                  <path d="M4417 5724 L6200 5724" stroke="currentColor" stroke-width="13" />
                  <path d="M4417 5904 L6200 5904" stroke="currentColor" stroke-width="13" />
                  <g id="m-76e29479-07d1-4151-ae8f-2e0e52757e76" class="layer">
                     <g id="m-41bc35b8-16e6-462a-994c-fa47d0bdc7e4" class="note">
                        <g class="notehead">
                           <use xlink:href="#E0A4-rreic5" x="4595" y="5274" height="720px" width="720px" />
                        </g>
                        <g id="s6mutgi" class="stem">
                           <rect x="4595" y="5302" height="602" width="18" />
                        </g>
                     </g>
                     <g id="m-c047d9d8-4a7e-4e7d-972d-80f07d205c2d" class="beam">
                        <polygon points="5285,5904 5754,5904 5754,5814 5285,5814" />
                        <g id="m-3b46dff7-bbe4-417e-855e-48b31ad20c15" class="note">
                           <g class="notehead">
                              <use xlink:href="#E0A4-rreic5" x="5285" y="5274" height="720px" width="720px" />
                           </g>
                           <g id="s1whjj23" class="stem">
                              <rect x="5285" y="5302" height="584" width="18" />
                           </g>
                        </g>
                        <g id="m-e9e50ece-76b4-4e04-854f-303101b78e8a" class="note">
                           <g class="notehead">
                              <use xlink:href="#E0A4-rreic5" x="5736" y="5274" height="720px" width="720px" />
                           </g>
                           <g id="s1ycq9e3" class="stem">
                              <rect x="5736" y="5302" height="584" width="18" />
                           </g>
                        </g>
                     </g>
                  </g>
               </g>
               <g id="b1uzd6wn" class="barLine">
                  <path d="M6187 5184 L6187 5904" stroke="currentColor" stroke-width="27" />
               </g>
            </g>
            <g id="m-7b4c9845-48a1-4f9f-b122-4b3dd9101e5a" class="measure">
               <g id="m-e1fb3137-929a-44d8-b14b-f5565c5270d3" class="staff">
                  <path d="M6200 5184 L7772 5184" stroke="currentColor" stroke-width="13" />
                  <path d="M6200 5364 L7772 5364" stroke="currentColor" stroke-width="13" />
                  <path d="M6200 5544 L7772 5544" stroke="currentColor" stroke-width="13" />
                  <path d="M6200 5724 L7772 5724" stroke="currentColor" stroke-width="13" />
                  <path d="M6200 5904 L7772 5904" stroke="currentColor" stroke-width="13" />
                  <g id="m-981528e3-2a16-45a7-bec2-d042e44a790a" class="layer">
                     <g id="m-83cc6b8e-5711-48b8-958f-e0716c4bb249" class="note">
                        <g class="notehead">
                           <use xlink:href="#E0A4-rreic5" x="6378" y="5274" height="720px" width="720px" />
                        </g>
                        <g id="so6dqop" class="stem">
                           <rect x="6378" y="5302" height="602" width="18" />
                        </g>
                     </g>
                     <g id="m-7a78d706-a2be-4f1c-be00-c85e1cebd341" class="note">
                        <g class="notehead">
                           <use xlink:href="#E0A4-rreic5" x="7068" y="5274" height="720px" width="720px" />
                        </g>
                        <g id="s13l5ksq" class="stem">
                           <rect x="7068" y="5302" height="602" width="18" />
                        </g>
                     </g>
                  </g>
               </g>
               <g id="b1kp7f" class="barLine">
                  <path d="M7759 5184 L7759 5904" stroke="currentColor" stroke-width="27" />
               </g>
            </g>
            <g id="m-c421d6a7-cacb-4ebc-97dd-0f281ae84723" class="measure">
               <g id="m-21f8f22f-b558-49b3-a500-aff9c310dec2" class="staff">
                  <path d="M7772 5184 L9015 5184" stroke="currentColor" stroke-width="13" />
                  <path d="M7772 5364 L9015 5364" stroke="currentColor" stroke-width="13" />
                  <path d="M7772 5544 L9015 5544" stroke="currentColor" stroke-width="13" />
                  <path d="M7772 5724 L9015 5724" stroke="currentColor" stroke-width="13" />
                  <path d="M7772 5904 L9015 5904" stroke="currentColor" stroke-width="13" />
                  <g id="m-62a79f0d-bd72-4086-8dd5-eb8bc3a4c3d3" class="layer">
                     <g id="m-e051b39f-fc1f-41c4-9c6e-8abb645874df" class="note">
                        <g class="notehead">
                           <use xlink:href="#E0A3-rreic5" x="7950" y="5274" height="720px" width="720px" />
                        </g>
                        <g id="s1qeuk4b" class="stem">
                           <rect x="7950" y="5299" height="605" width="18" />
                        </g>
                     </g>
                  </g>
               </g>
               <g id="b1qi04rx" class="barLine">
                  <path d="M9002 5184 L9002 5904" stroke="currentColor" stroke-width="27" />
               </g>
            </g>
            <g id="m-b792c409-172c-45e5-a6fa-9c9f8c9f8124" class="measure">
               <g id="m-e9244880-227b-45b4-b2c2-7c03fbed032b" class="staff">
                  <path d="M9015 5184 L10258 5184" stroke="currentColor" stroke-width="13" />
                  <path d="M9015 5364 L10258 5364" stroke="currentColor" stroke-width="13" />
                  <path d="M9015 5544 L10258 5544" stroke="currentColor" stroke-width="13" />
                  <path d="M9015 5724 L10258 5724" stroke="currentColor" stroke-width="13" />
                  <path d="M9015 5904 L10258 5904" stroke="currentColor" stroke-width="13" />
                  <g id="m-5ddabe15-0ccd-4b3f-9d25-570cd3897bd0" class="layer">
                     <g id="m-84b85093-384a-4c72-b17b-e783ea3824bf" class="note">
                        <g class="notehead">
                           <use xlink:href="#E0A3-rreic5" x="9193" y="5274" height="720px" width="720px" />
                        </g>
                        <g id="s3dla7z" class="stem">
                           <rect x="9193" y="5299" height="605" width="18" />
                        </g>
                     </g>
                  </g>
               </g>
               <g id="tzrr0sb" class="tie">
                  <path d="M8221,5229 C8445,5076 8920,5076 9148,5229 C8907,5124 8458,5124 8221,5229" stroke="currentColor" stroke-linecap="round" stroke-linejoin="round" stroke-width="9" />
               </g>
               <g id="b9ikeb1" class="barLine">
                  <path d="M10245 5184 L10245 5904" stroke="currentColor" stroke-width="27" />
               </g>
            </g>
            <g id="m-6378bfe7-bf9f-4af0-9b32-dfb20eefd44d" class="measure">
               <g id="m-1198ca50-8d89-4b6a-9140-029c196c7212" class="staff">
                  <path d="M10258 5184 L11501 5184" stroke="currentColor" stroke-width="13" />
                  <path d="M10258 5364 L11501 5364" stroke="currentColor" stroke-width="13" />
                  <path d="M10258 5544 L11501 5544" stroke="currentColor" stroke-width="13" />
                  <path d="M10258 5724 L11501 5724" stroke="currentColor" stroke-width="13" />
                  <path d="M10258 5904 L11501 5904" stroke="currentColor" stroke-width="13" />
                  <g id="m-e019a28e-748b-48aa-93fe-71e72ab036ea" class="layer">
                     <g id="m-01a62cf3-3992-4a37-9f2a-d4806d4f7ed7" class="note">
                        <g class="notehead">
                           <use xlink:href="#E0A3-rreic5" x="10436" y="5274" height="720px" width="720px" />
                        </g>
                        <g id="s1x1i4p5" class="stem">
                           <rect x="10436" y="5299" height="605" width="18" />
                        </g>
                        <g id="a4x65vn" class="artic">
                           <use xlink:href="#E4A2-rreic5" x="10515" y="5128" height="720px" width="720px" />
                        </g>
                     </g>
                  </g>
               </g>
               <g id="bnebud7" class="barLine">
                  <path d="M11488 5184 L11488 5904" stroke="currentColor" stroke-width="27" />
               </g>
            </g>
            <g id="m-25f45ba6-226d-442e-bd6b-ab6cdbcffa1b" class="measure">
               <g id="m-a97dc68f-67bc-4113-b28c-f5cc3ee6997a" class="staff">
                  <path d="M11501 5184 L12744 5184" stroke="currentColor" stroke-width="13" />
                  <path d="M11501 5364 L12744 5364" stroke="currentColor" stroke-width="13" />
                  <path d="M11501 5544 L12744 5544" stroke="currentColor" stroke-width="13" />
                  <path d="M11501 5724 L12744 5724" stroke="currentColor" stroke-width="13" />
                  <path d="M11501 5904 L12744 5904" stroke="currentColor" stroke-width="13" />
                  <g id="m-70e26870-3c64-4f88-a8ce-4c0befa85149" class="layer">
                     <g id="m-4f67811b-2198-4a48-b371-f2953d5f6d27" class="note">
                        <g class="notehead">
                           <use xlink:href="#E0A3-rreic5" x="11679" y="5274" height="720px" width="720px" />
                        </g>
                        <g id="s1f5yp72" class="stem">
                           <rect x="11679" y="5299" height="605" width="18" />
                        </g>
                        <g id="agsmqeo" class="artic">
                           <use xlink:href="#E4A2-rreic5" x="11758" y="5128" height="720px" width="720px" />
                        </g>
                     </g>
                  </g>
               </g>
               <g id="t1ph34l9" class="tie">
                  <path d="M10707,5229 C10931,5076 11406,5076 11634,5229 C11393,5124 10944,5124 10707,5229" stroke="currentColor" stroke-linecap="round" stroke-linejoin="round" stroke-width="9" />
               </g>
               <g id="b16lmu4p" class="barLine">
                  <path d="M12731 5184 L12731 5904" stroke="currentColor" stroke-width="27" />
               </g>
            </g>
            <g id="m-c8027417-92d2-4c59-aab1-60600834d861" class="measure">
               <g id="m-20070088-ba27-4500-bd08-f24bed6ac777" class="staff">
                  <path d="M12744 5184 L13987 5184" stroke="currentColor" stroke-width="13" />
                  <path d="M12744 5364 L13987 5364" stroke="currentColor" stroke-width="13" />
                  <path d="M12744 5544 L13987 5544" stroke="currentColor" stroke-width="13" />
                  <path d="M12744 5724 L13987 5724" stroke="currentColor" stroke-width="13" />
                  <path d="M12744 5904 L13987 5904" stroke="currentColor" stroke-width="13" />
                  <g id="m-85ba6d84-733f-493d-a016-5de2d5627a89" class="layer">
                     <g id="m-e598cf10-515f-4285-8c6f-e188ccd42a27" class="note">
                        <g class="notehead">
                           <use xlink:href="#E0A3-rreic5" x="12922" y="5454" height="720px" width="720px" />
                        </g>
                        <g id="s107n19r" class="stem">
                           <rect x="12922" y="5479" height="605" width="18" />
                        </g>
                     </g>
                  </g>
               </g>
               <g id="bpm0rk3" class="barLine">
                  <path d="M13974 5184 L13974 5904" stroke="currentColor" stroke-width="27" />
               </g>
            </g>
            <g id="m-31b0b69c-28e4-4149-a030-f7f0c58165ed" class="measure">
               <g id="m-fed0cf30-4035-4c10-90ed-352d55b4b118" class="staff">
                  <path d="M13987 5184 L15559 5184" stroke="currentColor" stroke-width="13" />
                  <path d="M13987 5364 L15559 5364" stroke="currentColor" stroke-width="13" />
                  <path d="M13987 5544 L15559 5544" stroke="currentColor" stroke-width="13" />
                  <path d="M13987 5724 L15559 5724" stroke="currentColor" stroke-width="13" />
                  <path d="M13987 5904 L15559 5904" stroke="currentColor" stroke-width="13" />
                  <g id="m-09cb7582-8e46-4aee-a4f6-fc61dc5774f6" class="layer">
                     <g id="m-8c2d2247-fbd0-4a00-866c-7e7103d01a21" class="note">
                        <g class="notehead">
                           <use xlink:href="#E0A4-rreic5" x="14165" y="5544" height="720px" width="720px" />
                        </g>
                        <g id="s1jhl34o" class="stem">
                           <rect x="14165" y="5572" height="572" width="18" />
                        </g>
                     </g>
                     <g id="m-91357949-f4c8-4f04-903f-647ff1cb6f21" class="note">
                        <g class="notehead">
                           <use xlink:href="#E0A4-rreic5" x="14855" y="5634" height="720px" width="720px" />
                        </g>
                        <g id="svpvbjn" class="stem">
                           <rect x="15063" y="5004" height="602" width="18" />
                        </g>
                     </g>
                  </g>
               </g>
               <g id="b1suq09k" class="barLine">
                  <path d="M15546 5184 L15546 5904" stroke="currentColor" stroke-width="27" />
               </g>
            </g>
            <g id="m-b1e98c77-0ba2-43b7-bc93-c30f4d28c2cc" class="measure">
               <g id="m-649efd2a-8eb1-4238-9df9-a83b728de8ff" class="staff">
                  <path d="M15559 5184 L17408 5184" stroke="currentColor" stroke-width="13" />
                  <path d="M15559 5364 L17408 5364" stroke="currentColor" stroke-width="13" />
                  <path d="M15559 5544 L17408 5544" stroke="currentColor" stroke-width="13" />
                  <path d="M15559 5724 L17408 5724" stroke="currentColor" stroke-width="13" />
                  <path d="M15559 5904 L17408 5904" stroke="currentColor" stroke-width="13" />
                  <g id="m-09e1cc30-a305-4d3c-9bcd-6d4d3a89fbd2" class="layer">
                     <g id="m-14412674-70db-4192-b62b-68b086444966" class="note">
                        <g class="notehead">
                           <use xlink:href="#E0A4-rreic5" x="15643" y="5634" height="540px" width="540px" />
                        </g>
                        <g id="sj2wvig" class="stem">
                           <rect x="15794" y="5162" height="451" width="18" />
                           <path d="M15736 5430 L15937 5229" stroke="currentColor" stroke-width="21" />
                           <g id="f118vuxg" class="flag">
                              <use xlink:href="#E240-rreic5" x="15794" y="5162" height="540px" width="540px" />
                           </g>
                        </g>
                     </g>
                     <g id="m-d9b9ccbe-9585-4603-b607-764b88e2dc62" class="note">
                        <g class="notehead">
                           <use xlink:href="#E0A4-rreic5" x="16014" y="5724" height="720px" width="720px" />
                        </g>
                        <g id="syn9hkq" class="stem">
                           <rect x="16222" y="5094" height="602" width="18" />
                        </g>
                     </g>
                     <g id="m-4f11c572-1c1f-44bf-89d5-a7426646dccc" class="note">
                        <g class="notehead">
                           <use xlink:href="#E0A4-rreic5" x="16705" y="5724" height="720px" width="720px" />
                        </g>
                        <g id="sp9ypfy" class="stem">
                           <rect x="16913" y="5094" height="602" width="18" />
                        </g>
                     </g>
                  </g>
               </g>
               <g id="bezr20y" class="barLine">
                  <path d="M17395 5184 L17395 5904" stroke="currentColor" stroke-width="27" />
               </g>
            </g>
            <g id="m-dc19b270-9f7f-4ddf-b2f3-e1205b2061b6" class="measure">
               <g id="m-2f93db5d-32f6-4a92-8134-c5f2ab737c62" class="staff">
                  <path d="M17408 5184 L18767 5184" stroke="currentColor" stroke-width="13" />
                  <path d="M17408 5364 L18767 5364" stroke="currentColor" stroke-width="13" />
                  <path d="M17408 5544 L18767 5544" stroke="currentColor" stroke-width="13" />
                  <path d="M17408 5724 L18767 5724" stroke="currentColor" stroke-width="13" />
                  <path d="M17408 5904 L18767 5904" stroke="currentColor" stroke-width="13" />
                  <g id="m-7d46876d-4998-4acc-aa28-f3711aac9b15" class="layer">
                     <g id="m-935d0898-4f76-4da3-b187-23bf7de53d75" class="rest">
                        <use xlink:href="#E4E4-rreic5" x="17602" y="5544" height="720px" width="720px" />
                        <g class="ledgerLines" />
                     </g>
                  </g>
               </g>
               <g id="b6d2j39" class="barLine">
                  <path d="M18754 5184 L18754 5904" stroke="currentColor" stroke-width="27" />
               </g>
            </g>
            <g id="m-8faa0179-1a58-4880-849b-226d8ccee72b" class="measure">
               <g id="m-d9291d71-e09b-4312-88a7-69bb42c010c4" class="staff">
                  <path d="M18767 5184 L20010 5184" stroke="currentColor" stroke-width="13" />
                  <path d="M18767 5364 L20010 5364" stroke="currentColor" stroke-width="13" />
                  <path d="M18767 5544 L20010 5544" stroke="currentColor" stroke-width="13" />
                  <path d="M18767 5724 L20010 5724" stroke="currentColor" stroke-width="13" />
                  <path d="M18767 5904 L20010 5904" stroke="currentColor" stroke-width="13" />
                  <g id="m-8c5c3c07-d4cb-4232-843b-e89035277b10" class="layer">
                     <g id="m-a766d301-aa95-4569-97b8-b408d07f3cdf" class="note">
                        <g class="notehead">
                           <use xlink:href="#E0A3-rreic5" x="18945" y="5454" height="720px" width="720px" />
                        </g>
                        <g id="szhrm8a" class="stem">
                           <rect x="18945" y="5479" height="605" width="18" />
                        </g>
                     </g>
                  </g>
               </g>
               <g id="bl7fpq8" class="barLine">
                  <path d="M19997 5184 L19997 5904" stroke="currentColor" stroke-width="27" />
               </g>
            </g>
         </g>
         <g id="s19clpss" class="system">
            <g id="m-af9d97b5-c3b3-4bf5-80ab-04e4f42ab5b6" class="measure">
               <g id="m1tx4v93" class="mNum autogenerated">
                  <text x="0" y="7236" text-anchor="middle" font-size="0px">
                     <tspan id="tu4mrn1" class="text">
                        <tspan font-size="324px" class="text">38</tspan>
                     </tspan>
                  </text>
               </g>
               <g id="m-ee4b55cc-190a-4e9d-ad2a-6e4489caa43a" class="staff">
                  <path d="M0 7479 L2915 7479" stroke="currentColor" stroke-width="13" />
                  <path d="M0 7659 L2915 7659" stroke="currentColor" stroke-width="13" />
                  <path d="M0 7839 L2915 7839" stroke="currentColor" stroke-width="13" />
                  <path d="M0 8019 L2915 8019" stroke="currentColor" stroke-width="13" />
                  <path d="M0 8199 L2915 8199" stroke="currentColor" stroke-width="13" />
                  <g id="c1o0gioj" class="clef">
                     <use xlink:href="#E050-rreic5" x="90" y="8019" height="720px" width="720px" />
                  </g>
                  <g id="k3rszsu" class="keySig">
                     <g id="kly0376" class="keyAccid">
                        <use xlink:href="#E262-rreic5" x="735" y="7479" height="720px" width="720px" />
                     </g>
                     <g id="k1eutz6g" class="keyAccid">
                        <use xlink:href="#E262-rreic5" x="913" y="7749" height="720px" width="720px" />
                     </g>
                     <g id="kdqlb7o" class="keyAccid">
                        <use xlink:href="#E262-rreic5" x="1091" y="7389" height="720px" width="720px" />
                     </g>
                  </g>
                  <g id="m-fd1f3378-ac43-4639-89a8-80912f28af64" class="layer">
                     <g id="m-5d67e611-283a-4211-a065-aa89bf99ffbc" class="note">
                        <g class="notehead">
                           <use xlink:href="#E0A4-rreic5" x="1502" y="7839" height="720px" width="720px" />
                        </g>
                        <g id="s1h87q7o" class="stem">
                           <rect x="1502" y="7867" height="572" width="18" />
                        </g>
                     </g>
                     <g id="m-fdf2fb12-4b6f-4bba-9e9a-44fcf09d138d" class="note">
                        <g class="notehead">
                           <use xlink:href="#E0A4-rreic5" x="2202" y="7929" height="720px" width="720px" />
                        </g>
                        <g id="s1klzabd" class="stem">
                           <rect x="2410" y="7299" height="602" width="18" />
                        </g>
                     </g>
                  </g>
               </g>
               <g id="b1l0548" class="barLine">
                  <path d="M2902 7479 L2902 8199" stroke="currentColor" stroke-width="27" />
               </g>
            </g>
            <g id="m-a35a1dab-215d-4c42-91cb-cce1c78e3627" class="measure">
               <g id="m-0f75e6f0-12fa-48e3-a003-f5da48aced8f" class="staff">
                  <path d="M2915 7479 L4789 7479" stroke="currentColor" stroke-width="13" />
                  <path d="M2915 7659 L4789 7659" stroke="currentColor" stroke-width="13" />
                  <path d="M2915 7839 L4789 7839" stroke="currentColor" stroke-width="13" />
                  <path d="M2915 8019 L4789 8019" stroke="currentColor" stroke-width="13" />
                  <path d="M2915 8199 L4789 8199" stroke="currentColor" stroke-width="13" />
                  <g id="m-0a27f931-0e50-42d5-92d6-ae9c06079ca1" class="layer">
                     <g id="m-b7216ff1-76cc-4152-9fb2-c74981881c61" class="note">
                        <g class="notehead">
                           <use xlink:href="#E0A4-rreic5" x="3005" y="7929" height="540px" width="540px" />
                        </g>
                        <g id="s17p4495" class="stem">
                           <rect x="3156" y="7457" height="451" width="18" />
                           <path d="M3098 7725 L3299 7524" stroke="currentColor" stroke-width="21" />
                           <g id="fw46c6t" class="flag">
                              <use xlink:href="#E240-rreic5" x="3156" y="7457" height="540px" width="540px" />
                           </g>
                        </g>
                     </g>
                     <g id="m-01b18463-5af9-40eb-9748-3fdc44aaf464" class="note">
                        <g class="notehead">
                           <use xlink:href="#E0A4-rreic5" x="3376" y="8019" height="720px" width="720px" />
                        </g>
                        <g id="s146c2gw" class="stem">
                           <rect x="3584" y="7389" height="602" width="18" />
                        </g>
                     </g>
                     <g id="m-e83f75f7-5a74-4ab5-94fe-b88b4eeaf3e2" class="note">
                        <g class="notehead">
                           <use xlink:href="#E0A4-rreic5" x="4076" y="8019" height="720px" width="720px" />
                        </g>
                        <g id="s91i7km" class="stem">
                           <rect x="4284" y="7389" height="602" width="18" />
                        </g>
                     </g>
                  </g>
               </g>
               <g id="b19oqzsc" class="barLine">
                  <path d="M4776 7479 L4776 8199" stroke="currentColor" stroke-width="27" />
               </g>
            </g>
            <g id="m-bfece889-c3e9-4af1-b4c8-522b91d099cc" class="measure">
               <g id="m-0c38f247-bac6-4757-9eab-2cb42b22ac33" class="staff">
                  <path d="M4789 7479 L6166 7479" stroke="currentColor" stroke-width="13" />
                  <path d="M4789 7659 L6166 7659" stroke="currentColor" stroke-width="13" />
                  <path d="M4789 7839 L6166 7839" stroke="currentColor" stroke-width="13" />
                  <path d="M4789 8019 L6166 8019" stroke="currentColor" stroke-width="13" />
                  <path d="M4789 8199 L6166 8199" stroke="currentColor" stroke-width="13" />
                  <g id="m-1f9d58ea-bf2d-4e17-8d7a-b2fa00a843a6" class="layer">
                     <g id="m-6541ec03-61dd-4336-8599-95976f9ed6cd" class="rest">
                        <use xlink:href="#E4E4-rreic5" x="4985" y="7839" height="720px" width="720px" />
                        <g class="ledgerLines" />
                     </g>
                  </g>
               </g>
               <g id="b1v3d0ld" class="barLine">
                  <path d="M6153 7479 L6153 8199" stroke="currentColor" stroke-width="27" />
               </g>
            </g>
            <g id="m-757b1fbd-7538-4d9e-b509-e36d4564f963" class="measure">
               <g id="m-b7a72562-85ed-4415-a4c0-92d48804f599" class="staff">
                  <path d="M6166 7479 L7709 7479" stroke="currentColor" stroke-width="13" />
                  <path d="M6166 7659 L7709 7659" stroke="currentColor" stroke-width="13" />
                  <path d="M6166 7839 L7709 7839" stroke="currentColor" stroke-width="13" />
                  <path d="M6166 8019 L7709 8019" stroke="currentColor" stroke-width="13" />
                  <path d="M6166 8199 L7709 8199" stroke="currentColor" stroke-width="13" />
                  <g id="m-36d88230-baea-428c-8918-93f7d29ee2d7" class="layer">
                     <g id="m-db170b70-ab24-4f18-9deb-5b2f23b64dd6" class="note">
                        <g class="notehead">
                           <use xlink:href="#E0A4-rreic5" x="6346" y="7749" height="720px" width="720px" />
                        </g>
                        <g id="ddk703l" class="dots">
                           <ellipse cx="6662" cy="7749" rx="36" ry="36" />
                        </g>
                        <g id="slkdmgf" class="stem">
                           <rect x="6346" y="7777" height="602" width="18" />
                        </g>
                     </g>
                     <g id="m-d7a68ee3-6d63-4dfe-b594-a5ba285668fc" class="note">
                        <g class="notehead">
                           <use xlink:href="#E0A4-rreic5" x="7239" y="7749" height="720px" width="720px" />
                        </g>
                        <g id="s1h9mole" class="stem">
                           <rect x="7239" y="7777" height="602" width="18" />
                           <g id="f4oy3al" class="flag">
                              <use xlink:href="#E241-rreic5" x="7239" y="8379" height="720px" width="720px" />
                           </g>
                        </g>
                     </g>
                  </g>
               </g>
               <g id="b1cyh01t" class="barLine">
                  <path d="M7696 7479 L7696 8199" stroke="currentColor" stroke-width="27" />
               </g>
            </g>
            <g id="m-5a6e5360-12c6-45bb-a11a-4f003537a5c8" class="measure">
               <g id="m-bebc09bc-dd6d-41a2-8546-0b000ecb88b7" class="staff">
                  <path d="M7709 7479 L9302 7479" stroke="currentColor" stroke-width="13" />
                  <path d="M7709 7659 L9302 7659" stroke="currentColor" stroke-width="13" />
                  <path d="M7709 7839 L9302 7839" stroke="currentColor" stroke-width="13" />
                  <path d="M7709 8019 L9302 8019" stroke="currentColor" stroke-width="13" />
                  <path d="M7709 8199 L9302 8199" stroke="currentColor" stroke-width="13" />
                  <g id="m-e63cbc9c-de11-4d47-8b69-e9c84f9501c9" class="layer">
                     <g id="m-9f357825-1d9f-4b20-a9a2-7053bd3c42a4" class="note">
                        <g class="notehead">
                           <use xlink:href="#E0A4-rreic5" x="7889" y="7749" height="720px" width="720px" />
                        </g>
                        <g id="s8jt09o" class="stem">
                           <rect x="7889" y="7777" height="602" width="18" />
                        </g>
                     </g>
                     <g id="m-faf56105-440a-419e-b63b-775a9521302d" class="note">
                        <g class="notehead">
                           <use xlink:href="#E0A4-rreic5" x="8589" y="7749" height="720px" width="720px" />
                        </g>
                        <g id="s1m2x633" class="stem">
                           <rect x="8589" y="7777" height="602" width="18" />
                        </g>
                     </g>
                  </g>
               </g>
               <g id="bib26ax" class="barLine">
                  <path d="M9289 7479 L9289 8199" stroke="currentColor" stroke-width="27" />
               </g>
            </g>
            <g id="m-a6833d3b-360c-4120-aea4-b02c6e8da8bc" class="measure">
               <g id="m-958d74dc-b4a4-4e7b-9ed5-4157011817c3" class="staff">
                  <path d="M9302 7479 L10561 7479" stroke="currentColor" stroke-width="13" />
                  <path d="M9302 7659 L10561 7659" stroke="currentColor" stroke-width="13" />
                  <path d="M9302 7839 L10561 7839" stroke="currentColor" stroke-width="13" />
                  <path d="M9302 8019 L10561 8019" stroke="currentColor" stroke-width="13" />
                  <path d="M9302 8199 L10561 8199" stroke="currentColor" stroke-width="13" />
                  <g id="m-b922dd9d-8e92-4997-8262-0e793fa85627" class="layer">
                     <g id="m-ceabfbd6-b775-4646-ad99-4f6416951b15" class="note">
                        <g class="notehead">
                           <use xlink:href="#E0A3-rreic5" x="9482" y="7659" height="720px" width="720px" />
                        </g>
                        <g id="sdjmop4" class="stem">
                           <rect x="9482" y="7684" height="605" width="18" />
                        </g>
                     </g>
                  </g>
               </g>
               <g id="b10fej5s" class="barLine">
                  <path d="M10548 7479 L10548 8199" stroke="currentColor" stroke-width="27" />
               </g>
            </g>
            <g id="m-c7ef09e4-b60e-4387-95d4-25c485fb2a4d" class="measure">
               <g id="m-502ae944-b5b7-4bb6-873f-5feb85176de8" class="staff">
                  <path d="M10561 7479 L11820 7479" stroke="currentColor" stroke-width="13" />
                  <path d="M10561 7659 L11820 7659" stroke="currentColor" stroke-width="13" />
                  <path d="M10561 7839 L11820 7839" stroke="currentColor" stroke-width="13" />
                  <path d="M10561 8019 L11820 8019" stroke="currentColor" stroke-width="13" />
                  <path d="M10561 8199 L11820 8199" stroke="currentColor" stroke-width="13" />
                  <g id="m-476d0142-cf26-467c-8aa7-ef284dc162e9" class="layer">
                     <g id="m-60218e28-7ccd-41f8-bbe6-4501f5158d27" class="note">
                        <g class="notehead">
                           <use xlink:href="#E0A3-rreic5" x="10741" y="7749" height="720px" width="720px" />
                        </g>
                        <g id="s27uw4g" class="stem">
                           <rect x="10741" y="7774" height="605" width="18" />
                        </g>
                     </g>
                  </g>
               </g>
               <g id="b1tcpbyo" class="barLine">
                  <path d="M11807 7479 L11807 8199" stroke="currentColor" stroke-width="27" />
               </g>
            </g>
            <g id="m-a418c83b-7fa9-47cb-a793-6612bd6ed3d1" class="measure">
               <g id="m-cec98ee1-7d7a-48a4-9b81-a1c995eafbb4" class="staff">
                  <path d="M11820 7479 L13079 7479" stroke="currentColor" stroke-width="13" />
                  <path d="M11820 7659 L13079 7659" stroke="currentColor" stroke-width="13" />
                  <path d="M11820 7839 L13079 7839" stroke="currentColor" stroke-width="13" />
                  <path d="M11820 8019 L13079 8019" stroke="currentColor" stroke-width="13" />
                  <path d="M11820 8199 L13079 8199" stroke="currentColor" stroke-width="13" />
                  <g id="m-8f2e4144-d26e-4a04-b130-87d056d04d05" class="layer">
                     <g id="m-c975bafe-fa37-46d6-b387-5de1c7d195ed" class="note">
                        <g class="notehead">
                           <use xlink:href="#E0A3-rreic5" x="12000" y="7839" height="720px" width="720px" />
                        </g>
                        <g id="s53uguw" class="stem">
                           <rect x="12000" y="7864" height="575" width="18" />
                        </g>
                     </g>
                  </g>
               </g>
               <g id="bamgwha" class="barLine">
                  <path d="M13066 7479 L13066 8199" stroke="currentColor" stroke-width="27" />
               </g>
            </g>
            <g id="s15ql73r" class="systemMilestoneEnd m-bb13a582-278c-41bf-aa85-d9680b82448b" />
         </g>
         <g id="p17hg4ts" class="pageMilestoneEnd m-ba94c48c-ffad-4f28-8fbf-25c80e280f0a" />
         <g id="pa07pgk" class="pageMilestoneEnd m-b52d5cdb-0de4-418d-8093-5cb2091368a0" />
         <g id="p1im7xlr" class="pgHead autogenerated" />
         <g id="p1t9cpcp" class="pgFoot autogenerated">
            <g id="fidl7e5" class="fig">
               <g id="s1b0ku4a" class="svg" transform="translate(7750, 28099) scale(10, 10)">
                  <g>
                     <path fill="#00000" d="M 17.11278,49.26451 V 10.367554 h 12.696511 c 3.288815,7.336676 6.71267,14.610456 10.127281,21.888976 3.419998,-7.484684 6.255515,-14.204887 9.58887,-21.909915 2.436207,0.103726 4.316952,0.08453 6.484294,-0.05808 V 49.264423 H 50.274275 C 50.145222,38.35639 50.016136,27.448368 49.887066,16.540329 45.003488,27.315459 39.967448,38.433564 35.083854,49.208695 34.678996,49.343717 34.426583,49.135619 34.021726,49.270644 29.46588,39.330716 24.910049,29.390805 20.354201,19.450876 20.224341,29.388756 20.09461,39.326619 19.964815,49.264497 H 17.11278 Z M 36.754144,39.324695 C 32.721221,30.512695 28.6883,21.700679 24.655394,12.888662 22.530527,12.750737 22.656775,12.71031 20.714356,12.813974 v 0.966497 c 4.612938,9.99784 9.609439,20.748709 13.87298,30.081745 0.722248,-1.512523 1.444528,-3.025014 2.166808,-4.537521 z m 25.738417,9.939815 c 0,-12.965651 0,-25.931305 0,-38.896956 10.084388,0 20.168791,0 30.253178,0 0,0.960416 0,1.920849 0,2.881265 -6.482825,0 -12.965652,0 -19.448478,0 0,4.802097 0,9.604178 0,14.406277 5.52241,0 11.044819,0 16.567229,0 0,0.960415 0,1.920832 0,2.881248 -5.52241,0 -11.044819,0 -16.567229,0 0,5.282306 0,10.564611 0,15.846917 6.963035,0 13.926068,0 20.889103,0 0,0.960416 0,1.920832 0,2.881249 -10.564597,0 -21.129207,0 -31.693803,0 z m 4.321874,-2.160937 c 0,-11.765131 0,-23.530263 0,-35.295394 -0.720312,0 -1.440625,0 -2.160937,0 0,11.765131 0,23.530263 0,35.295394 0.720312,0 1.440625,0 2.160937,0 z m 32.41413,2.160937 c 0,-12.965651 0,-25.931305 0,-38.896956 2.401045,0 4.802095,0 7.203135,0 0,12.965651 0,25.931305 0,38.896956 -2.40104,0 -4.80209,0 -7.203135,0 z m 2.881265,-2.160937 c 0,-11.765131 0,-23.530263 0,-35.295394 -0.72031,0 -1.44064,0 -2.160953,0 0,11.765131 0,23.530263 0,35.295394 0.720313,0 1.440643,0 2.160953,0 z" />
                     <path fill="#00000" d="m 346.3,6.7 c -3.1,0.5 -4.9,4.4 -2.7,6.8 1.2,1.4 2.7,2.4 4.1,3.5 -2.4,5.3 -7.7,8.3 -11.9,12.1 -3.7,2.8 -7,6.2 -9.7,9.9 -2.2,-0.8 -0.3,-6.8 -0.6,-9.5 0.1,-3.1 0.7,-6.4 2.9,-8.7 1.3,-1.9 3,-3.5 4.5,-5.2 1.2,-3.4 -3.2,-4.9 -5.8,-4.6 -7.3,-0.5 -14.6,2 -20,6.8 -5,4.6 -10,10.1 -11.5,17 -0.9,3.5 -0.2,7.5 2.8,9.9 2.5,2.8 7.4,2.9 9.8,-0.2 1.7,-2.3 3.2,-4.8 3.8,-7.6 -0.1,-2.6 -4.4,-2.3 -4.3,0.2 1.2,2.4 -0.9,4.7 -2.7,6.2 -1.7,0.9 -4.7,0.7 -4.8,-1.7 -1,-5.8 2.1,-11.3 5.2,-16.1 4,-5.8 9.8,-11.2 17.2,-11.8 1.6,0 8.1,-1.2 6.8,1.4 -2.8,2.8 -5.6,6.1 -6,10.3 -1.6,7.7 0.1,15.7 -2.3,23.2 -1.1,3.9 2,2.6 2.5,0.2 3.3,-7.4 8.9,-13.4 15.1,-18.5 4.2,-3.9 9.5,-7.1 11.9,-12.6 1.3,-3.6 1.2,-9 -2.7,-10.9 -0.6,-0.2 -1.2,-0.3 -1.8,-0.3 z m 66,14.5 c -2,0.8 -1.8,4.9 0.8,4.4 3.4,0.4 2.9,-6.2 -0.8,-4.4 z m 0.6,7.3 c -1.3,0.5 -7.6,0.5 -5.4,2.2 4,-0.3 0.7,4.5 0.6,6.7 -0.4,2.9 -2.4,5.9 -1.2,8.8 2.7,1.7 5.6,-0.8 6.8,-3.2 1.6,-1.4 -0.5,-3 -1.2,-0.9 -0.4,0.8 -2.4,3.5 -2.6,1.8 1.1,-5 2.7,-9.9 3.9,-14.9 l -0.1,-0.5 h -0.9 z m -65.1,0.2 c -6.5,1.6 -10.5,9.5 -8.2,15.7 2.1,3.4 7.4,2.9 10.1,0.4 2,-0.2 3.6,-5.3 1,-3.4 -1.4,2 -4,4.2 -6.5,2.8 -2.2,-1.9 -1.9,-5.7 1.7,-5.3 3.1,-0.9 6.9,-2.1 8.1,-5.5 0.9,-2.7 -1.6,-5.2 -4.3,-4.8 h -1.1 -0.7 z m 13.6,0 c -2.2,0 -8.5,1.8 -2.9,2.3 0.9,1.9 -1,4.9 -1.1,7.2 -0.5,2.9 -1.4,5.7 -1.7,8.7 3.7,0.7 3.8,-2.6 4.4,-5.3 0.9,-3.3 1.6,-7 4.1,-9.5 2.4,1.6 6.8,-0.7 3.7,-3.4 -2.9,-0.5 -4.8,2.4 -6.2,4.3 0,-1.2 2.4,-5 -0.2,-4.3 z m 15.8,0 c -6.4,1.3 -9.6,9.1 -7.7,14.9 1.9,4 7.7,3.9 11,1.7 4.1,-3 6,-8.9 4.4,-13.7 -1.3,-3 -4.8,-3.2 -7.6,-3 z m 17,0 c -2.3,0 -8.8,1.9 -3,2.4 0.4,2.5 -1,5.7 -1.4,8.4 -0.7,2.4 -1.8,7.5 2.1,7.2 3.8,-0.1 6.5,-3.5 8.5,-6.3 2,-3.2 4.5,-7 3.3,-10.9 -3.7,-3 -3.6,2.6 -3.1,5.1 -0.7,3.8 -2.7,7.9 -6.2,9.8 -3.6,0.6 -1,-4.3 -0.8,-6.1 0.6,-3.2 1.6,-6.3 1.9,-9.5 -0.4,0 -0.8,0 -1.1,0 z m 30.6,0 c -6.3,1.2 -9.5,8.9 -7.8,14.7 1.5,4 7.2,4.2 10.5,2.4 4.6,-2.8 6.6,-9.3 4.8,-14.3 -1.4,-2.8 -4.8,-3 -7.5,-2.8 z m -75.4,1.7 c 2.1,1.5 0.2,4.7 -1.6,5.7 -1.1,0.4 -5.5,3.4 -4.6,0.7 0.8,-2.7 2.2,-6.2 5.3,-6.6 l 0.9,0.1 z m 30.8,0 c 2.6,1.5 1.3,5.2 0.8,7.6 -0.8,2.7 -1.9,5.9 -4.7,7.1 -5.1,0.8 -4,-5.8 -2.8,-8.8 1,-2.8 3,-6.8 6.7,-5.8 z m 47.1,-0.1 c 2.9,0.7 2,4.7 1.5,6.8 -0.7,3 -1.8,6.7 -5,8 -4.7,0.8 -4,-5.1 -3,-7.9 0.9,-3 2.7,-7.3 6.5,-6.8 z m -88.1,5.9 c -0.3,1.3 0.9,-0.6 0,0 z m -1.1,2.4 c -0.2,0.5 0.5,-0.1 0,0 z m -1.3,4.5 c -0.3,1.3 0.8,-0.2 0,0 z" />
                     <text y="41" x="201" fill="#00000" style="font-style:italic;font-weight:normal;font-size:30px;line-height:125%;font-family:Times;text-anchor:middle" xml:space="preserve">engraved with</text>
                  </g>
               </g>
            </g>
         </g>
      </g>
   </svg>
</svg>
